time,value
2,0
2.025,0
2.05,0.02144
2.075,0.04288
2.1,0.1072
2.125,0.175808
2.15,0.27872
2.175,0.120064
2.2,0.158656
2.225,0.270144
2.25,0.231552
2.275,0.227264
2.3,0.12864
2.325,0
2.35,0
2.375,0
2.4,0
2.425,0.948224
2.45,0.101696
2.475,0.04288
2.5,0.068608
2.525,0.30016
2.55,0.231552
2.575,0.227264
2.6,0.184384
2.625,0
2.65,0
2.675,0
2.7,0.981952
2.725,0.062912
2.75,0.132928
2.775,0.377344
2.8,0.458816
2.825,0.40736
2.85,0.283008
2.875,0.227264
2.9,0.197248
2.925,0
2.95,0
2.975,0.518848
3,0.485184
3.025,0
3.05,0
3.075,0
3.1,0
3.125,0
3.15,0
3.175,0
3.2,0
3.225,0
3.25,0
3.275,0
3.3,0
3.325,0
3.35,0
3.375,0
3.4,0
3.425,0
3.45,0
3.475,0
3.5,0
3.525,0
3.55,0
3.575,0
3.6,0
3.625,0
3.65,0
3.675,0
3.7,0
3.725,0
3.75,0
3.775,0
3.8,0
3.825,0
3.85,0
3.875,0
3.9,0
3.925,0
3.95,0
3.975,0
4,0
4.025,0
4.05,0
4.075,0
4.1,0
4.125,0
4.15,0
4.175,0
4.2,0
4.225,0
4.25,0
4.275,0
4.3,0
4.325,0
4.35,0
4.375,0
4.4,0
4.425,0
4.45,0
4.475,0
4.5,0
4.525,0
4.55,0
4.575,0
4.6,0
4.625,0
4.65,0
4.675,0
4.7,0
4.725,0
4.75,0
4.775,0
4.8,0
4.825,0
4.85,0
4.875,0
4.9,0
4.925,0
4.95,0
4.975,0.287296
5,0.360192
5.025,0.351616
5.05,0.347328
5.075,0.132928
5.1,0
5.125,0
5.15,0.939072
5.175,0.25728
5.2,0.420224
5.225,0.197248
5.25,0
5.275,0.295872
5.3,0.23584
5.325,0
5.35,0.411648
5.375,0.090048
5.4,0.248704
5.425,0.205824
5.45,0.325888
5.475,0.270144
5.5,0.403072
5.525,0.145792
5.55,0.283008
5.575,0.274432
5.6,0.23584
5.625,0.274432
5.65,0.291584
5.675,0.27872
5.7,0.261568
5.725,0.1744
5.75,0
5.775,0
5.8,0
5.825,0
5.85,0
5.875,0
5.9,0
5.925,0
5.95,0
5.975,0
6,0
6.025,0
6.05,0
6.075,0
6.1,0
6.125,0
6.15,0
6.175,0
6.2,0
6.225,0
6.25,0
6.275,0
6.3,0
6.325,0
6.35,0
6.375,0
6.4,0
6.425,0
6.45,0
6.475,0
6.5,0
6.525,0
6.55,0
6.575,0
6.6,0
6.625,0
6.65,0
6.675,0
6.7,0
6.725,0
6.75,0
6.775,0
6.8,0
6.825,0
6.85,0
6.875,0
6.9,0
6.925,0
6.95,0
6.975,0
7,0
7.025,0
7.05,0
7.075,0
7.1,0
7.125,0
7.15,0
7.175,0
7.2,0
7.225,0
7.25,0
7.275,0
7.3,0
7.325,0
7.35,0
7.375,0
7.4,0
7.425,0
7.45,0
7.475,0
7.5,0
7.525,0
7.55,0
7.575,0
7.6,0
7.625,0
7.65,0
7.675,0
7.7,0.27872
7.725,0.04288
7.75,0.291584
7.775,0.197248
7.8,0.27872
7.825,0.15008
7.85,0.338752
7.875,0.240128
7.9,0.265856
7.925,0.265856
7.95,0.240128
7.975,0.25728
8,0.244416
8.025,0.201536
8.05,0.248704
8.075,0.197248
8.1,0.06432
8.125,0.158656
8.15,0.19296
8.175,0.201536
8.2,0.17152
8.225,0.17152
8.25,0.137216
8.275,0.184384
8.3,0.077184
8.325,0.19296
8.35,0.17152
8.375,0.137216
8.4,0.201536
8.425,0.218688
8.45,0.19296
8.475,0.197248
8.5,0.205824
8.525,0.180096
8.55,0.197248
8.575,0.218688
8.6,0.201536
8.625,0.132928
8.65,0.205824
8.675,0.205824
8.7,0.041472
8.725,0
8.75,0
8.775,0
8.8,0
8.825,0
8.85,0
8.875,0
8.9,0
8.925,0
8.95,0
8.975,0
9,0
9.025,0
9.05,0
9.075,0
9.1,0
9.125,0
9.15,0
9.175,0
9.2,0
9.225,0
9.25,0
9.275,0
9.3,0
9.325,0
9.35,0
9.375,0
9.4,0
9.425,0
9.45,0
9.475,0
9.5,0
9.525,0
9.55,0
9.575,0
9.6,0
9.625,0
9.65,0
9.675,0
9.7,0
9.725,0
9.75,0
9.775,0
9.8,0
9.825,0
9.85,0
9.875,0
9.9,0
9.925,0
9.95,0
9.975,0
10,0
10.025,0
10.05,0
10.075,0
10.1,0
10.125,0
10.15,0
10.175,0
10.2,0
10.225,0
10.25,0
10.275,0
10.3,0
10.325,0
10.35,0
10.375,0
10.4,0
10.425,0
10.45,0
10.475,0
10.5,0
10.525,0
10.55,0
10.575,0
10.6,0.197248
10.625,0.197248
10.65,0.222976
10.675,0.222976
10.7,0.252992
10.725,0.274432
10.75,0.291584
10.775,0.274432
10.8,0.145792
10.825,0.325888
10.85,0.287296
10.875,0.334464
10.9,0.287296
10.925,0.373056
10.95,0.40736
10.975,0.360192
11,0.394496
11.025,0.017152
11.05,0.566016
11.075,0.304448
11.1,0.30016
11.125,0.308736
11.15,0.274432
11.175,0.3216
11.2,0.368768
11.225,0.201536
11.25,0.295872
11.275,0.188672
11.3,0.00288
11.325,0
11.35,0
11.375,0
11.4,0
11.425,0
11.45,0
11.475,0
11.5,0
11.525,0
11.55,0
11.575,0
11.6,0
11.625,0
11.65,0
11.675,0
11.7,0
11.725,0
11.75,0
11.775,0
11.8,0
11.825,0
11.85,0
11.875,0
11.9,0
11.925,0
11.95,0
11.975,0
12,0
12.025,0
12.05,0
12.075,0
12.1,0
12.125,0
12.15,0
12.175,0
12.2,0
12.225,0
12.25,0
12.275,0
12.3,0
12.325,0
12.35,0
12.375,0
12.4,0
12.425,0
12.45,0
12.475,0
12.5,0
12.525,0
12.55,0
12.575,0
12.6,0
12.625,0
12.65,0
12.675,0
12.7,0
12.725,0
12.75,0
12.775,0
12.8,0
12.825,0
12.85,0
12.875,0
12.9,0
12.925,0
12.95,0
12.975,0
13,0
13.025,0
13.05,0
13.075,0
13.1,0
13.125,0
13.15,0
13.175,0
13.2,0
13.225,0.3216
13.25,0.184384
13.275,0.38592
13.3,0.403072
13.325,0.373056
13.35,0.403072
13.375,0.467392
13.4,0.458816
13.425,0.523136
13.45,0.424512
13.475,0.240128
13.5,0.505984
13.525,0.175808
13.55,0.36448
13.575,0.377344
13.6,0.377344
13.625,0.373056
13.65,0.244416
13.675,0.287296
13.7,0.45024
13.725,0.218688
13.75,0.261568
13.775,0.178688
13.8,0
13.825,0
13.85,0
13.875,0
13.9,0
13.925,0
13.95,0
13.975,0
14,0
14.025,0
14.05,0
14.075,0
14.1,0
14.125,0
14.15,0
14.175,0
14.2,0
14.225,0
14.25,0
14.275,0
14.3,0
14.325,0
14.35,0
14.375,0
14.4,0
14.425,0
14.45,0
14.475,0
14.5,0
14.525,0
14.55,0
14.575,0
14.6,0
14.625,0
14.65,0
14.675,0
14.7,0
14.725,0
14.75,0
14.775,0
14.8,0
14.825,0
14.85,0
14.875,0
14.9,0
14.925,0
14.95,0
14.975,0
15,0
15.025,0
15.05,0
15.075,0
15.1,0
15.125,0
15.15,0
15.175,0
15.2,0
15.225,0
15.25,0
15.275,0
15.3,0
15.325,0
15.35,0
15.375,0
15.4,0
15.425,0
15.45,0
15.475,0
15.5,0
15.525,0
15.55,0
15.575,0
15.6,0
15.625,0
15.65,0
15.675,0
15.7,0
15.725,0
15.75,0.17152
15.775,0.158656
15.8,0.180096
15.825,0.19296
15.85,0.227264
15.875,0.23584
15.9,0.222976
15.925,0.23584
15.95,0.23584
15.975,0.17152
16,0.175808
16.025,0
16.05,0.347328
16.075,0.188672
16.1,0.111488
16.125,0.197248
16.15,0.072896
16.175,0.175808
16.2,0.154368
16.225,0.244416
16.25,0.227264
16.275,0.201536
16.3,0.227264
16.325,0.240128
16.35,0.244416
16.375,0.240128
16.4,0.231552
16.425,0.205824
16.45,0.2144
16.475,0.15008
16.5,0.120064
16.525,0.17152
16.55,0.17152
16.575,0.17152
16.6,0.175808
16.625,0.231552
16.65,0.1072
16.675,0.17152
16.7,0.248704
16.725,0.240128
16.75,0.261568
16.775,0.04576
16.8,0
16.825,0
16.85,0
16.875,0
16.9,0
16.925,0
16.95,0
16.975,0
17,0
17.025,0
17.05,0
17.075,0
17.1,0
17.125,0
17.15,0
17.175,0
17.2,0
17.225,0
17.25,0
17.275,0
17.3,0
17.325,0
17.35,0
17.375,0
17.4,0
17.425,0
17.45,0
17.475,0
17.5,0
17.525,0
17.55,0
17.575,0
17.6,0
17.625,0
17.65,0
17.675,0
17.7,0
17.725,0
17.75,0
17.775,0
17.8,0
17.825,0
17.85,0
17.875,0
17.9,0
17.925,0
17.95,0
17.975,0
18,0
18.025,0
18.05,0
18.075,0
18.1,0
18.125,0
18.15,0
18.175,0
18.2,0
18.225,0
18.25,0
18.275,0
18.3,0
18.325,0
18.35,0
18.375,0
18.4,0
18.425,0
18.45,0
18.475,0
18.5,0
18.525,0
18.55,0
18.575,0
18.6,0
18.625,0
18.65,0
18.675,0
18.7,0.231552
18.725,0.227264
18.75,0.154368
18.775,0.124352
18.8,0.244416
18.825,0.175808
18.85,0.188672
18.875,0.313024
18.9,0.012864
18.925,0.308736
18.95,0.162944
18.975,0.055744
19,0.390208
19.025,0.210112
19.05,0.248704
19.075,0.265856
19.1,0.283008
19.125,0.27872
19.15,0.244416
19.175,0.240128
19.2,0.283008
19.225,0.265856
19.25,0.283008
19.275,0.30016
19.3,0.295872
19.325,0.265856
19.35,0.30016
19.375,0.291584
19.4,0.291584
19.425,0.30016
19.45,0.304448
19.475,0.295872
19.5,0.161536
19.525,0
19.55,0
19.575,0
19.6,0
19.625,0
19.65,0
19.675,0
19.7,0
19.725,0
19.75,0
19.775,0
19.8,0
19.825,0
19.85,0
19.875,0
19.9,0
19.925,0
19.95,0
19.975,0
20,0
20.025,0
20.05,0
20.075,0
20.1,0
20.125,0
20.15,0
20.175,0
20.2,0
20.225,0
20.25,0
20.275,0
20.3,0
20.325,0
20.35,0
20.375,0
20.4,0
20.425,0
20.45,0
20.475,0
20.5,0
20.525,0
20.55,0
20.575,0
20.6,0
20.625,0
20.65,0
20.675,0
20.7,0
20.725,0
20.75,0
20.775,0
20.8,0
20.825,0
20.85,0
20.875,0
20.9,0
20.925,0
20.95,0
20.975,0
21,0
21.025,0
21.05,0
21.075,0
21.1,0
21.125,0
21.15,0
21.175,0
21.2,0
21.225,0
21.25,0
21.275,0
21.3,0
21.325,0
21.35,0
21.375,0
21.4,0
21.425,0
21.45,0.231552
21.475,0.167232
21.5,0.313024
21.525,0.334464
21.55,0.351616
21.575,0.36448
21.6,0.330176
21.625,0.36448
21.65,0.390208
21.675,0.445952
21.7,0.445952
21.725,0.467392
21.75,0.523136
21.775,0.518848
21.8,0.574592
21.825,0.566016
21.85,0.62176
21.875,0.60032
21.9,0.3888
21.925,0
21.95,0
21.975,0
