host,value
192.168.2.4,0.871393
192.168.2.3,0.901935
192.168.2.5,1.02056
192.168.2.4,0.526583
192.168.2.3,0.730078
192.168.2.5,0.921252
192.168.2.4,0.262027
192.168.2.3,0.921392
192.168.2.5,0.783177
192.168.2.4,0.235373
192.168.2.3,0.632565
192.168.2.5,0.692988
192.168.2.4,0.238171
192.168.2.3,0.519671
192.168.2.5,0.446716
192.168.2.4,0.256378
192.168.2.5,0.294473
192.168.2.3,0.941323
192.168.2.4,0.274093
192.168.2.5,0.279936
192.168.2.4,0.299338
192.168.2.3,0.765108
192.168.2.5,0.244778
192.168.2.4,0.260767
192.168.2.3,0.446062
