time,value
2,0
2.025,0
2.05,0.04288
2.075,0.04288
2.1,0.094336
2.125,0.1072
2.15,0.158656
2.175,0.23584
2.2,0.317312
2.225,0.004288
2.25,0
2.275,0.531712
2.3,0.15008
2.325,0.231552
2.35,0.154368
2.375,0
2.4,0.60032
2.425,0.162944
2.45,0.2144
2.475,0.261568
2.5,0.368768
2.525,0.231552
2.55,0.2144
2.575,0.248704
2.6,0.287296
2.625,0.205824
2.65,0.283008
2.675,0.274432
2.7,0.248704
2.725,0.283008
2.75,0.252992
2.775,0
2.8,0.441664
2.825,0.08576
2.85,0.188672
2.875,0.120064
2.9,0.325888
2.925,0.081472
2.95,0.334464
2.975,0.317312
3,0.330176
3.025,0.347328
3.05,0.304448
3.075,0.283008
3.1,0.368768
3.125,0.40736
3.15,0.40736
3.175,0.445952
3.2,0.420224
3.225,0.454528
3.25,0.574592
3.275,0.613184
3.3,0.454528
3.325,0.698944
3.35,0.780416
3.375,0.70752
3.4,0.79328
3.425,0.724672
3.45,0.801856
3.475,0.660352
3.5,0
3.525,1.04762
3.55,0.668928
3.575,0.737536
3.6,0.630336
3.625,0.733248
3.65,0.776128
3.675,0.553152
3.7,0.763264
3.725,0.60032
3.75,0.55744
3.775,0.132928
3.8,1.04749
3.825,0.27872
3.85,0.591744
3.875,0.06432
3.9,0.977664
3.925,0.164352
3.95,0.540288
3.975,0.527424
4,0.548864
4.025,0.467392
4.05,0.608896
4.075,0.403072
4.1,0.544576
4.125,0.505984
4.15,0.724672
4.175,0.51456
4.2,0.608896
4.225,0.437376
4.25,0.83616
4.275,0.720384
4.3,0.647488
4.325,0.72896
4.35,0.776128
4.375,0.347968
4.4,0.724672
4.425,0.724672
4.45,0.677504
4.475,0.694656
4.5,0.613184
4.525,0.720384
4.55,0.690368
4.575,0.70752
4.6,0.6432
4.625,0.741824
4.65,0.711808
4.675,0.694656
4.7,0.660352
4.725,0.767552
4.75,0.690368
4.775,0.651776
4.8,0.62176
4.825,0.613824
4.85,0.567552
4.875,0.56096
4.9,0.392256
4.925,0
4.95,0
4.975,0
5,1.04742
5.025,0.158656
5.05,0.270144
5.075,0
5.1,0
5.125,0
5.15,0.7504
5.175,0
5.2,0
5.225,0
5.25,0
5.275,0
5.3,0
5.325,0
5.35,0
5.375,0
5.4,0
5.425,0
5.45,0
5.475,0
5.5,0
5.525,0
5.55,0
5.575,0
5.6,0
5.625,0
5.65,0
5.675,0
5.7,0
5.725,0
5.75,0
5.775,0
5.8,0
5.825,0
5.85,0
5.875,0
5.9,0
5.925,0
5.95,0
5.975,0
6,0
6.025,0
6.05,0
6.075,0
6.1,0
6.125,0
6.15,0
6.175,1.04493
6.2,0.008576
6.225,0.004288
6.25,0.008576
6.275,0.008576
6.3,0.012864
6.325,0.017152
6.35,0.025728
6.375,0.030016
6.4,0.034304
6.425,0.055744
6.45,0.051456
6.475,0.060032
6.5,0.060032
6.525,0.060032
6.55,0.060032
6.575,0.06432
6.6,0.068608
6.625,0.081472
6.65,0.1072
6.675,0.1072
6.7,0.124352
6.725,0.137216
6.75,0.17152
6.775,0.17152
6.8,0.197248
6.825,0.188672
6.85,0.27872
6.875,0.368768
6.9,0.227264
6.925,0.377344
6.95,0.304448
6.975,0.441664
7,0.420224
7.025,0.463104
7.05,0.510272
7.075,0.510272
7.1,0.536
7.125,0.711808
7.15,0.677504
7.175,0.536
7.2,0.566016
7.225,0.566016
7.25,0.566016
7.275,0.8576
7.3,0.614464
7.325,0.572544
7.35,0.562048
7.375,0.56288
7.4,0.570112
7.425,0.20096
7.45,1.048
7.475,0
7.5,0.377344
7.525,0.381632
7.55,0.304448
7.575,0.283008
7.6,0.111488
7.625,0
7.65,0
7.675,1.0135
7.7,0.031232
7.725,0.17152
7.75,0
7.775,0.57888
7.8,0.060032
7.825,0.240128
7.85,0.368768
7.875,0.27872
7.9,0.283008
7.925,0.283008
7.95,0.047168
7.975,0
8,0.806144
8.025,0.241344
8.05,0.244416
8.075,0.313024
8.1,0.368768
8.125,0.283008
8.15,0.304448
8.175,0.2144
8.2,0.574592
8.225,0.111488
8.25,0.377344
8.275,0.518848
8.3,0.47168
8.325,0.55744
8.35,0.463104
8.375,0.295872
8.4,0.638912
8.425,0.27872
8.45,0.381632
8.475,0.424512
8.5,0.480256
8.525,0.467392
8.55,0.45024
8.575,0.411648
8.6,0.441664
8.625,0.27872
8.65,0.398784
8.675,0.338752
8.7,0.34304
8.725,0.360192
8.75,0.373056
8.775,0.222976
8.8,0.381632
8.825,0.475968
8.85,0.317312
8.875,0.02144
8.9,0.733248
8.925,0.31296
8.95,0.295872
8.975,0.377344
9,0.634624
9.025,0.536
9.05,0.523136
9.075,0.437376
9.1,0.355904
9.125,0.377344
9.15,0.377344
9.175,0.381632
9.2,0.145792
9.225,0.827584
9.25,0.313024
9.275,0.630336
9.3,0.57888
9.325,0.574592
9.35,0.57888
9.375,0.604608
9.4,0.591744
9.425,0.49312
9.45,0.626048
9.475,0.638912
9.5,0.60032
9.525,0.608896
9.55,0.587456
9.575,0.608896
9.6,0.638912
9.625,0.574592
9.65,0.711808
9.675,0.111488
9.7,0.981952
9.725,0.153728
9.75,0.463104
9.775,0.70752
9.8,0.47168
9.825,0.081472
9.85,1.04518
9.875,0.360192
9.9,0.561728
9.925,0.527424
9.95,0.673216
9.975,0.651776
10,0.698944
10.025,0.677504
10.05,0.651776
10.075,0.051456
10.1,0.977664
10.125,0.261568
10.15,0.518848
10.175,0.351616
10.2,0.36448
10.225,0.283008
10.25,0.338752
10.275,0.283008
10.3,0.283008
10.325,0.283008
10.35,0.008576
10.375,0
10.4,0.861888
10.425,0.347328
10.45,0.467392
10.475,0.38592
10.5,0.252992
10.525,0.308736
10.55,0.068608
10.575,0.566016
10.6,0.081472
10.625,0.231552
10.65,0.325888
10.675,0.248704
10.7,0.3216
10.725,0.411648
10.75,0.355904
10.775,0.445952
10.8,0.36448
10.825,0.360192
10.85,0.36448
10.875,0.330176
10.9,0.381632
10.925,0.355904
10.95,0.373056
10.975,0.317312
11,0.338752
11.025,0
11.05,0.780416
11.075,0.351616
11.1,0.347328
11.125,0.222976
11.15,0.338752
11.175,0.390208
11.2,0.34304
11.225,0.317312
11.25,0.34304
11.275,0.304448
11.3,0.3216
11.325,0.338752
11.35,0.355904
11.375,0.360192
11.4,0.330176
11.425,0.415936
11.45,0.527424
11.475,0.488832
11.5,0.330176
11.525,0.377344
11.55,0.381632
11.575,0.373056
11.6,0.381632
11.625,0.381632
11.65,0.377344
11.675,0.381632
11.7,0.445952
11.725,0.008576
11.75,0.934784
11.775,0.281024
11.8,0.218688
11.825,0.445952
11.85,0.484544
11.875,0.330176
11.9,0.638912
11.925,0.304448
11.95,0.424512
11.975,0.475968
12,0.505984
12.025,0.553152
12.05,0.527424
12.075,0.49312
12.1,0.548864
12.125,0.501696
12.15,0.570304
12.175,0.553152
12.2,0.497408
12.225,0.531712
12.25,0.501696
12.275,0.553152
12.3,0.458816
12.325,0.497408
12.35,0.505984
12.375,0.484544
12.4,0.454528
12.425,0.437376
12.45,0.49312
12.475,0.445952
12.5,0.475968
12.525,0.518848
12.55,0.411648
12.575,0.437376
12.6,0.531712
12.625,0.415936
12.65,0.47168
12.675,0.505984
12.7,0.317312
12.725,0.38592
12.75,0.373056
12.775,0.381632
12.8,0.338752
12.825,0
12.85,0.797568
12.875,0.24864
12.9,0.368768
12.925,0.40736
12.95,0.291584
12.975,0.368768
13,0.287296
13.025,0.283008
13.05,0.283008
13.075,0.098624
13.1,0
13.125,0.754688
13.15,0.29344
13.175,0.283008
13.2,0.145792
13.225,0
13.25,0
13.275,0.51456
13.3,0.141504
13.325,0.304448
13.35,0.252992
13.375,0.3216
13.4,0.394496
13.425,0.283008
13.45,0.441664
13.475,0
13.5,0.445952
13.525,0.210112
13.55,0.304448
13.575,0.295872
13.6,0.394496
13.625,0.398784
13.65,0.351616
13.675,0.30016
13.7,0.420224
13.725,0.30016
13.75,0.330176
13.775,0.34304
13.8,0.3216
13.825,0.360192
13.85,0.188672
13.875,0.274432
13.9,0
13.925,0.626048
13.95,0.240128
13.975,0.355904
14,0.3216
14.025,0.317312
14.05,0.377344
14.075,0.308736
14.1,0.334464
14.125,0.334464
14.15,0.47168
14.175,0.433088
14.2,0.40736
14.225,0.415936
14.25,0.484544
14.275,0.501696
14.3,0.51456
14.325,0.475968
14.35,0.265856
14.375,0.23584
14.4,0.36448
14.425,0.222976
14.45,0.40736
14.475,0.463104
14.5,0.454528
14.525,0.420224
14.55,0.398784
14.575,0.415936
14.6,0.403072
14.625,0.38592
14.65,0.433088
14.675,0.437376
14.7,0.411648
14.725,0.313024
14.75,0.433088
14.775,0.475968
14.8,0.497408
14.825,0
14.85,0.47168
14.875,0.61152
14.9,0.325888
14.925,0.540288
14.95,0.445952
14.975,0.531712
15,0.510272
15.025,0.583168
15.05,0.55744
15.075,0.57888
15.1,0
15.125,0.994816
15.15,0.4272
15.175,0.527424
15.2,0.34304
15.225,0.304448
15.25,0
15.275,0.754688
15.3,0.338752
15.325,0.355904
15.35,0.463104
15.375,0.291584
15.4,0.180096
15.425,0.536
15.45,0.15008
15.475,0.295872
15.5,0.304448
15.525,0.441664
15.55,0.34304
15.575,0.004288
15.6,0.415936
15.625,0.102912
15.65,0.261568
15.675,0.197248
15.7,0.27872
15.725,0.19296
15.75,0.098624
15.775,0.415936
15.8,0.060032
15.825,0.17152
15.85,0.248704
15.875,0.197248
15.9,0.2144
15.925,0.201536
15.95,0.210112
15.975,0.25728
16,0.265856
16.025,0.265856
16.05,0.162944
16.075,0.304448
16.1,0.23584
16.125,0.25728
16.15,0.154368
16.175,0.244416
16.2,0.360192
16.225,0.04288
16.25,0.313024
16.275,0.154368
16.3,0.308736
16.325,0.180096
16.35,0.287296
16.375,0.188672
16.4,0.34304
16.425,0.2144
16.45,0.240128
16.475,0.3216
16.5,0.274432
16.525,0.27872
16.55,0.19296
16.575,0.351616
16.6,0.137216
16.625,0.373056
16.65,0.145792
16.675,0.3216
16.7,0.445952
16.725,0.377344
16.75,0.390208
16.775,0.445952
16.8,0.377344
16.825,0.420224
16.85,0.394496
16.875,0.403072
16.9,0.411648
16.925,0.467392
16.95,0.424512
16.975,0.47168
17,0.561728
17.025,0.527424
17.05,0.55744
17.075,0.527424
17.1,0.523136
17.125,0.617472
17.15,0.673216
17.175,0.6432
17.2,0.647488
17.225,0.6432
17.25,0.677504
17.275,0.647488
17.3,0.66464
17.325,0.621952
17.35,0.636672
17.375,0.096192
17.4,1.048
17.425,0.030016
17.45,0.60032
17.475,0.60032
17.5,0.570304
17.525,0.566016
17.55,0.570304
17.575,0.566016
17.6,0.568896
17.625,0.111488
17.65,1.04691
17.675,0.120064
17.7,0.510272
17.725,0.55744
17.75,0.566016
17.775,0.544576
17.8,0
17.825,1.04806
17.85,0.222976
17.875,0.634624
17.9,0.681792
17.925,0.475968
17.95,0.531712
17.975,0
18,0.909056
18.025,0.474816
18.05,0.398784
18.075,0.437376
18.1,0.304448
18.125,0.317312
18.15,0.40736
18.175,0.454528
18.2,0.394496
18.225,0.377344
18.25,0.373056
18.275,0.411648
18.3,0.690368
18.325,0.098624
18.35,0.441664
18.375,0.261568
18.4,0.012864
18.425,0.694656
18.45,0.210112
18.475,0.355904
18.5,0.274432
18.525,0.355904
18.55,0.270144
18.575,0.360192
18.6,0.445952
18.625,0.45024
18.65,0.411648
18.675,0.338752
18.7,0.475968
18.725,0.197248
18.75,0.4288
18.775,0.338752
18.8,0.373056
18.825,0.338752
18.85,0.38592
18.875,0.381632
18.9,0.381632
18.925,0.373056
18.95,0.218688
18.975,0
19,1.00768
19.025,0.030016
19.05,0
19.075,0.865792
19.1,0.261568
19.125,0.394496
19.15,0.47168
19.175,0.36448
19.2,0.38592
19.225,0.484544
19.25,0.49312
19.275,0.570304
19.3,0.583168
19.325,0.553152
19.35,0.583168
19.375,0.57888
19.4,0.553152
19.425,0.561728
19.45,0.587456
19.475,0.561728
19.5,0.634624
19.525,0.566016
19.55,0.566016
19.575,0.62176
19.6,0.797568
19.625,0.62176
19.65,0.641728
19.675,0.566016
19.7,0.60992
19.725,0.565824
19.75,0.303488
19.775,0
19.8,1.04723
19.825,0.38592
19.85,0.548864
19.875,0.6432
19.9,0.566016
19.925,0.577472
19.95,0.56544
19.975,0.502848
20,0
20.025,1.04762
20.05,0.068608
20.075,0.60032
20.1,0.497408
20.125,0.647488
20.15,0.570304
20.175,0.62176
20.2,0.570304
20.225,0.566016
20.25,0.780416
20.275,0.338752
20.3,0
20.325,1.04646
20.35,0.540288
20.375,0.501696
20.4,0.154368
20.425,0.849024
20.45,0.488832
20.475,0.60032
20.5,0.536
20.525,0.540288
20.55,0.604608
20.575,0.25728
20.6,0.424512
20.625,0.38592
20.65,0.373056
20.675,0.381632
20.7,0.381632
20.725,0.283008
20.75,0
20.775,0.797568
20.8,0.047168
20.825,0.398784
20.85,0.19296
20.875,0.325888
20.9,0.313024
20.925,0.317312
20.95,0.287296
20.975,0.377344
21,0.334464
21.025,0.248704
21.05,0.523136
21.075,0.467392
21.1,0.497408
21.125,0.544576
21.15,0.55744
21.175,0.27872
21.2,0.505984
21.225,0.398784
21.25,0.30016
21.275,0.347328
21.3,0.15008
21.325,0
21.35,0.8576
21.375,0.295872
21.4,0.47168
21.425,0.287296
21.45,0.308736
21.475,0.347328
21.5,0.368768
21.525,0
21.55,0.596032
21.575,0
21.6,0.137216
21.625,0.17152
21.65,0.325888
21.675,0.210112
21.7,0.295872
21.725,0.330176
21.75,0.231552
21.775,0.270144
21.8,0.317312
21.825,0.377344
21.85,0.3216
21.875,0.390208
21.9,0.330176
21.925,0.15008
21.95,0.398784
21.975,0.244416
