time,value
2,0
2.025,0
2.05,0
2.075,0.04288
2.1,0.060032
2.125,0.094336
2.15,0.124352
2.175,0.115776
2.2,0.252992
2.225,0.098624
2.25,0.180096
2.275,0.094336
2.3,0
2.325,0.313024
2.35,0.381632
2.375,0.098624
2.4,0.227264
2.425,0.244416
2.45,0.227264
2.475,0.265856
2.5,0.484544
2.525,0.30016
2.55,0.240128
2.575,0.060032
2.6,0.283008
2.625,0.313024
2.65,0.283008
2.675,0.274432
2.7,0.304448
2.725,0.283008
2.75,0.287296
2.775,0.3216
2.8,0.360192
2.825,0.351616
2.85,0.218688
2.875,0.308736
2.9,0.304448
2.925,0.200128
2.95,0
2.975,0
3,0
3.025,0
3.05,0
3.075,0
3.1,0
3.125,0
3.15,0
3.175,0
3.2,0
3.225,0
3.25,0
3.275,0
3.3,0
3.325,0
3.35,0
3.375,0
3.4,0
3.425,0
3.45,0
3.475,0
3.5,0
3.525,0
3.55,0
3.575,0
3.6,0
3.625,0
3.65,0
3.675,0
3.7,0
3.725,0
3.75,0
3.775,0
3.8,0
3.825,0
3.85,0
3.875,0
3.9,0
3.925,0
3.95,0
3.975,0
4,0
4.025,0
4.05,0
4.075,0
4.1,0
4.125,0
4.15,0
4.175,0
4.2,0
4.225,0
4.25,0
4.275,0
4.3,0
4.325,0
4.35,0
4.375,0
4.4,0
4.425,0
4.45,0
4.475,0
4.5,0
4.525,0
4.55,0
4.575,0
4.6,0
4.625,0
4.65,0
4.675,0
4.7,0
4.725,0
4.75,0
4.775,0
4.8,0
4.825,0
4.85,0
4.875,0
4.9,0.158656
4.925,0.283008
4.95,0.30016
4.975,0.02144
5,0.6432
5.025,0.145792
5.05,0.2144
5.075,0.287296
5.1,0.283008
5.125,0.304448
5.15,0.373056
5.175,0.030016
5.2,0.638912
5.225,0.102912
5.25,0.347328
5.275,0.270144
5.3,0.3216
5.325,0.398784
5.35,0.330176
5.375,0.325888
5.4,0.240128
5.425,0.368768
5.45,0.304448
5.475,0.347328
5.5,0.47168
5.525,0.47168
5.55,0.015744
5.575,0
5.6,0
5.625,0
5.65,0
5.675,0
5.7,0
5.725,0
5.75,0
5.775,0
5.8,0
5.825,0
5.85,0
5.875,0
5.9,0
5.925,0
5.95,0
5.975,0
6,0
6.025,0
6.05,0
6.075,0
6.1,0
6.125,0
6.15,0
6.175,0
6.2,0
6.225,0
6.25,0
6.275,0
6.3,0
6.325,0
6.35,0
6.375,0
6.4,0
6.425,0
6.45,0
6.475,0
6.5,0
6.525,0
6.55,0
6.575,0
6.6,0
6.625,0
6.65,0
6.675,0
6.7,0
6.725,0
6.75,0
6.775,0
6.8,0
6.825,0
6.85,0
6.875,0
6.9,0
6.925,0
6.95,0
6.975,0
7,0
7.025,0
7.05,0
7.075,0
7.1,0
7.125,0
7.15,0
7.175,0
7.2,0
7.225,0
7.25,0
7.275,0
7.3,0
7.325,0
7.35,0
7.375,0
7.4,0
7.425,0
7.45,0
7.475,0
7.5,0
7.525,0
7.55,0.231552
7.575,0.283008
7.6,0.287296
7.625,0.283008
7.65,0.283008
7.675,0.287296
7.7,0.227264
7.725,0
7.75,0.244416
7.775,0.561728
7.8,0.145792
7.825,0.368768
7.85,0.317312
7.875,0.287296
7.9,0.287296
7.925,0.27872
7.95,0.27872
7.975,0.218688
8,0
8.025,0.634624
8.05,0.231552
8.075,0.252992
8.1,0.132928
8.125,0.283008
8.15,0.308736
8.175,0.360192
8.2,0.334464
8.225,0.467392
8.25,0.122944
8.275,0
8.3,0
8.325,0
8.35,0
8.375,0
8.4,0
8.425,0
8.45,0
8.475,0
8.5,0
8.525,0
8.55,0
8.575,0
8.6,0
8.625,0
8.65,0
8.675,0
8.7,0
8.725,0
8.75,0
8.775,0
8.8,0
8.825,0
8.85,0
8.875,0
8.9,0
8.925,0
8.95,0
8.975,0
9,0
9.025,0
9.05,0
9.075,0
9.1,0
9.125,0
9.15,0
9.175,0
9.2,0
9.225,0
9.25,0
9.275,0
9.3,0
9.325,0
9.35,0
9.375,0
9.4,0
9.425,0
9.45,0
9.475,0
9.5,0
9.525,0
9.55,0
9.575,0
9.6,0
9.625,0
9.65,0
9.675,0
9.7,0
9.725,0
9.75,0
9.775,0
9.8,0
9.825,0
9.85,0
9.875,0
9.9,0
9.925,0
9.95,0
9.975,0
10,0
10.025,0
10.05,0
10.075,0
10.1,0
10.125,0
10.15,0
10.175,0
10.2,0
10.225,0
10.25,0.145792
10.275,0.283008
10.3,0.283008
10.325,0.094336
10.35,0
10.375,0.415936
10.4,0.188672
10.425,0.2144
10.45,0.231552
10.475,0.227264
10.5,0.210112
10.525,0.222976
10.55,0.227264
10.575,0.295872
10.6,0.158656
10.625,0.210112
10.65,0.244416
10.675,0.240128
10.7,0.261568
10.725,0.295872
10.75,0.36448
10.775,0.3216
10.8,0.291584
10.825,0.36448
10.85,0.330176
10.875,0.308736
10.9,0.398784
10.925,0.34304
10.95,0.351616
10.975,0.373056
11,0.101504
11.025,0
11.05,0
11.075,0
11.1,0
11.125,0
11.15,0
11.175,0
11.2,0
11.225,0
11.25,0
11.275,0
11.3,0
11.325,0
11.35,0
11.375,0
11.4,0
11.425,0
11.45,0
11.475,0
11.5,0
11.525,0
11.55,0
11.575,0
11.6,0
11.625,0
11.65,0
11.675,0
11.7,0
11.725,0
11.75,0
11.775,0
11.8,0
11.825,0
11.85,0
11.875,0
11.9,0
11.925,0
11.95,0
11.975,0
12,0
12.025,0
12.05,0
12.075,0
12.1,0
12.125,0
12.15,0
12.175,0
12.2,0
12.225,0
12.25,0
12.275,0
12.3,0
12.325,0
12.35,0
12.375,0
12.4,0
12.425,0
12.45,0
12.475,0
12.5,0
12.525,0
12.55,0
12.575,0
12.6,0
12.625,0
12.65,0
12.675,0
12.7,0
12.725,0
12.75,0
12.775,0
12.8,0
12.825,0
12.85,0
12.875,0
12.9,0
12.925,0
12.95,0
12.975,0.034304
13,0.283008
13.025,0.287296
13.05,0.283008
13.075,0.283008
13.1,0.038592
13.125,0
13.15,0.827584
13.175,0.23584
13.2,0.283008
13.225,0.368768
13.25,0.3216
13.275,0.330176
13.3,0.325888
13.325,0.304448
13.35,0.338752
13.375,0.38592
13.4,0.403072
13.425,0.523136
13.45,0.274432
13.475,0.308736
13.5,0.501696
13.525,0.313024
13.55,0.394496
13.575,0.350208
13.6,0
13.625,0
13.65,0
13.675,0
13.7,0
13.725,0
13.75,0
13.775,0
13.8,0
13.825,0
13.85,0
13.875,0
13.9,0
13.925,0
13.95,0
13.975,0
14,0
14.025,0
14.05,0
14.075,0
14.1,0
14.125,0
14.15,0
14.175,0
14.2,0
14.225,0
14.25,0
14.275,0
14.3,0
14.325,0
14.35,0
14.375,0
14.4,0
14.425,0
14.45,0
14.475,0
14.5,0
14.525,0
14.55,0
14.575,0
14.6,0
14.625,0
14.65,0
14.675,0
14.7,0
14.725,0
14.75,0
14.775,0
14.8,0
14.825,0
14.85,0
14.875,0
14.9,0
14.925,0
14.95,0
14.975,0
15,0
15.025,0
15.05,0
15.075,0
15.1,0
15.125,0
15.15,0
15.175,0
15.2,0
15.225,0
15.25,0
15.275,0
15.3,0
15.325,0
15.35,0
15.375,0
15.4,0
15.425,0
15.45,0
15.475,0
15.5,0
15.525,0
15.55,0
15.575,0.45024
15.6,0.287296
15.625,0.420224
15.65,0.287296
15.675,0.325888
15.7,0.175808
15.725,0
15.75,0
15.775,1.02054
15.8,0.179072
15.825,0.197248
15.85,0.36448
15.875,0.304448
15.9,0.308736
15.925,0.338752
15.95,0.1072
15.975,0
16,0.90048
16.025,0.06432
16.05,0.265856
16.075,0.360192
16.1,0.411648
16.125,0.445952
16.15,0.394496
16.175,0.389824
16.2,0
16.225,0
16.25,0
16.275,0
16.3,0
16.325,0
16.35,0
16.375,0
16.4,0
16.425,0
16.45,0
16.475,0
16.5,0
16.525,0
16.55,0
16.575,0
16.6,0
16.625,0
16.65,0
16.675,0
16.7,0
16.725,0
16.75,0
16.775,0
16.8,0
16.825,0
16.85,0
16.875,0
16.9,0
16.925,0
16.95,0
16.975,0
17,0
17.025,0
17.05,0
17.075,0
17.1,0
17.125,0
17.15,0
17.175,0
17.2,0
17.225,0
17.25,0
17.275,0
17.3,0
17.325,0
17.35,0
17.375,0
17.4,0
17.425,0
17.45,0
17.475,0
17.5,0
17.525,0
17.55,0
17.575,0
17.6,0
17.625,0
17.65,0
17.675,0
17.7,0
17.725,0
17.75,0
17.775,0
17.8,0
17.825,0
17.85,0
17.875,0
17.9,0
17.925,0
17.95,0
17.975,0
18,0
18.025,0
18.05,0
18.075,0
18.1,0
18.125,0
18.15,0
18.175,0
18.2,0
18.225,0
18.25,0
18.275,0
18.3,0
18.325,0
18.35,0
18.375,0
18.4,0
18.425,0
18.45,0
18.475,0
18.5,0
18.525,0
18.55,0
18.575,0
18.6,0
18.625,0
18.65,0
18.675,0
18.7,0
18.725,0
18.75,0
18.775,0
18.8,0
18.825,0
18.85,0
18.875,0
18.9,0
18.925,0
18.95,0
18.975,0
19,0
19.025,0
19.05,0
19.075,0
19.1,0
19.125,0
19.15,0
19.175,0
19.2,0
19.225,0
19.25,0
19.275,0
19.3,0
19.325,0
19.35,0
19.375,0
19.4,0
19.425,0
19.45,0
19.475,0
19.5,0
19.525,0
19.55,0
19.575,0
19.6,0
19.625,0
19.65,0
19.675,0
19.7,0
19.725,0
19.75,0
19.775,0
19.8,0
19.825,0
19.85,0
19.875,0
19.9,0
19.925,0
19.95,0
19.975,0
20,0
20.025,0
20.05,0
20.075,0
20.1,0
20.125,0
20.15,0
20.175,0
20.2,0
20.225,0
20.25,0
20.275,0
20.3,0
20.325,0
20.35,0
20.375,0
20.4,0
20.425,0
20.45,0
20.475,0
20.5,0
20.525,0
20.55,0
20.575,0
20.6,0
20.625,0
20.65,0
20.675,0
20.7,0
20.725,0
20.75,0
20.775,0
20.8,0
20.825,0
20.85,0
20.875,0
20.9,0
20.925,0
20.95,0
20.975,0
21,0
21.025,0
21.05,0
21.075,0
21.1,0
21.125,0
21.15,0
21.175,0.523136
21.2,0.081472
21.225,0.222976
21.25,0.501696
21.275,0.351616
21.3,0.36448
21.325,0.45024
21.35,0.49312
21.375,0.445952
21.4,0.154368
21.425,0.308736
21.45,0.304448
21.475,0.338752
21.5,0.415936
21.525,0.265856
21.55,0
21.575,0
21.6,1.04122
21.625,0.034304
21.65,0.15008
21.675,0
21.7,0.716096
21.725,0.068608
21.75,0.30016
21.775,0.287296
21.8,0.179456
21.825,0
21.85,0
21.875,0
21.9,0
21.925,0
21.95,0
21.975,0
