time,value
2,0
2.025,0
2.05,0.030016
2.075,0.034304
2.1,0.077184
2.125,0.081472
2.15,0.1072
2.175,0
2.2,0.45024
2.225,0.137216
2.25,0.240128
2.275,0.295872
2.3,0.283008
2.325,0.25984
2.35,0
2.375,0
2.4,0
2.425,0
2.45,0.436544
2.475,0
2.5,0
2.525,1.12576
2.55,1.05056
2.575,1.11315
2.6,1.10554
2.625,1.11098
2.65,1.10944
2.675,1.1063
2.7,1.10515
2.725,1.0985
2.75,1.10515
2.775,1.1063
2.8,1.10611
2.825,1.10125
2.85,1.11059
2.875,1.10125
2.9,1.10611
2.925,1.10394
2.95,1.09619
2.975,1.10592
3,1.10534
3.025,1.0985
3.05,1.10086
3.075,1.1063
3.1,1.10202
3.125,1.0985
3.15,1.10086
3.175,1.1024
3.2,1.09696
3.225,1.03648
3.25,1.1063
3.275,1.10202
3.3,1.10906
3.325,1.07354
3.35,1.10611
3.375,1.10592
3.4,1.10944
3.425,0.627648
3.45,1.04762
3.475,0.62176
3.5,1.10266
3.525,1.10592
3.55,1.10592
3.575,1.10202
3.6,1.10707
3.625,1.10906
3.65,1.0985
3.675,1.10515
3.7,1.11002
3.725,1.10317
3.75,1.10477
3.775,1.01542
3.8,1.09773
3.825,1.10592
3.85,1.09773
3.875,1.10592
3.9,1.10163
3.925,1.1063
3.95,1.05792
3.975,0.540096
4,1.04762
4.025,0.617472
4.05,1.10733
4.075,1.10592
4.1,1.10982
4.125,1.10982
4.15,1.09498
4.175,0.253568
4.2,1.04762
4.225,1.03341
4.25,1.1049
4.275,1.03373
4.3,1.10477
4.325,1.11373
4.35,1.09926
4.375,1.11258
4.4,1.10278
4.425,1.08992
4.45,1.10906
4.475,0.76224
4.5,1.04352
4.525,0.557248
4.55,1.09811
4.575,1.10963
4.6,1.09382
4.625,1.11174
4.65,0.596864
4.675,1.04762
4.7,0.703232
4.725,1.1072
4.75,1.10182
4.775,1.11059
4.8,1.10125
4.825,1.10202
4.85,1.10669
4.875,1.06259
4.9,1.10419
4.925,1.10202
4.95,1.11334
4.975,1.0983
5,1.0681
5.025,1.1145
5.05,1.06106
5.075,1.07667
5.1,1.10899
5.125,1.09933
5.15,1.11251
5.175,1.10771
5.2,1.10982
5.225,1.10534
5.25,1.11021
5.275,0.074496
5.3,1.17626
5.325,1.10502
5.35,1.10944
5.375,1.07744
5.4,1.10982
5.425,1.11021
5.45,1.0985
5.475,1.10906
5.5,1.1063
5.525,1.11411
5.55,0.295296
5.575,1.04352
5.6,0.98176
5.625,1.09549
5.65,1.1063
5.675,1.11021
5.7,1.10086
5.725,1.09421
5.75,1.10554
5.775,1.10592
5.8,1.08096
5.825,1.10669
5.85,1.10944
5.875,1.10163
5.9,1.10976
5.925,1.10304
5.95,1.10086
5.975,1.10611
6,1.1063
6.025,1.10944
6.05,0.988096
6.075,1.04762
6.1,0.308736
6.125,1.10848
6.15,1.06515
6.175,1.11059
6.2,1.1143
6.225,1.08173
6.25,1.04742
6.275,1.07296
6.3,1.07411
6.325,1.11002
6.35,1.10515
6.375,1.08192
6.4,1.10534
6.425,1.10163
6.45,1.11098
6.475,1.10515
6.5,1.1063
6.525,1.10163
6.55,1.11021
6.575,1.1047
6.6,1.10285
6.625,1.10982
6.65,1.1063
6.675,1.09306
6.7,1.10592
6.725,1.11002
6.75,1.1063
6.775,1.10669
6.8,1.10477
6.825,1.1063
6.85,1.10163
6.875,1.10592
6.9,1.03373
6.925,1.10867
6.95,1.10278
6.975,1.11334
7,1.10413
7.025,1.11181
7.05,1.10202
7.075,1.11334
7.1,1.10202
7.125,1.11213
7.15,1.10771
7.175,1.11059
7.2,1.10982
7.225,1.10509
7.25,1.11046
7.275,1.09811
7.3,1.11488
7.325,1.10944
7.35,1.10982
7.375,1.0985
7.4,1.10906
7.425,1.10982
7.45,1.10592
7.475,1.10669
7.5,1.10592
7.525,1.04038
7.55,1.10944
7.575,1.11021
7.6,1.10202
7.625,1.10592
7.65,1.10982
7.675,1.10982
7.7,1.10202
7.725,1.08915
7.75,0.316352
7.775,1.04762
7.8,0.981952
7.825,1.10291
7.85,1.11059
7.875,1.10669
7.9,1.10906
7.925,1.10592
7.95,1.11021
7.975,1.10554
8,1.10669
8.025,0.475136
8.05,1.04762
8.075,0.853312
8.1,1.10554
8.125,1.11411
8.15,1.0599
8.175,1.10278
8.2,1.10906
8.225,1.11021
8.25,1.10592
8.275,1.11174
8.3,1.11258
8.325,1.10554
8.35,1.11021
8.375,1.10592
8.4,1.11411
8.425,1.10592
8.45,1.10982
8.475,1.10669
8.5,1.11334
8.525,1.11059
8.55,1.10944
8.575,1.07315
8.6,1.1184
8.625,1.10982
8.65,1.08794
8.675,1.10752
8.7,1.1145
8.725,1.09792
8.75,1.11411
8.775,0.172416
8.8,1.06906
8.825,1.11763
8.85,1.11392
8.875,1.11021
8.9,1.07277
8.925,1.1063
8.95,1.11392
8.975,0.70528
9,1.04762
9.025,0.561728
9.05,1.10982
9.075,1.10688
9.1,1.11373
9.125,1.10125
9.15,1.1143
9.175,1.11411
9.2,1.10944
9.225,1.11488
9.25,1.10982
9.275,1.11021
9.3,1.09306
9.325,1.10982
9.35,1.10707
9.375,1.11565
9.4,1.11629
9.425,1.11411
9.45,1.1063
9.475,1.11782
9.5,1.11373
9.525,1.11213
9.55,1.12
9.575,1.11098
9.6,1.11296
9.625,1.11411
9.65,1.1184
9.675,1.06925
9.7,1.11328
9.725,1.11904
9.75,1.11488
9.775,1.11725
9.8,1.11392
9.825,1.11411
9.85,1.12307
9.875,1.11334
9.9,1.11059
9.925,1.11373
9.95,1.1223
9.975,0.975616
10,1.04352
10.025,0.364288
10.05,1.11904
10.075,1.12013
10.1,1.12
10.125,1.11392
10.15,1.11411
10.175,1.1223
10.2,1.11411
10.225,1.11878
10.25,1.11802
10.275,1.11802
10.3,1.1223
10.325,1.09344
10.35,0.398272
10.375,1.04352
10.4,0.934592
10.425,1.08902
10.45,0.201472
10.475,1.04762
10.5,1.11878
10.525,1.11898
10.55,1.10944
10.575,1.1223
10.6,0.905408
10.625,1.04352
10.65,0.420032
10.675,1.12006
10.7,1.11821
10.725,1.11878
10.75,1.11373
10.775,1.10982
10.8,0.30816
10.825,1.04762
10.85,1.02054
10.875,1.11386
10.9,1.11802
10.925,1.11802
10.95,0.900672
10.975,1.04493
11,0.424512
11.025,1.11616
11.05,1.12192
11.075,1.11878
11.1,1.10944
11.125,1.1223
11.15,1.11802
11.175,0.668608
11.2,1.04762
11.225,0.677504
11.25,1.11264
11.275,1.12288
11.3,1.11334
11.325,1.12032
11.35,1.1161
11.375,1.10669
11.4,1.12173
11.425,1.11565
11.45,1.12134
11.475,1.09734
11.5,1.12269
11.525,1.12192
11.55,1.11878
11.575,1.11763
11.6,1.05677
11.625,1.12288
11.65,1.1223
11.675,1.01504
11.7,1.1223
11.725,1.1223
11.75,1.12307
11.775,1.12154
11.8,1.12269
11.825,1.11763
11.85,1.12269
11.875,1.11373
11.9,1.10202
11.925,1.12269
11.95,1.12621
11.975,1.12269
12,1.12154
12.025,1.12269
12.05,1.1223
12.075,1.11411
12.1,1.13011
12.125,1.11878
12.15,1.1223
12.175,1.1344
12.2,1.11802
12.225,1.07725
12.25,1.12659
12.275,1.12659
12.3,1.1223
12.325,1.13011
12.35,1.12621
12.375,1.1223
12.4,1.13126
12.425,1.12563
12.45,1.12659
12.475,1.12307
12.5,1.12544
12.525,1.12698
12.55,1.13011
12.575,1.11802
12.6,1.13126
12.625,1.12582
12.65,0.082688
12.675,1.16339
12.7,1.12979
12.725,1.1303
12.75,1.13088
12.775,1.12602
12.8,1.12659
12.825,1.12192
12.85,1.12698
12.875,1.13011
12.9,1.12269
12.925,1.1223
12.95,1.11782
12.975,1.09926
13,1.12896
13.025,1.1184
13.05,1.13088
13.075,1.13011
13.1,1.12192
13.125,1.1305
13.15,1.12736
13.175,1.12973
13.2,1.12659
13.225,1.1223
13.25,1.13088
13.275,1.13011
13.3,1.12659
13.325,1.12582
13.35,1.13126
13.375,1.12192
13.4,1.1223
13.425,1.13011
13.45,1.10592
13.475,1.09811
13.5,1.1344
13.525,1.12621
13.55,1.12346
13.575,1.12544
13.6,1.1305
13.625,1.11411
13.65,1.12269
13.675,1.13011
13.7,1.13088
13.725,1.12582
13.75,1.12659
13.775,1.13459
13.8,1.11878
13.825,1.13402
13.85,1.13088
13.875,1.12192
13.9,1.12698
13.925,1.13402
13.95,0.586496
13.975,1.04352
14,0.737344
14.025,1.10995
14.05,1.1143
14.075,1.12698
14.1,1.12973
14.125,0.037824
14.15,1.16339
14.175,1.1337
14.2,1.1264
14.225,1.12659
14.25,1.13088
14.275,1.12973
14.3,1.12384
14.325,1.12896
14.35,1.09382
14.375,1.1303
14.4,1.1223
14.425,1.12659
14.45,1.13088
14.475,1.12582
14.5,1.1305
14.525,1.12538
14.55,1.128
14.575,1.12621
14.6,1.07277
14.625,1.12717
14.65,1.13011
14.675,1.1305
14.7,1.12621
14.725,1.08525
14.75,1.12698
14.775,1.13402
14.8,1.12659
14.825,1.12736
14.85,1.12973
14.875,1.1223
14.9,1.13011
14.925,1.12698
14.95,1.00762
14.975,1.13011
15,1.1305
15.025,1.01619
15.05,1.11373
15.075,1.13088
15.1,1.12582
15.125,0.357312
15.15,1.04352
15.175,1.0032
15.2,1.1271
15.225,1.13011
15.25,1.13088
15.275,1.11411
15.3,1.10554
15.325,1.12307
15.35,1.13088
15.375,1.12621
15.4,1.13011
15.425,1.12621
15.45,1.1305
15.475,1.13011
15.5,1.13088
15.525,1.11373
15.55,1.11878
15.575,0.287104
15.6,1.04762
15.625,1.07782
15.65,1.12717
15.675,1.12973
15.7,1.13011
15.725,1.12621
15.75,1.12659
15.775,1.12851
15.8,0.305856
15.825,1.04448
15.85,0.989376
15.875,1.09472
15.9,0.703232
15.925,1.1305
15.95,0.982976
15.975,1.1255
16,1.0135
16.025,1.10573
16.05,1.12506
16.075,1.12838
16.1,1.09632
16.125,1.10195
16.15,1.07853
16.175,1.12736
16.2,1.12563
16.225,1.11411
16.25,0.64928
16.275,1.04608
16.3,0.004288
16.325,0
16.35,0
16.375,0
16.4,0
16.425,0
16.45,0
16.475,0
16.5,0
16.525,0
16.55,0
16.575,0
16.6,0
16.625,0
16.65,0
16.675,0
16.7,0
16.725,0
16.75,0
16.775,0
16.8,0
16.825,0
16.85,0
16.875,0
16.9,0
16.925,0
16.95,0
16.975,0
17,0
17.025,0
17.05,0
17.075,0
17.1,0
17.125,0
17.15,0
17.175,0
17.2,0
17.225,0
17.25,0
17.275,0
17.3,0
17.325,0
17.35,0
17.375,0
17.4,0
17.425,0
17.45,0
17.475,0
17.5,0
17.525,0.004288
17.55,0
17.575,0
17.6,0
17.625,0
17.65,0
17.675,0
17.7,0
17.725,0
17.75,0
17.775,0
17.8,0
17.825,0
17.85,0
17.875,0
17.9,0
17.925,0
17.95,0
17.975,0
18,0
18.025,0
18.05,0
18.075,0
18.1,0
18.125,0
18.15,0
18.175,0
18.2,0
18.225,0
18.25,0
18.275,0
18.3,0
18.325,0
18.35,0
18.375,0
18.4,0
18.425,0
18.45,0
18.475,0
18.5,0
18.525,0
18.55,0
18.575,0
18.6,0
18.625,0
18.65,0
18.675,0
18.7,0
18.725,0
18.75,0.004288
18.775,0
18.8,0
18.825,0
18.85,0
18.875,0
18.9,0
18.925,0
18.95,0
18.975,0
19,0
19.025,0
19.05,0
19.075,0
19.1,0
19.125,0
19.15,0
19.175,0
19.2,0
19.225,0
19.25,0
19.275,0
19.3,0
19.325,0
19.35,0
19.375,0
19.4,0
19.425,0
19.45,0
19.475,0
19.5,0
19.525,0
19.55,0
19.575,0
19.6,0
19.625,0
19.65,0
19.675,0
19.7,0
19.725,0
19.75,0
19.775,0
19.8,0
19.825,0
19.85,0
19.875,0
19.9,0
19.925,0
19.95,0.004288
19.975,0
20,0
20.025,0
20.05,0
20.075,0
20.1,0
20.125,0
20.15,0
20.175,0
20.2,0
20.225,0
20.25,0
20.275,0
20.3,0
20.325,0
20.35,0
20.375,0
20.4,0
20.425,0
20.45,0
20.475,0
20.5,0
20.525,0
20.55,0
20.575,0
20.6,0
20.625,0
20.65,0
20.675,0
20.7,0
20.725,0
20.75,0
20.775,0
20.8,0
20.825,0
20.85,0
20.875,0
20.9,0
20.925,0
20.95,0
20.975,0
21,0
21.025,0
21.05,0
21.075,0
21.1,0
21.125,0
21.15,0
21.175,0.004288
21.2,0
21.225,0
21.25,0
21.275,0
21.3,0
21.325,0
21.35,0
21.375,0
21.4,0
21.425,0
21.45,0
21.475,0
21.5,0
21.525,0
21.55,0
21.575,0
21.6,0
21.625,0
21.65,0
21.675,0
21.7,0
21.725,0
21.75,0
21.775,0
21.8,0
21.825,0
21.85,0
21.875,0
21.9,0
21.925,0
21.95,0
21.975,0
