time,value
2,0
2.025,0
2.05,0
2.075,0.04288
2.1,0.068608
2.125,0.094336
2.15,0.132928
2.175,0.162944
2.2,0.240128
2.225,0.244416
2.25,0.338752
2.275,0.265856
2.3,0.304448
2.325,0.295872
2.35,0.030016
2.375,0
2.4,0
2.425,0.368768
2.45,0.682944
2.475,0.420224
2.5,0.501696
2.525,0.347328
2.55,0.295872
2.575,0.274432
2.6,0.283008
2.625,0.283008
2.65,0.098624
2.675,0
2.7,0
2.725,0
2.75,1.04685
2.775,0.102912
2.8,0.240128
2.825,0
2.85,0
2.875,0.801856
2.9,0.19296
2.925,0.394496
2.95,0.441664
2.975,0.553152
3,0.548864
3.025,0.488832
3.05,0.360192
3.075,0.381632
3.1,0.338752
3.125,0.415936
3.15,0.373056
3.175,0.094336
3.2,0
3.225,0.861888
3.25,0.32992
3.275,0.077184
3.3,0.240128
3.325,0.420224
3.35,0.415936
3.375,0.381632
3.4,0.424512
3.425,0.368768
3.45,0.454528
3.475,0.531712
3.5,0.467392
3.525,0.523136
3.55,0.51456
3.575,0.536
3.6,0.553152
3.625,0.06432
3.65,0.849024
3.675,0.3216
3.7,0.060032
3.725,0.68608
3.75,0.291584
3.775,0.180096
3.8,0.313024
3.825,0.38592
3.85,0.3216
3.875,0.36448
3.9,0.252992
3.925,0.34304
3.95,0.360192
3.975,0.283008
4,0.45024
4.025,0.377344
4.05,0.454528
4.075,0.445952
4.1,0.454528
4.125,0.497408
4.15,0.403072
4.175,0.570304
4.2,0.501696
4.225,0.536
4.25,0.484544
4.275,0.518848
4.3,0.570304
4.325,0.566016
4.35,0.570304
4.375,0.566016
4.4,0.81472
4.425,0.613184
4.45,0.626048
4.475,0.56192
4.5,0.568384
4.525,0.56128
4.55,0.242112
4.575,0
4.6,1.04723
4.625,0.475968
4.65,0.561728
4.675,0.570304
4.7,0.683968
4.725,0.567616
4.75,0.294272
4.775,0.59808
4.8,0.446464
4.825,0.304448
4.85,0.681792
4.875,0.463104
4.9,0.373056
4.925,0.381632
4.95,0.377344
4.975,0
5,0.3216
5.025,0.72608
5.05,0.162944
5.075,0.420224
5.1,0.441664
5.125,0.390208
5.15,0.373056
5.175,0.403072
5.2,0.317312
5.225,0
5.25,0
5.275,0.994816
5.3,0.0992
5.325,0.287296
5.35,0.317312
5.375,0.360192
5.4,0.180096
5.425,0
5.45,0.77184
5.475,0.115776
5.5,0.265856
5.525,0.30016
5.55,0.304448
5.575,0.334464
5.6,0.377344
5.625,0.381632
5.65,0.373056
5.675,0.381632
5.7,0.475968
5.725,0.445952
5.75,0.077184
5.775,0.608896
5.8,0.338752
5.825,0.295872
5.85,0.454528
5.875,0.475968
5.9,0.518848
5.925,0.505984
5.95,0.527424
5.975,0.536
6,0.570304
6.025,0.55744
6.05,0.60032
6.075,0.566016
6.1,0.587456
6.125,0.694656
6.15,0.561728
6.175,0.698944
6.2,0.62176
6.225,0.656064
6.25,0.827584
6.275,0.70752
6.3,0.716096
6.325,0.656768
6.35,0.689472
6.375,0.659648
6.4,0.680896
6.425,0.685952
6.45,0.647168
6.475,0.644864
6.5,0.67936
6.525,0.616512
6.55,0.666112
6.575,0.671552
6.6,0.660544
6.625,0.42528
6.65,0
6.675,1.04723
6.7,0.57888
6.725,0.638912
6.75,0.620096
6.775,0.57056
6.8,0
6.825,1.04858
6.85,0.287296
6.875,0.608896
6.9,0.646336
6.925,0.136832
6.95,1.04858
6.975,0.2144
7,0.574592
7.025,0.626048
7.05,0.613184
7.075,0.604608
7.1,0.596032
7.125,0.570304
7.15,0.62176
7.175,0.741824
7.2,0.566016
7.225,0.566016
7.25,0.566016
7.275,0.570304
7.3,0.570304
7.325,0.02144
7.35,1.0457
7.375,0
7.4,0.733248
7.425,0.604608
7.45,0.866176
7.475,0.853312
7.5,0.394496
7.525,0.518848
7.55,0.45024
7.575,0.420224
7.6,0.441664
7.625,0.308736
7.65,0
7.675,0.831872
7.7,0
7.725,0.254784
7.75,0.2144
7.775,0.317312
7.8,0.424512
7.825,0.313024
7.85,0.274432
7.875,0.287296
7.9,0.283008
7.925,0.283008
7.95,0.287296
7.975,0.218688
8,0
8.025,0.634624
8.05,0.167232
8.075,0.338752
8.1,0.420224
8.125,0.433088
8.15,0.433088
8.175,0.480256
8.2,0.373056
8.225,0.49312
8.25,0.47168
8.275,0.355904
8.3,0.458816
8.325,0.463104
8.35,0.411648
8.375,0.49312
8.4,0.291584
8.425,0.445952
8.45,0.40736
8.475,0.4288
8.5,0.51456
8.525,0.488832
8.55,0.437376
8.575,0.505984
8.6,0.480256
8.625,0.390208
8.65,0.40736
8.675,0.527424
8.7,0.501696
8.725,0.398784
8.75,0.355904
8.775,0.295872
8.8,0.45024
8.825,0.158656
8.85,0
8.875,0.7504
8.9,0.291584
8.925,0.338752
8.95,0.291584
8.975,0.180096
9,0.548864
9.025,0.12864
9.05,0.4288
9.075,0.368768
9.1,0.424512
9.125,0.017152
9.15,0.626048
9.175,0.330176
9.2,0.351616
9.225,0.351616
9.25,0.330176
9.275,0.36448
9.3,0.347328
9.325,0.351616
9.35,0.36448
9.375,0.3216
9.4,0.351616
9.425,0.394496
9.45,0.3216
9.475,0.36448
9.5,0.308736
9.525,0.377344
9.55,0.398784
9.575,0.40736
9.6,0.291584
9.625,0.368768
9.65,0.38592
9.675,0.445952
9.7,0.34304
9.725,0.394496
9.75,0.475968
9.775,0.424512
9.8,0.445952
9.825,0.360192
9.85,0.394496
9.875,0.403072
9.9,0.45024
9.925,0.415936
9.95,0.475968
9.975,0.441664
10,0.488832
10.025,0.518848
10.05,0.548864
10.075,0.561728
10.1,0.570304
10.125,0.420224
10.15,0.394496
10.175,0.381632
10.2,0.373056
10.225,0.124352
10.25,0
10.275,0.77184
10.3,0.291968
10.325,0.27872
10.35,0.497408
10.375,0.51456
10.4,0.373056
10.425,0.381632
10.45,0.381632
10.475,0.373056
10.5,0.162944
10.525,0
10.55,1.0377
10.575,0.068544
10.6,0.34304
10.625,0.240128
10.65,0.6432
10.675,0.201536
10.7,0.201536
10.725,0.360192
10.75,0.467392
10.775,0.373056
10.8,0.49312
10.825,0.295872
10.85,0.424512
10.875,0.4288
10.9,0.424512
10.925,0.398784
10.95,0.373056
10.975,0.330176
11,0.38592
11.025,0.355904
11.05,0.287296
11.075,0.325888
11.1,0.210112
11.125,0.390208
11.15,0.295872
11.175,0.360192
11.2,0.360192
11.225,0.34304
11.25,0.308736
11.275,0.038592
11.3,0.536
11.325,0.094336
11.35,0.240128
11.375,0.27872
11.4,0.295872
11.425,0.240128
11.45,0.403072
11.475,0.2144
11.5,0
11.525,0.583168
11.55,0.25728
11.575,0.330176
11.6,0.313024
11.625,0.360192
11.65,0.334464
11.675,0.34304
11.7,0.270144
11.725,0.377344
11.75,0.338752
11.775,0.373056
11.8,0.338752
11.825,0.325888
11.85,0.373056
11.875,0.403072
11.9,0.415936
11.925,0.45024
11.95,0.463104
11.975,0.488832
12,0.488832
12.025,0.570304
12.05,0.566016
12.075,0.570304
12.1,0.596032
12.125,0.716096
12.15,0.62176
12.175,0.287296
12.2,0
12.225,1.04544
12.25,0.227264
12.275,0.536
12.3,0.566016
12.325,0.716096
12.35,0.510272
12.375,0.531712
12.4,0.566016
12.425,0.570304
12.45,0.570304
12.475,0.325888
12.5,0
12.525,1.04461
12.55,0.424512
12.575,0.62176
12.6,0.561728
12.625,0.566016
12.65,0.570304
12.675,0.415936
12.7,0.38592
12.725,0.381632
12.75,0.377344
12.775,0.313024
12.8,0
12.825,0.883328
12.85,0.163264
12.875,0.40736
12.9,0.283008
12.925,0.38592
12.95,0.368768
12.975,0.433088
13,0.411648
13.025,0.381632
13.05,0.377344
13.075,0.394496
13.1,0.381632
13.125,0.227264
13.15,0
13.175,0.934784
13.2,0.249792
13.225,0.523136
13.25,0.566016
13.275,0.287296
13.3,0.733248
13.325,0.334464
13.35,0.030016
13.375,0.377344
13.4,0.240128
13.425,0.351616
13.45,0.325888
13.475,0.25728
13.5,0.360192
13.525,0.12864
13.55,0.34304
13.575,0.175808
13.6,0.274432
13.625,0.240128
13.65,0.27872
13.675,0.167232
13.7,0.415936
13.725,0.19296
13.75,0.188672
13.775,0.27872
13.8,0.2144
13.825,0.283008
13.85,0.240128
13.875,0.25728
13.9,0.261568
13.925,0.317312
13.95,0.355904
13.975,0.252992
14,0
14.025,0.398784
14.05,0.248704
14.075,0.261568
14.1,0.197248
14.125,0.325888
14.15,0.270144
14.175,0.308736
14.2,0.313024
14.225,0.403072
14.25,0.398784
14.275,0.394496
14.3,0.458816
14.325,0.411648
14.35,0.445952
14.375,0.411648
14.4,0.360192
14.425,0.36448
14.45,0.467392
14.475,0.38592
14.5,0.467392
14.525,0.463104
14.55,0.40736
14.575,0.445952
14.6,0.49312
14.625,0.445952
14.65,0.488832
14.675,0.458816
14.7,0.518848
14.725,0.527424
14.75,0.553152
14.775,0.540288
14.8,0.591744
14.825,0.656064
14.85,0.561728
14.875,0.60032
14.9,0.746112
14.925,0.561728
14.95,0.604608
14.975,0.746112
15,0.611008
15.025,0.636608
15.05,0.611904
15.075,0.61792
15.1,0.597568
15.125,0.601344
15.15,0.637056
15.175,0.603008
15.2,0
15.225,1.04653
15.25,0.030016
15.275,0.40736
15.3,0.377344
15.325,0.378368
15.35,0.380352
15.375,0.196608
15.4,0
15.425,0
15.45,1.048
15.475,0.055744
15.5,0.381632
15.525,0.647488
15.55,0.433088
15.575,0.420224
15.6,0.40736
15.625,0.381632
15.65,0.30016
15.675,0
15.7,0.913344
15.725,0.160576
15.75,0.373056
15.775,0.411648
15.8,0.398784
15.825,0.45024
15.85,0.660352
15.875,0.703232
15.9,0.711808
15.925,0.656064
15.95,0.668928
15.975,0.66464
16,0.630336
16.025,0.381632
16.05,0.939072
16.075,0.312704
16.1,0.334464
16.125,0.445952
16.15,0.373056
16.175,0.415936
16.2,0.377344
16.225,0.355904
16.25,0.295872
16.275,0.274432
16.3,0.17152
16.325,0.283008
16.35,0.27872
16.375,0.287296
16.4,0.308736
16.425,0.012864
16.45,0
16.475,0.917632
16.5,0.206784
16.525,0.313024
16.55,0.291584
16.575,0.295872
16.6,0.330176
16.625,0.34304
16.65,0.222976
16.675,0
16.7,0.677504
16.725,0.197248
16.75,0.338752
16.775,0.501696
16.8,0.518848
16.825,0.394496
16.85,0.4288
16.875,0.411648
16.9,0.390208
16.925,0.433088
16.95,0.325888
16.975,0.424512
17,0.540288
17.025,0.484544
17.05,0.583168
17.075,0.536
17.1,0.574592
17.125,0.536
17.15,0.68608
17.175,0.630336
17.2,0.613184
17.225,0.454528
17.25,0
17.275,1.04755
17.3,0.536
17.325,0.6432
17.35,0.596032
17.375,0.591744
17.4,0.673216
17.425,0.651776
17.45,0.66464
17.475,0.60032
17.5,0.660352
17.525,0.57888
17.55,0.583168
17.575,0
17.6,1.04813
17.625,0.1072
17.65,0.505984
17.675,0.523136
17.7,0.596032
17.725,0.381632
17.75,0.647488
17.775,0.403072
17.8,0.548864
17.825,0.381632
17.85,0.441664
17.875,0.40736
17.9,0.398784
17.925,0.377344
17.95,0
17.975,0
18,1.0464
18.025,0.373056
18.05,0.180096
18.075,0.40736
18.1,0
18.125,0.70752
18.15,0.210112
18.175,0.45024
18.2,0.261568
18.225,0
18.25,0.758976
18.275,0.132928
18.3,0.420224
18.325,0.25728
18.35,0.355904
18.375,0.475968
18.4,0.433088
18.425,0.398784
18.45,0.497408
18.475,0.415936
18.5,0.424512
18.525,0.445952
18.55,0.420224
18.575,0.304448
18.6,0.583168
18.625,0.17152
18.65,0.433088
18.675,0.433088
18.7,0.218688
18.725,0.291584
18.75,0.403072
18.775,0.248704
18.8,0.3216
18.825,0.27872
18.85,0.304448
18.875,0.317312
18.9,0.325888
18.925,0.373056
18.95,0.355904
18.975,0.4288
19,0.390208
19.025,0.36448
19.05,0.381632
19.075,0.373056
19.1,0.381632
19.125,0.377344
19.15,0.355904
19.175,0.377344
19.2,0.6432
19.225,0.694656
19.25,0.668928
19.275,0.690368
19.3,0.827584
19.325,0.716096
19.35,0.778944
19.375,0.72128
19.4,0.785088
19.425,0.714048
19.45,0.744512
19.475,0.772544
19.5,0.701824
19.525,0.7168
19.55,0.765184
19.575,0.71168
19.6,0.663744
19.625,0.685248
19.65,0.709568
19.675,0.572096
19.7,0.704512
19.725,0.578112
19.75,0.569344
19.775,0.603456
19.8,0.567424
19.825,0.200704
19.85,0
19.875,1.04838
19.9,0.454528
19.925,0.536
19.95,0.21504
19.975,0
20,1.04723
20.025,0.377344
20.05,0.570304
20.075,0.568064
20.1,0.564608
20.125,0.562944
20.15,0.514752
20.175,0
20.2,1.04858
20.225,0.188672
20.25,0.497408
20.275,0.570304
20.3,0.06432
20.325,1.04678
20.35,0
20.375,0.368768
20.4,0.531712
20.425,0.604608
20.45,0.27872
20.475,0.3216
20.5,0.377344
20.525,0.377344
20.55,0.38592
20.575,0.15008
20.6,0
20.625,0.98624
20.65,0.207616
20.675,0.351616
20.7,0.40736
20.725,0.458816
20.75,0.441664
20.775,0.377344
20.8,0.38592
20.825,0.368768
20.85,0.38592
20.875,0.501696
20.9,0.608896
20.925,0.711808
20.95,0.630336
20.975,0.626048
21,0.420224
21.025,0.81472
21.05,0.454528
21.075,0.591744
21.1,0.518848
21.125,0.634624
21.15,0.647488
21.175,0.66464
21.2,0.647488
21.225,0.394496
21.25,0.638912
21.275,0.055744
21.3,0.724672
21.325,0.381632
21.35,0.373056
21.375,0.377344
21.4,0.415936
21.425,0.347328
21.45,0.424512
21.475,0.415936
21.5,0.347328
21.525,0.38592
21.55,0.313024
21.575,0.40736
21.6,0.527424
21.625,0.368768
21.65,0.347328
21.675,0.536
21.7,0.467392
21.725,0.497408
21.75,0.66464
21.775,0.591744
21.8,0.608896
21.825,0.668928
21.85,0.630336
21.875,0.6432
21.9,0.66464
21.925,0.596032
21.95,0.553152
21.975,0.398784
