time,value
2,0
2.025,0
2.05,0.04288
2.075,0.060032
2.1,0.090048
2.125,0.141504
2.15,0.205824
2.175,0.308736
2.2,0.3216
2.225,0.360192
2.25,0.368768
2.275,0.287296
2.3,0.308736
2.325,0.291584
2.35,0.30176
2.375,0.012864
2.4,0
2.425,0
2.45,0.84672
2.475,0.226432
2.5,0.240128
2.525,0.30016
2.55,0.30016
2.575,0.27872
2.6,0.2816
2.625,0.24192
2.65,0
2.675,0
2.7,0
2.725,1.04314
2.75,0.060032
2.775,0.403072
2.8,0.270144
2.825,0.317312
2.85,0.252992
2.875,0.326656
2.9,0.54144
2.925,0.159744
2.95,0
2.975,1.02182
3,0.167488
3.025,0.38592
3.05,0.411648
3.075,0.38592
3.1,0.334464
3.125,0.40736
3.15,0.265856
3.175,0
3.2,0
3.225,1.04653
3.25,0.17152
3.275,0.531712
3.3,0.634624
3.325,0.536
3.35,0.544576
3.375,0.591744
3.4,0.505984
3.425,0.40736
3.45,0
3.475,1.04493
3.5,0.531712
3.525,0.60032
3.55,0.62176
3.575,0.60032
3.6,0.583168
3.625,0.6432
3.65,0.711808
3.675,0.638912
3.7,0.698944
3.725,0.801856
3.75,0.754688
3.775,0.763264
3.8,0.295872
3.825,1.048
3.85,0.55744
3.875,0.617472
3.9,0.368768
3.925,0.544576
3.95,0.656064
3.975,0.656064
4,0.68608
4.025,0.634624
4.05,0.681792
4.075,0.690368
4.1,0.681792
4.125,0.634624
4.15,0.634624
4.175,0.566016
4.2,0.634624
4.225,0.60032
4.25,0.651776
4.275,0.613184
4.3,0.566016
4.325,0.54624
4.35,0
4.375,1.04858
4.4,0
4.425,0.518848
4.45,0.510272
4.475,0.570304
4.5,0.566016
4.525,0.570304
4.55,0.261568
4.575,0
4.6,1.04544
4.625,0.411648
4.65,0.574592
4.675,0.566016
4.7,0.45024
4.725,0.325888
4.75,0
4.775,1.04672
4.8,0.523136
4.825,0.677504
4.85,0.454528
4.875,0.420224
4.9,0
4.925,0.801856
4.95,0.25248
4.975,0.287296
5,0.377344
5.025,0.368768
5.05,0.480256
5.075,0.38592
5.1,0.437376
5.125,0.36448
5.15,0.377344
5.175,0.338752
5.2,0.373056
5.225,0.373056
5.25,0.283008
5.275,0.287296
5.3,0.102912
5.325,0
5.35,0.651776
5.375,0.055744
5.4,0.252992
5.425,0.3216
5.45,0.334464
5.475,0.411648
5.5,0.38592
5.525,0.390208
5.55,0.338752
5.575,0.338752
5.6,0.373056
5.625,0.381632
5.65,0.377344
5.675,0.377344
5.7,0.480256
5.725,0.420224
5.75,0.47168
5.775,0.381632
5.8,0.394496
5.825,0.433088
5.85,0.591744
5.875,0.411648
5.9,0.780416
5.925,0.420224
5.95,0.518848
5.975,0.518848
6,0.561728
6.025,0.527424
6.05,0.536
6.075,0.55744
6.1,0.548864
6.125,0.437376
6.15,0.574592
6.175,0.437376
6.2,0.244416
6.225,0.7504
6.25,0.304448
6.275,0.4288
6.3,0.420224
6.325,0.480256
6.35,0.441664
6.375,0.475968
6.4,0.454528
6.425,0.445952
6.45,0.488832
6.475,0.484544
6.5,0.454528
6.525,0.518848
6.55,0.467392
6.575,0.463104
6.6,0.47168
6.625,0.501696
6.65,0.441664
6.675,0.677504
6.7,0.467392
6.725,0.497408
6.75,0.51456
6.775,0.501696
6.8,0.510272
6.825,0.608896
6.85,0.531712
6.875,0.527424
6.9,0.488832
6.925,0.544576
6.95,0.433088
6.975,0.690368
7,0.561728
7.025,0.510272
7.05,0.523136
7.075,0.531712
7.1,0.536
7.125,0.566016
7.15,0.51456
7.175,0.394496
7.2,0.570304
7.225,0.570304
7.25,0.566016
7.275,0.566016
7.3,0.566016
7.325,0.570304
7.35,0.22272
7.375,1.0455
7.4,0.034304
7.425,0
7.45,0.656064
7.475,0.222976
7.5,0.373056
7.525,0.4288
7.55,0.467392
7.575,0.415936
7.6,0.437376
7.625,0.4288
7.65,0.403072
7.675,0.398784
7.7,0.424512
7.725,0.57888
7.75,0.540288
7.775,0.415936
7.8,0.544576
7.825,0.403072
7.85,0.287296
7.875,0.283008
7.9,0.287296
7.925,0.283008
7.95,0.077184
7.975,0
8,0
8.025,0.831872
8.05,0.320896
8.075,0.102912
8.1,0.248704
8.125,0.373056
8.15,0.484544
8.175,0.06432
8.2,0.673216
8.225,0.441664
8.25,0.3216
8.275,0.338752
8.3,0.137216
8.325,0.433088
8.35,0.197248
8.375,0.27872
8.4,0.252992
8.425,0.248704
8.45,0.325888
8.475,0.15008
8.5,0.373056
8.525,0.347328
8.55,0.351616
8.575,0.291584
8.6,0.291584
8.625,0.308736
8.65,0.351616
8.675,0.415936
8.7,0.308736
8.725,0.283008
8.75,0.488832
8.775,0.4288
8.8,0.338752
8.825,0.458816
8.85,0.437376
8.875,0.531712
8.9,0.463104
8.925,0.45024
8.95,0.531712
8.975,0.394496
9,0.381632
9.025,0.25728
9.05,1.04698
9.075,0.291584
9.1,0.711808
9.125,0.720384
9.15,0.891904
9.175,0.746112
9.2,0.784704
9.225,0.784704
9.25,0.806144
9.275,0.77184
9.3,0.784704
9.325,0.784704
9.35,0.77184
9.375,0.81472
9.4,0.784704
9.425,0.737536
9.45,0.81472
9.475,0.77184
9.5,0.827584
9.525,0.758976
9.55,0.737536
9.575,0.724672
9.6,0.844736
9.625,0.767552
9.65,0.090048
9.675,1.04621
9.7,0.510272
9.725,0.741824
9.75,0.660352
9.775,0.70752
9.8,0.690368
9.825,0.776128
9.85,0.741824
9.875,0.733248
9.9,0.68608
9.925,0.716096
9.95,0.660352
9.975,0.694656
10,0.647488
10.025,0.617472
10.05,0.587456
10.075,0.570304
10.1,0.566016
10.125,0.4288
10.15,0.274432
10.175,0
10.2,0
10.225,1.04736
10.25,0.162944
10.275,0.38592
10.3,0.561728
10.325,0.681792
10.35,0.102912
10.375,0.27872
10.4,0.381632
10.425,0.381632
10.45,0.373056
10.475,0.381632
10.5,0.377344
10.525,0.377344
10.55,0.167232
10.575,0
10.6,1.00768
10.625,0.184384
10.65,0.424512
10.675,0.608896
10.7,0.531712
10.725,0.523136
10.75,0.523136
10.775,0.51456
10.8,0.634624
10.825,0.608896
10.85,0.711808
10.875,0.544576
10.9,0.694656
10.925,0.737536
10.95,0.758976
10.975,0.806144
11,0.7504
11.025,0.420224
11.05,0.591744
11.075,0.415936
11.1,0.566016
11.125,0.394496
11.15,0.055744
11.175,0
11.2,1.04589
11.225,0.261568
11.25,0.441664
11.275,0.394496
11.3,0.458816
11.325,0.60032
11.35,0.45024
11.375,0.17152
11.4,0
11.425,1.04704
11.45,0.098624
11.475,0.531712
11.5,0.27872
11.525,0.763264
11.55,0.626048
11.575,0.801856
11.6,0.660352
11.625,0.776128
11.65,0.801856
11.675,0.784704
11.7,0.866176
11.725,0.754688
11.75,0.797568
11.775,0.763264
11.8,0.797568
11.825,0.810432
11.85,0.763264
11.875,0.727808
11.9,0.716608
11.925,0.686912
11.95,0.668096
11.975,0.64672
12,0.64352
12.025,0.566016
12.05,0.438016
12.075,0
12.1,1.04768
12.125,0.265856
12.15,0.51456
12.175,0.570304
12.2,0.56032
12.225,0.605056
12.25,0.794048
12.275,0.090112
12.3,1.0439
12.325,0
12.35,0.60032
12.375,0.604608
12.4,0.570304
12.425,0.566016
12.45,0.566016
12.475,0.205824
12.5,0
12.525,1.06131
12.55,0.583168
12.575,0.51456
12.6,0.570304
12.625,0.570304
12.65,0.566016
12.675,0.40736
12.7,0.394496
12.725,0.351616
12.75,0
12.775,0
12.8,1.04691
12.825,0.145792
12.85,0.381632
12.875,0.62176
12.9,0.441664
12.925,0.373056
12.95,0.381632
12.975,0.4288
13,0.403072
13.025,0.381632
13.05,0.38592
13.075,0.390208
13.1,0.373056
13.125,0.111488
13.15,0
13.175,1.04576
13.2,0.252992
13.225,0.591744
13.25,0.566016
13.275,0.647488
13.3,0.604608
13.325,0.698944
13.35,0.758976
13.375,0.784704
13.4,0.780416
13.425,0.784704
13.45,0.801856
13.475,0.355904
13.5,0.758976
13.525,0.308736
13.55,0.317312
13.575,0.317312
13.6,0.038592
13.625,0
13.65,0.570304
13.675,0.476544
13.7,0.197248
13.725,0.368768
13.75,0.433088
13.775,0.240128
13.8,0.308736
13.825,0.283008
13.85,0.304448
13.875,0.210112
13.9,0
13.925,0.733248
13.95,0.270144
13.975,0.390208
14,0.4288
14.025,0.132928
14.05,0
14.075,0.634624
14.1,0.274432
14.125,0.355904
14.15,0.381632
14.175,0.368768
14.2,0.295872
14.225,0.458816
14.25,0.377344
14.275,0.505984
14.3,0.531712
14.325,0.51456
14.35,0.540288
14.375,0.55744
14.4,0.591744
14.425,0.424512
14.45,0.626048
14.475,0.330176
14.5,0.604608
14.525,0.608896
14.55,0.651776
14.575,0.60032
14.6,0.55744
14.625,0.62176
14.65,0.647488
14.675,0.634624
14.7,0.613184
14.725,0.608896
14.75,0.583168
14.775,0.596032
14.8,0.544576
14.825,0.480256
14.85,0.570304
14.875,0.536
14.9,0.390208
14.925,0.574592
14.95,0.531712
14.975,0.390208
15,0.523136
15.025,0.497408
15.05,0.523136
15.075,0.51456
15.1,0.536
15.125,0.531712
15.15,0.497408
15.175,0.484544
15.2,0.544576
15.225,0.368768
15.25,0.527424
15.275,0.411648
15.3,0.377344
15.325,0.377344
15.35,0.377344
15.375,0.381632
15.4,0.445952
15.425,0.145792
15.45,0
15.475,1.04794
15.5,0.287296
15.525,0.338752
15.55,0.4288
15.575,0.420224
15.6,0.398784
15.625,0.381632
15.65,0.248704
15.675,0
15.7,0.977664
15.725,0.288064
15.75,0.445952
15.775,0.454528
15.8,0.381632
15.825,0
15.85,0.939072
15.875,0.412288
15.9,0.424512
15.925,0.480256
15.95,0.463104
15.975,0.47168
16,0.505984
16.025,0.467392
16.05,0.484544
16.075,0.634624
16.1,0.295872
16.125,0.437376
16.15,0.381632
16.175,0.27872
16.2,0
16.225,0.767552
16.25,0.252992
16.275,0.291584
16.3,0.3216
16.325,0.283008
16.35,0.283008
16.375,0.283008
16.4,0.313024
16.425,0.27872
16.45,0.304448
16.475,0.34304
16.5,0.27872
16.525,0.338752
16.55,0.248704
16.575,0.295872
16.6,0.338752
16.625,0.338752
16.65,0.291584
16.675,0.304448
16.7,0.287296
16.725,0.403072
16.75,0.2144
16.775,0.544576
16.8,0.205824
16.825,0.566016
16.85,0.351616
16.875,0.424512
16.9,0.4288
16.925,0.360192
16.95,0.51456
16.975,0.394496
17,0.596032
17.025,0.60032
17.05,0.553152
17.075,0.60032
17.1,0.561728
17.125,0.60032
17.15,0.445952
17.175,0.505984
17.2,0.523136
17.225,0.441664
17.25,0.523136
17.275,0.660352
17.3,0.561728
17.325,0.49312
17.35,0.540288
17.375,0.540288
17.4,0.463104
17.425,0.484544
17.45,0.47168
17.475,0.536
17.5,0.475968
17.525,0.553152
17.55,0.49312
17.575,0.553152
17.6,0.566016
17.625,0.776128
17.65,0.608896
17.675,0.613184
17.7,0.536
17.725,0.754688
17.75,0.488832
17.775,0.733248
17.8,0.570304
17.825,0.373056
17.85,0.445952
17.875,0.411648
17.9,0.268096
17.925,0
17.95,0
17.975,1.04646
18,0.197248
18.025,0.330176
18.05,0.630336
18.075,0.34304
18.1,0
18.125,0
18.15,1.04691
18.175,0.368768
18.2,0.368768
18.225,0.441664
18.25,0.377344
18.275,0.540288
18.3,0.415936
18.325,0.441664
18.35,0.574592
18.375,0.634624
18.4,0.694656
18.425,0.737536
18.45,0.638912
18.475,0.716096
18.5,0.711808
18.525,0.690368
18.55,0.248704
18.575,1.04845
18.6,0.467392
18.625,0.797568
18.65,0.703232
18.675,0.415936
18.7,0
18.725,1.04832
18.75,0.274432
18.775,0.420224
18.8,0.317312
18.825,0.38592
18.85,0.36448
18.875,0.415936
18.9,0.403072
18.925,0.377344
18.95,0.420224
18.975,0.60032
19,0.334464
19.025,0.463104
19.05,0.373056
19.075,0.381632
19.1,0.381632
19.125,0.197248
19.15,0
19.175,0.716096
19.2,0.36352
19.225,0.180096
19.25,0.197248
19.275,0.711808
19.3,0.308736
19.325,0.420224
19.35,0.355904
19.375,0.411648
19.4,0.347328
19.425,0.420224
19.45,0.390208
19.475,0.360192
19.5,0.4288
19.525,0.420224
19.55,0.36448
19.575,0.424512
19.6,0.467392
19.625,0.45024
19.65,0.424512
19.675,0.561728
19.7,0.4288
19.725,0.553152
19.75,0.566016
19.775,0.527424
19.8,0.566016
19.825,0.570304
19.85,0.570304
19.875,0.806144
19.9,0.626048
19.925,0.60032
19.95,0.568064
19.975,0.56672
20,0.764992
20.025,0.671872
20.05,0.566016
20.075,0.567104
20.1,0.565248
20.125,0.566016
20.15,0.331968
20.175,0
20.2,1.04352
20.225,0.445952
20.25,0.638912
20.275,0.567168
20.3,0.568
20.325,0.24672
20.35,0
20.375,0.8976
20.4,0.154304
20.425,0.004288
20.45,0.548864
20.475,0.411648
20.5,0.377344
20.525,0.381632
20.55,0.141504
20.575,0
20.6,0.990528
20.625,0.060544
20.65,0.424512
20.675,0.055744
20.7,0
20.725,0.870464
20.75,0.25728
20.775,0.381632
20.8,0.15008
20.825,0
20.85,0.98624
20.875,0.27872
20.9,0.505984
20.925,0.420224
20.95,0.505984
20.975,0.510272
21,0.505984
21.025,0.531712
21.05,0.55744
21.075,0.544576
21.1,0.355904
21.125,0.608896
21.15,0.347328
21.175,0.261568
21.2,0.458816
21.225,0.252992
21.25,0.437376
21.275,0.27872
21.3,0.381632
21.325,0.347328
21.35,0.227264
21.375,0.330176
21.4,0.304448
21.425,0.287296
21.45,0.274432
21.475,0.334464
21.5,0.30016
21.525,0.317312
21.55,0.368768
21.575,0.313024
21.6,0.373056
21.625,0.325888
21.65,0.30016
21.675,0.394496
21.7,0.373056
21.725,0.338752
21.75,0.47168
21.775,0.40736
21.8,0.527424
21.825,0.467392
21.85,0.505984
21.875,0.49312
21.9,0.467392
21.925,0.540288
21.95,0.441664
21.975,0.437376
