time,value
2,0
2.025,0
2.05,0
2.075,0.04288
2.1,0.072896
2.125,0.102912
2.15,0.154368
2.175,0.197248
2.2,0.115776
2.225,0.338752
2.25,0
2.275,0
2.3,0.55744
2.325,0.184384
2.35,0.180096
2.375,0.252992
2.4,0.252992
2.425,0.291584
2.45,0.115776
2.475,0.240128
2.5,0.34304
2.525,0.222976
2.55,0.248704
2.575,0.240128
2.6,0.240128
2.625,0.240128
2.65,0.120064
2.675,0
2.7,0.613184
2.725,0.180096
2.75,0.175808
2.775,0.373056
2.8,0.351616
2.825,0.227264
2.85,0.141504
2.875,0.270144
2.9,0.248704
2.925,0.231552
2.95,0.231552
2.975,0.3216
3,0.4288
3.025,0.488832
3.05,0.403072
3.075,0.596032
3.1,0.355904
3.125,0.394496
3.15,0.398784
3.175,0.4288
3.2,0.36448
3.225,0.334464
3.25,0.334464
3.275,0.441664
3.3,0.355904
3.325,0.34304
3.35,0.36448
3.375,0.377344
3.4,0.394496
3.425,0.377344
3.45,0.394496
3.475,0.355904
3.5,0.523136
3.525,0.38592
3.55,0.415936
3.575,0.347328
3.6,0.394496
3.625,0.445952
3.65,0.36448
3.675,0.390208
3.7,0.424512
3.725,0.398784
3.75,0.441664
3.775,0.373056
3.8,0.420224
3.825,0.420224
3.85,0.394496
3.875,0.480256
3.9,0.45024
3.925,0.445952
3.95,0.454528
3.975,0.523136
4,0.510272
4.025,0.566016
4.05,0.570304
4.075,0.788992
4.1,0.548864
4.125,0.591744
4.15,0.317312
4.175,0.570304
4.2,0.570304
4.225,0.565952
4.25,0.411776
4.275,0
4.3,1.04819
4.325,0.291584
4.35,0.673216
4.375,0.673216
4.4,0.570304
4.425,0.566016
4.45,0.570304
4.475,0.570304
4.5,0.22688
4.525,0
4.55,1.04781
4.575,0.523136
4.6,0.60032
4.625,0.587456
4.65,0.141504
4.675,0.999104
4.7,0.155648
4.725,0.475968
4.75,0.630336
4.775,0.544576
4.8,0.49312
4.825,0.57888
4.85,0.531712
4.875,0.536
4.9,0.553152
4.925,0.424512
4.95,0.274432
4.975,0.287296
5,0.287296
5.025,0.231552
5.05,0.02144
5.075,0
5.1,0
5.125,1.04717
5.15,0.06432
5.175,0.295872
5.2,0.265856
5.225,0.25728
5.25,0.227264
5.275,0.218688
5.3,0.261568
5.325,0.034304
5.35,0
5.375,0.733248
5.4,0.274432
5.425,0.325888
5.45,0.222976
5.475,0.36448
5.5,0.274432
5.525,0.240128
5.55,0.17152
5.575,0
5.6,0.583168
5.625,0
5.65,0.180096
5.675,0.081472
5.7,0.141504
5.725,0.360192
5.75,0.38592
5.775,0.351616
5.8,0.441664
5.825,0.458816
5.85,0.484544
5.875,0.398784
5.9,0.390208
5.925,0.19296
5.95,0.398784
5.975,0.351616
6,0.317312
6.025,0.40736
6.05,0.355904
6.075,0.317312
6.1,0.36448
6.125,0.227264
6.15,0.381632
6.175,0.40736
6.2,0.377344
6.225,0.30016
6.25,0.368768
6.275,0.261568
6.3,0.334464
6.325,0.304448
6.35,0.30016
6.375,0.334464
6.4,0.347328
6.425,0.325888
6.45,0.334464
6.475,0.330176
6.5,0.351616
6.525,0.355904
6.55,0.394496
6.575,0.420224
6.6,0.351616
6.625,0.437376
6.65,0.47168
6.675,0.570304
6.7,0.587456
6.725,0.488832
6.75,0.57888
6.775,0.566016
6.8,0.638912
6.825,0.570304
6.85,0.570304
6.875,0.566016
6.9,0.638912
6.925,0.791872
6.95,0.548864
6.975,0.593344
7,0.6224
7.025,0.607552
7.05,0.361216
7.075,0
7.1,1.04627
7.125,0.651776
7.15,0.570304
7.175,0.167232
7.2,0
7.225,1.04781
7.25,0.505984
7.275,0.527424
7.3,0.553152
7.325,0.570304
7.35,0.583168
7.375,0.566016
7.4,0.570304
7.425,0.566016
7.45,0.23584
7.475,0.90048
7.5,0.267584
7.525,0.527424
7.55,0.480256
7.575,0.566016
7.6,0.57888
7.625,0.523136
7.65,0.561728
7.675,0.566016
7.7,0.398784
7.725,0.505984
7.75,0.411648
7.775,0.68608
7.8,0.351616
7.825,0.445952
7.85,0.201536
7.875,0
7.9,0.81472
7.925,0.124352
7.95,0
7.975,0.330176
8,0.304448
8.025,0.1072
8.05,0.1072
8.075,0.287296
8.1,0.231552
8.125,0.231552
8.15,0.072896
8.175,0.381632
8.2,0.051456
8.225,0.205824
8.25,0.201536
8.275,0.188672
8.3,0.210112
8.325,0.231552
8.35,0.201536
8.375,0.231552
8.4,0.231552
8.425,0.17152
8.45,0.270144
8.475,0.124352
8.5,0
8.525,0.544576
8.55,0.154368
8.575,0.274432
8.6,0.222976
8.625,0.240128
8.65,0.291584
8.675,0.072896
8.7,0.252992
8.725,0.287296
8.75,0.317312
8.775,0.295872
8.8,0.317312
8.825,0.338752
8.85,0.334464
8.875,0.334464
8.9,0.347328
8.925,0.34304
8.95,0.360192
8.975,0.377344
9,0.36448
9.025,0.38592
9.05,0.330176
9.075,0.347328
9.1,0.360192
9.125,0.4288
9.15,0.381632
9.175,0.424512
9.2,0.441664
9.225,0.4288
9.25,0.467392
9.275,0.231552
9.3,0.51456
9.325,0.377344
9.35,0.4288
9.375,0.4288
9.4,0.437376
9.425,0.445952
9.45,0.437376
9.475,0.433088
9.5,0.403072
9.525,0.454528
9.55,0.3216
9.575,0.377344
9.6,0.390208
9.625,0.351616
9.65,0.244416
9.675,0.381632
9.7,0.184384
9.725,0.38592
9.75,0.287296
9.775,0.330176
9.8,0.355904
9.825,0.248704
9.85,0.308736
9.875,0.415936
9.9,0.330176
9.925,0.351616
9.95,0.347328
9.975,0.38592
10,0.424512
10.025,0.45024
10.05,0.47168
10.075,0.351616
10.1,0.484544
10.125,0.604608
10.15,0.596032
10.175,0.626048
10.2,0.656064
10.225,0.561728
10.25,0.694656
10.275,0.831872
10.3,0.767552
10.325,0.918528
10.35,0.85888
10.375,0.75648
10.4,0.629632
10.425,0.37216
10.45,0.394944
10.475,0.383872
10.5,0.247104
10.525,0
10.55,0
10.575,1.04646
10.6,0.004288
10.625,0.201536
10.65,0.308736
10.675,0.295872
10.7,0.283008
10.725,0.317824
10.75,0.142272
10.775,0
10.8,0
10.825,0
10.85,0.94112
10.875,0
10.9,0.090048
10.925,0.020736
10.95,0.04288
10.975,0.175808
11,0
11.025,0
11.05,0
11.075,1.03341
11.1,0.013184
11.125,0.218688
11.15,0.523136
11.175,0.338752
11.2,0.330176
11.225,0.244416
11.25,0.283008
11.275,0.283008
11.3,0.132928
11.325,0
11.35,0.913344
11.375,0.210112
11.4,0.441664
11.425,0.437376
11.45,0.638912
11.475,0.613184
11.5,0.583168
11.525,0.668928
11.55,0.634624
11.575,0.673216
11.6,0.626048
11.625,0.668928
11.65,0.518848
11.675,0.548864
11.7,0.295872
11.725,0.956224
11.75,0.40736
11.775,0.544576
11.8,0.66464
11.825,0.49312
11.85,0.566016
11.875,0.613184
11.9,0.626048
11.925,0.523136
11.95,0.613184
11.975,0.604608
12,0.604608
12.025,0.540288
12.05,0.295872
12.075,0.891904
12.1,0.279424
12.125,0.570304
12.15,0.55744
12.175,0.445952
12.2,0.527424
12.225,0.544576
12.25,0.583168
12.275,0.463104
12.3,0.553152
12.325,0.540288
12.35,0.55744
12.375,0.49312
12.4,0.553152
12.425,0.591744
12.45,0.540288
12.475,0.57888
12.5,0.570304
12.525,0.720384
12.55,0.703232
12.575,0.62176
12.6,0.608896
12.625,0.634624
12.65,0.660992
12.675,0.65536
12.7,0.002176
12.725,1.04858
12.75,0.544576
12.775,0.733248
12.8,0.724672
12.825,0.737536
12.85,0.624512
12.875,0.7648
12.9,0.667648
12.925,0.468288
12.95,0
12.975,1.05952
13,0.527424
13.025,0.638912
13.05,0.544576
13.075,0.596032
13.1,0.638912
13.125,0.570304
13.15,0.566016
13.175,0.570304
13.2,0.523136
13.225,0.544576
13.25,0.540288
13.275,0.132928
13.3,0.969088
13.325,0.07936
13.35,0.373056
13.375,0.317312
13.4,0.317312
13.425,0.317312
13.45,0.261568
13.475,0
13.5,0
13.525,0
13.55,0.9648
13.575,0
13.6,0.309632
13.625,0.051456
13.65,0.201536
13.675,0.145792
13.7,0
13.725,0.488832
13.75,0.047168
13.775,0.244416
13.8,0.227264
13.825,0.231552
13.85,0.227264
13.875,0.218688
13.9,0.304448
13.925,0.36448
13.95,0.210112
13.975,0.373056
14,0.2144
14.025,0.231552
14.05,0.240128
14.075,0.244416
14.1,0.240128
14.125,0.248704
14.15,0.411648
14.175,0.265856
14.2,0
14.225,0.583168
14.25,0.34304
14.275,0.355904
14.3,0.480256
14.325,0.454528
14.35,0.424512
14.375,0.441664
14.4,0.488832
14.425,0.415936
14.45,0.420224
14.475,0.441664
14.5,0.338752
14.525,0.403072
14.55,0.381632
14.575,0.415936
14.6,0.36448
14.625,0.4288
14.65,0.377344
14.675,0.437376
14.7,0.394496
14.725,0.424512
14.75,0.390208
14.775,0.4288
14.8,0.30016
14.825,0.38592
14.85,0.60032
14.875,0.330176
14.9,0.463104
14.925,0.4288
14.95,0.398784
14.975,0.403072
15,0.081472
15.025,0.754688
15.05,0.295872
15.075,0.30016
15.1,0.445952
15.125,0.403072
15.15,0.34304
15.175,0.47168
15.2,0.394496
15.225,0.458816
15.25,0.617472
15.275,0.445952
15.3,0.398784
15.325,0.45024
15.35,0.480256
15.375,0.398784
15.4,0.617472
15.425,0.531712
15.45,0.3216
15.475,0.505984
15.5,0.505984
15.525,0.570304
15.55,0.415936
15.575,0.484544
15.6,0.536
15.625,0.49312
15.65,0.424512
15.675,0.49312
15.7,0.561728
15.725,0.4288
15.75,0.647488
15.775,0.57888
15.8,0.287296
15.825,0.338752
15.85,0.735936
15.875,0.351616
15.9,0.55744
15.925,0.55744
15.95,0.596032
15.975,0.518848
16,0.634624
16.025,0.604608
16.05,0.51456
16.075,0.4288
16.1,0.561728
16.125,0.394496
16.15,0.394496
16.175,0.445952
16.2,0.373056
16.225,0.381632
16.25,0.167232
16.275,0.716096
16.3,0.081472
16.325,0.497408
16.35,0.15008
16.375,0.488832
16.4,0.3216
16.425,0.308736
16.45,0.373056
16.475,0.287296
16.5,0.34304
16.525,0.291584
16.55,0.317312
16.575,0.291584
16.6,0.308736
16.625,0.313024
16.65,0.377344
16.675,0.360192
16.7,0.445952
16.725,0.373056
16.75,0.36448
16.775,0.40736
16.8,0.390208
16.825,0.411648
16.85,0.398784
16.875,0.505984
16.9,0.518848
16.925,0.398784
16.95,0.424512
16.975,0.415936
17,0.570304
17.025,0.094336
17.05,1.02054
17.075,0.497408
17.1,0.83616
17.125,0.7504
17.15,0.711808
17.175,0.720384
17.2,0.776128
17.225,0.754688
17.25,0.758976
17.275,0.741824
17.3,0.81472
17.325,0.711808
17.35,0
17.375,1.04538
17.4,0.505984
17.425,0.677504
17.45,0.677504
17.475,0.746112
17.5,0.724672
17.525,0.673216
17.55,0.660352
17.575,0.66464
17.6,0.660352
17.625,0.72896
17.65,0.62176
17.675,0.776128
17.7,0.553152
17.725,0.741824
17.75,0.617472
17.775,0.60032
17.8,0.596032
17.825,0.58784
17.85,0.185664
17.875,0
17.9,0.899392
17.925,0.155456
17.95,0.4288
17.975,0.484544
18,0.566016
18.025,0.570304
18.05,0.570304
18.075,0.523136
18.1,0
18.125,1.04672
18.15,0.197248
18.175,0.454528
18.2,0.548864
18.225,0.55744
18.25,0.570304
18.275,0.566016
18.3,0.570304
18.325,0.566016
18.35,0.604608
18.375,0.673216
18.4,0.55744
18.425,0.561728
18.45,0.570304
18.475,0.566016
18.5,0.570304
18.525,0.566016
18.55,0.570304
18.575,0.570304
18.6,0.566016
18.625,0.566016
18.65,0.17152
18.675,1.04518
18.7,0.283008
18.725,0.484544
18.75,0.518848
18.775,0.475968
18.8,0.49312
18.825,0.47168
18.85,0.17152
18.875,0
18.9,1.04576
18.925,0.090048
18.95,0.291584
18.975,0.055744
19,0.763264
19.025,0.154368
19.05,0.295872
19.075,0.265856
19.1,0.270144
19.125,0
19.15,0
19.175,0.703232
19.2,0.205824
19.225,0.304448
19.25,0.274432
19.275,0.240128
19.3,0.252992
19.325,0.227264
19.35,0
19.375,0
19.4,0.694656
19.425,0.08576
19.45,0.34304
19.475,0.248704
19.5,0.338752
19.525,0.3216
19.55,0.180096
19.575,0.304448
19.6,0.231552
19.625,0
19.65,0.518848
19.675,0.047168
19.7,0.240128
19.725,0.274432
19.75,0.25728
19.775,0.2144
19.8,0.394496
19.825,0.188672
19.85,0.244416
19.875,0.102912
19.9,0.325888
19.925,0.25728
19.95,0.283008
19.975,0.218688
20,0.334464
20.025,0.30016
20.05,0.3216
20.075,0.34304
20.1,0.330176
20.125,0.338752
20.15,0.304448
20.175,0.411648
20.2,0.463104
20.225,0.30016
20.25,0.548864
20.275,0.390208
20.3,0.55744
20.325,0.587456
20.35,0.613184
20.375,0.630336
20.4,0.591744
20.425,0.660352
20.45,0.566016
20.475,0.613184
20.5,0.536
20.525,0.566016
20.55,0.068608
20.575,1.0464
20.6,0
20.625,0.463104
20.65,0.561728
20.675,0.570304
20.7,0.566016
20.725,0.566016
20.75,0.570304
20.775,0.36448
20.8,0
20.825,1.04845
20.85,0.475968
20.875,0.570304
20.9,0.561728
20.925,0.518848
20.95,0.566016
20.975,0.484544
21,0.570304
21.025,0.566016
21.05,0.711808
21.075,0.694656
21.1,0.36448
21.125,0.051456
21.15,0.626048
21.175,0.516544
21.2,0.368768
21.225,0.488832
21.25,0.523136
21.275,0.548864
21.3,0.497408
21.325,0.566016
21.35,0.518848
21.375,0.566016
21.4,0.60032
21.425,0.561728
21.45,0.570304
21.475,0.458816
21.5,0.49312
21.525,0.441664
21.55,0.480256
21.575,0.398784
21.6,0.441664
21.625,0.227264
21.65,0
21.675,1.0457
21.7,0.197248
21.725,0.390208
21.75,0.162944
21.775,0.698944
21.8,0.068608
21.825,0.060032
21.85,0
21.875,0.536
21.9,0.377344
21.925,0.162944
21.95,0.231552
21.975,0.180096
