time,value
2,0
2.025,0
2.05,0.04288
2.075,0.060032
2.1,0.154368
2.125,0.252992
2.15,0.218688
2.175,0.295872
2.2,0.231552
2.225,0.218688
2.25,0.231552
2.275,0.072896
2.3,0
2.325,0
2.35,0
2.375,0.205824
2.4,0.708608
2.425,0.153728
2.45,0.368768
2.475,0.411648
2.5,0.510272
2.525,0.244416
2.55,0.180096
2.575,0
2.6,0
2.625,0
2.65,0
2.675,0.411648
2.7,0.675776
2.725,0.158656
2.75,0.355904
2.775,0.510272
2.8,0.347328
2.825,0.317312
2.85,0.291584
2.875,0.283008
2.9,0.283008
2.925,0.120064
2.95,0
2.975,0.810432
3,0.137216
3.025,0.313024
3.05,0.527424
3.075,0.463104
3.1,0.510272
3.125,0.291584
3.15,0.6432
3.175,0.317312
3.2,0.145792
3.225,0.390208
3.25,0.218688
3.275,0.252992
3.3,0.23584
3.325,0.295872
3.35,0.283008
3.375,0.287296
3.4,0.283008
3.425,0.291584
3.45,0.274432
3.475,0.23584
3.5,0.295872
3.525,0.30016
3.55,0.295872
3.575,0.227264
3.6,0.184384
3.625,0.304448
3.65,0.30016
3.675,0.304448
3.7,0.291584
3.725,0.287296
3.75,0.30016
3.775,0.308736
3.8,0.244416
3.825,0.308736
3.85,0.283008
3.875,0.330176
3.9,0.283008
3.925,0.304448
3.95,0.287296
3.975,0.261568
4,0.30016
4.025,0.27872
4.05,0.308736
4.075,0.308736
4.1,0.240128
4.125,0.274432
4.15,0.244416
4.175,0.218688
4.2,0.287296
4.225,0.283008
4.25,0.27872
4.275,0.27872
4.3,0.274432
4.325,0.197248
4.35,0.252992
4.375,0.111488
4.4,0.222976
4.425,0.231552
4.45,0.210112
4.475,0.240128
4.5,0.210112
4.525,0.227264
4.55,0.240128
4.575,0.231552
4.6,0.227264
4.625,0.227264
4.65,0.222976
4.675,0.231552
4.7,0.210112
4.725,0.218688
4.75,0.240128
4.775,0.2144
4.8,0.2144
4.825,0.244416
4.85,0.252992
4.875,0.240128
4.9,0.2144
4.925,0.240128
4.95,0.227264
4.975,0.205824
5,0.188672
5.025,0.102912
5.05,0.17152
5.075,0.162944
5.1,0.102912
5.125,0.197248
5.15,0.120064
5.175,0.162944
5.2,0.141504
5.225,0.15008
5.25,0.210112
5.275,0.145792
5.3,0.145792
5.325,0.17152
5.35,0.17152
5.375,0.12864
5.4,0
5.425,0.313024
5.45,0.098624
5.475,0.137216
5.5,0.17152
5.525,0.188672
5.55,0.19296
5.575,0.180096
5.6,0.175808
5.625,0.205824
5.65,0.180096
5.675,0.205824
5.7,0.201536
5.725,0.184384
5.75,0.197248
5.775,0.184384
5.8,0.175808
5.825,0.201536
5.85,0.197248
5.875,0.167232
5.9,0.205824
5.925,0.210112
5.95,0.201536
5.975,0.205824
6,0.2144
6.025,0.197248
6.05,0.197248
6.075,0.205824
6.1,0.175808
6.125,0.184384
6.15,0.197248
6.175,0.197248
6.2,0.205824
6.225,0.2144
6.25,0.205824
6.275,0.2144
6.3,0.188672
6.325,0.167232
6.35,0.197248
6.375,0.162944
6.4,0.197248
6.425,0.132928
6.45,0.222976
6.475,0.145792
6.5,0.210112
6.525,0.15008
6.55,0.188672
6.575,0.2144
6.6,0.098624
6.625,0.180096
6.65,0.115776
6.675,0.132928
6.7,0.137216
6.725,0.137216
6.75,0.132928
6.775,0.137216
6.8,0.15008
6.825,0.158656
6.85,0.158656
6.875,0.158656
6.9,0.158656
6.925,0.162944
6.95,0.162944
6.975,0.162944
7,0.162944
7.025,0.162944
7.05,0.154368
7.075,0.158656
7.1,0.158656
7.125,0.17152
7.15,0.17152
7.175,0.167232
7.2,0.162944
7.225,0.158656
7.25,0.162944
7.275,0.167232
7.3,0.17152
7.325,0.154368
7.35,0.184384
7.375,0.175808
7.4,0.12864
7.425,0.184384
7.45,0.115776
7.475,0.124352
7.5,0.090048
7.525,0.094336
7.55,0.08576
7.575,0.094336
7.6,0.098624
7.625,0.04288
7.65,0.15008
7.675,0.08576
7.7,0.1072
7.725,0.120064
7.75,0.094336
7.775,0.141504
7.8,0.077184
7.825,0.111488
7.85,0.102912
7.875,0.090048
7.9,0.158656
7.925,0.158656
7.95,0.175808
7.975,0.180096
8,0.180096
8.025,0.184384
8.05,0.188672
8.075,0.180096
8.1,0.175808
8.125,0.184384
8.15,0.180096
8.175,0.17152
8.2,0.180096
8.225,0.17152
8.25,0.145792
8.275,0.180096
8.3,0.175808
8.325,0.180096
8.35,0.180096
8.375,0.19296
8.4,0.180096
8.425,0.180096
8.45,0.180096
8.475,0.17152
8.5,0.175808
8.525,0.184384
8.55,0.17152
8.575,0.184384
8.6,0.184384
8.625,0.180096
8.65,0.180096
8.675,0.180096
8.7,0.167232
8.725,0.19296
8.75,0.175808
8.775,0.137216
8.8,0.12864
8.825,0.15008
8.85,0.15008
8.875,0.175808
8.9,0.162944
8.925,0.137216
8.95,0.098624
8.975,0.162944
9,0.145792
9.025,0.17152
9.05,0.158656
9.075,0.17152
9.1,0.12864
9.125,0.145792
9.15,0.167232
9.175,0.154368
9.2,0.167232
9.225,0.145792
9.25,0.162944
9.275,0.145792
9.3,0.12864
9.325,0.137216
9.35,0.154368
9.375,0.102912
9.4,0.162944
9.425,0.17152
9.45,0.15008
9.475,0.17152
9.5,0.167232
9.525,0.175808
9.55,0.197248
9.575,0.175808
9.6,0.188672
9.625,0.154368
9.65,0.17152
9.675,0.180096
9.7,0.184384
9.725,0.167232
9.75,0.180096
9.775,0.188672
9.8,0.180096
9.825,0.184384
9.85,0.167232
9.875,0.180096
9.9,0.120064
9.925,0.102912
9.95,0.124352
9.975,0.038592
10,0.154368
10.025,0.077184
10.05,0.1072
10.075,0.098624
10.1,0.12864
10.125,0.15008
10.15,0.08576
10.175,0.137216
10.2,0.094336
10.225,0.12864
10.25,0.102912
10.275,0.111488
10.3,0.132928
10.325,0.102912
10.35,0.17152
10.375,0.094336
10.4,0.180096
10.425,0.184384
10.45,0.180096
10.475,0.19296
10.5,0.184384
10.525,0.180096
10.55,0.188672
10.575,0.184384
10.6,0.19296
10.625,0.180096
10.65,0.201536
10.675,0.184384
10.7,0.188672
10.725,0.175808
10.75,0.184384
10.775,0.175808
10.8,0.184384
10.825,0.184384
10.85,0.188672
10.875,0.184384
10.9,0.19296
10.925,0.188672
10.95,0.197248
10.975,0.19296
11,0.180096
11.025,0.188672
11.05,0.197248
11.075,0.188672
11.1,0.184384
11.125,0.188672
11.15,0.162944
11.175,0.197248
11.2,0.201536
11.225,0.19296
11.25,0.197248
11.275,0.201536
11.3,0.17152
11.325,0.197248
11.35,0.188672
11.375,0.201536
11.4,0.205824
11.425,0.175808
11.45,0.184384
11.475,0.175808
11.5,0.188672
11.525,0.175808
11.55,0.184384
11.575,0.197248
11.6,0.19296
11.625,0.19296
11.65,0.197248
11.675,0.180096
11.7,0.167232
11.725,0.180096
11.75,0.210112
11.775,0.19296
11.8,0.180096
11.825,0.184384
11.85,0.188672
11.875,0.197248
11.9,0.175808
11.925,0.15008
11.95,0.205824
11.975,0.19296
12,0.188672
12.025,0.19296
12.05,0.197248
12.075,0.218688
12.1,0.201536
12.125,0.205824
12.15,0.145792
12.175,0.218688
12.2,0.222976
12.225,0.205824
12.25,0.231552
12.275,0.244416
12.3,0.222976
12.325,0.23584
12.35,0.205824
12.375,0.205824
12.4,0.201536
12.425,0.141504
12.45,0.180096
12.475,0.210112
12.5,0.141504
12.525,0.2144
12.55,0.158656
12.575,0.222976
12.6,0.222976
12.625,0.205824
12.65,0.175808
12.675,0.210112
12.7,0.205824
12.725,0.210112
12.75,0.244416
12.775,0.180096
12.8,0.248704
12.825,0.188672
12.85,0.261568
12.875,0.240128
12.9,0.23584
12.925,0.231552
12.95,0.205824
12.975,0.287296
13,0.270144
13.025,0.252992
13.05,0.287296
13.075,0.27872
13.1,0.12864
13.125,0.313024
13.15,0.184384
13.175,0.205824
13.2,0.197248
13.225,0.19296
13.25,0.197248
13.275,0.205824
13.3,0.210112
13.325,0.205824
13.35,0.201536
13.375,0.231552
13.4,0.222976
13.425,0.23584
13.45,0.222976
13.475,0.227264
13.5,0.227264
13.525,0.23584
13.55,0.244416
13.575,0.23584
13.6,0.244416
13.625,0.227264
13.65,0.240128
13.675,0.244416
13.7,0.252992
13.725,0.252992
13.75,0.252992
13.775,0.23584
13.8,0.244416
13.825,0.244416
13.85,0.25728
13.875,0.252992
13.9,0.265856
13.925,0.180096
13.95,0.240128
13.975,0.15008
14,0.184384
14.025,0.184384
14.05,0.188672
14.075,0.188672
14.1,0.19296
14.125,0.175808
14.15,0.19296
14.175,0.137216
14.2,0.175808
14.225,0.184384
14.25,0.167232
14.275,0.175808
14.3,0.180096
14.325,0.180096
14.35,0.154368
14.375,0.188672
14.4,0.180096
14.425,0.197248
14.45,0.162944
14.475,0.15008
14.5,0.197248
14.525,0.17152
14.55,0.17152
14.575,0.180096
14.6,0.17152
14.625,0.19296
14.65,0.175808
14.675,0.19296
14.7,0.12864
14.725,0.184384
14.75,0.197248
14.775,0.197248
14.8,0.184384
14.825,0.180096
14.85,0.162944
14.875,0.197248
14.9,0.197248
14.925,0.180096
14.95,0.145792
14.975,0.188672
15,0.167232
15.025,0.180096
15.05,0.184384
15.075,0.15008
15.1,0.180096
15.125,0.188672
15.15,0.188672
15.175,0.175808
15.2,0.132928
15.225,0.2144
15.25,0.218688
15.275,0.2144
15.3,0.205824
15.325,0.218688
15.35,0.19296
15.375,0.197248
15.4,0.210112
15.425,0.184384
15.45,0.175808
15.475,0.2144
15.5,0.201536
15.525,0.205824
15.55,0.201536
15.575,0.175808
15.6,0.197248
15.625,0.201536
15.65,0.184384
15.675,0.184384
15.7,0.167232
15.725,0.19296
15.75,0.2144
15.775,0.180096
15.8,0.205824
15.825,0.210112
15.85,0.205824
15.875,0.205824
15.9,0.227264
15.925,0.2144
15.95,0.218688
15.975,0.231552
16,0.218688
16.025,0.218688
16.05,0.222976
16.075,0.227264
16.1,0.210112
16.125,0.222976
16.15,0.227264
16.175,0.231552
16.2,0.188672
16.225,0.222976
16.25,0.201536
16.275,0.218688
16.3,0.218688
16.325,0.218688
16.35,0.231552
16.375,0.222976
16.4,0.222976
16.425,0.227264
16.45,0.222976
16.475,0.218688
16.5,0.2144
16.525,0.2144
16.55,0.227264
16.575,0.210112
16.6,0.231552
16.625,0.222976
16.65,0.210112
16.675,0.227264
16.7,0.222976
16.725,0.222976
16.75,0.201536
16.775,0.19296
16.8,0.188672
16.825,0.175808
16.85,0.227264
16.875,0.197248
16.9,0.210112
16.925,0.19296
16.95,0.2144
16.975,0.19296
17,0.218688
17.025,0.2144
17.05,0.201536
17.075,0.210112
17.1,0.197248
17.125,0.188672
17.15,0.2144
17.175,0.17152
17.2,0.060032
17.225,0.19296
17.25,0.124352
17.275,0.090048
17.3,0.115776
17.325,0.132928
17.35,0.124352
17.375,0.12864
17.4,0.120064
17.425,0.124352
17.45,0.132928
17.475,0.154368
17.5,0.115776
17.525,0.145792
17.55,0.145792
17.575,0.184384
17.6,0.167232
17.625,0.162944
17.65,0.17152
17.675,0.17152
17.7,0.167232
17.725,0.175808
17.75,0.17152
17.775,0.162944
17.8,0.188672
17.825,0.184384
17.85,0.162944
17.875,0.132928
17.9,0.1072
17.925,0.180096
17.95,0.175808
17.975,0.154368
18,0.175808
18.025,0.188672
18.05,0.137216
18.075,0.17152
18.1,0.17152
18.125,0.180096
18.15,0.180096
18.175,0.17152
18.2,0.167232
18.225,0.19296
18.25,0.210112
18.275,0.19296
18.3,0.197248
18.325,0.218688
18.35,0.218688
18.375,0.205824
18.4,0.2144
18.425,0.210112
18.45,0.201536
18.475,0.222976
18.5,0.222976
18.525,0.201536
18.55,0.2144
18.575,0.210112
18.6,0.218688
18.625,0.205824
18.65,0.2144
18.675,0.210112
18.7,0.218688
18.725,0.222976
18.75,0.218688
18.775,0.218688
18.8,0.2144
18.825,0.218688
18.85,0.210112
18.875,0.218688
18.9,0.218688
18.925,0.218688
18.95,0.227264
18.975,0.218688
19,0.2144
19.025,0.222976
19.05,0.218688
19.075,0.2144
19.1,0.222976
19.125,0.2144
19.15,0.210112
19.175,0.231552
19.2,0.227264
19.225,0.222976
19.25,0.222976
19.275,0.231552
19.3,0.2144
19.325,0.227264
19.35,0.231552
19.375,0.2144
19.4,0.227264
19.425,0.222976
19.45,0.231552
19.475,0.210112
19.5,0.227264
19.525,0.17152
19.55,0.188672
19.575,0.188672
19.6,0.188672
19.625,0.162944
19.65,0.205824
19.675,0.188672
19.7,0.175808
19.725,0.154368
19.75,0.205824
19.775,0.034304
19.8,0.15008
19.825,0.124352
19.85,0.15008
19.875,0.098624
19.9,0.141504
19.925,0.115776
19.95,0.132928
19.975,0.124352
20,0.137216
20.025,0.158656
20.05,0.15008
20.075,0.15008
20.1,0.154368
20.125,0.158656
20.15,0.162944
20.175,0.158656
20.2,0.175808
20.225,0.175808
20.25,0.068608
20.275,0.08576
20.3,0.154368
20.325,0.115776
20.35,0.180096
20.375,0.175808
20.4,0.12864
20.425,0.188672
20.45,0.154368
20.475,0.162944
20.5,0.162944
20.525,0.17152
20.55,0.145792
20.575,0.137216
20.6,0.167232
20.625,0.12864
20.65,0.188672
20.675,0.17152
20.7,0.188672
20.725,0.175808
20.75,0.210112
20.775,0.2144
20.8,0.197248
20.825,0.218688
20.85,0.210112
20.875,0.2144
20.9,0.205824
20.925,0.201536
20.95,0.218688
20.975,0.210112
21,0.2144
21.025,0.218688
21.05,0.2144
21.075,0.218688
21.1,0.2144
21.125,0.218688
21.15,0.2144
21.175,0.2144
21.2,0.218688
21.225,0.222976
21.25,0.218688
21.275,0.201536
21.3,0.218688
21.325,0.222976
21.35,0.222976
21.375,0.227264
21.4,0.2144
21.425,0.227264
21.45,0.222976
21.475,0.210112
21.5,0.227264
21.525,0.227264
21.55,0.2144
21.575,0.218688
21.6,0.227264
21.625,0.222976
21.65,0.218688
21.675,0.231552
21.7,0.222976
21.725,0.227264
21.75,0.231552
21.775,0.227264
21.8,0.2144
21.825,0.231552
21.85,0.23584
21.875,0.227264
21.9,0.231552
21.925,0.222976
21.95,0.227264
21.975,0.222976
