time,value
2,0
2.025,0
2.05,0.038592
2.075,0.030016
2.1,0.098624
2.125,0.19296
2.15,0.222976
2.175,0.222976
2.2,0.227264
2.225,0.231552
2.25,0.222976
2.275,0.137216
2.3,0
2.325,0
2.35,0
2.375,0
2.4,0.574016
2.425,0.472832
2.45,0.030016
2.475,0.274432
2.5,0.180096
2.525,0.23584
2.55,0.227264
2.575,0.222976
2.6,0.227264
2.625,0.025728
2.65,0
2.675,0
2.7,0
2.725,0.626048
2.75,0.448064
2.775,0.098624
2.8,0.201536
2.825,0.23584
2.85,0.274432
2.875,0.283008
2.9,0.283008
2.925,0.34304
2.95,0.120064
2.975,0
3,0.754688
3.025,0
3.05,0.236032
3.075,0
3.1,0
3.125,0
3.15,0
3.175,0
3.2,0
3.225,0
3.25,0
3.275,0
3.3,0
3.325,0
3.35,0
3.375,0
3.4,0
3.425,0
3.45,0
3.475,0
3.5,0
3.525,0
3.55,0
3.575,0
3.6,0
3.625,0
3.65,0
3.675,0
3.7,0
3.725,0
3.75,0
3.775,0
3.8,0
3.825,0
3.85,0
3.875,0
3.9,0
3.925,0
3.95,0
3.975,0
4,0
4.025,0
4.05,0
4.075,0
4.1,0
4.125,0
4.15,0
4.175,0
4.2,0
4.225,0
4.25,0
4.275,0
4.3,0
4.325,0
4.35,0
4.375,0
4.4,0
4.425,0
4.45,0
4.475,0
4.5,0
4.525,0
4.55,0
4.575,0
4.6,0
4.625,0
4.65,0
4.675,0
4.7,0
4.725,0
4.75,0
4.775,0
4.8,0
4.825,0
4.85,0
4.875,0
4.9,0
4.925,0
4.95,0
4.975,0
5,0.40736
5.025,0.304448
5.05,0.360192
5.075,0.433088
5.1,0.484544
5.125,0.313024
5.15,0
5.175,0.896192
5.2,0.32096
5.225,0.433088
5.25,0.411648
5.275,0.381632
5.3,0.433088
5.325,0.373056
5.35,0.368768
5.375,0.351616
5.4,0.467392
5.425,0.4288
5.45,0.317312
5.475,0.513792
5.5,0
5.525,0
5.55,0
5.575,0
5.6,0
5.625,0
5.65,0
5.675,0
5.7,0
5.725,0
5.75,0
5.775,0
5.8,0
5.825,0
5.85,0
5.875,0
5.9,0
5.925,0
5.95,0
5.975,0
6,0
6.025,0
6.05,0
6.075,0
6.1,0
6.125,0
6.15,0
6.175,0
6.2,0
6.225,0
6.25,0
6.275,0
6.3,0
6.325,0
6.35,0
6.375,0
6.4,0
6.425,0
6.45,0
6.475,0
6.5,0
6.525,0
6.55,0
6.575,0
6.6,0
6.625,0
6.65,0
6.675,0
6.7,0
6.725,0
6.75,0
6.775,0
6.8,0
6.825,0
6.85,0
6.875,0
6.9,0
6.925,0
6.95,0
6.975,0
7,0
7.025,0
7.05,0
7.075,0
7.1,0
7.125,0
7.15,0
7.175,0
7.2,0
7.225,0
7.25,0
7.275,0
7.3,0
7.325,0
7.35,0
7.375,0
7.4,0
7.425,0
7.45,0
7.475,0.094336
7.5,0.4288
7.525,0.454528
7.55,0.368768
7.575,0.424512
7.6,0.36448
7.625,0.484544
7.65,0.373056
7.675,0.45024
7.7,0.583168
7.725,0.561728
7.75,0.540288
7.775,0.463104
7.8,0.55744
7.825,0.548864
7.85,0.553152
7.875,0.501696
7.9,0.247296
7.925,0
7.95,0
7.975,0
8,0
8.025,0
8.05,0
8.075,0
8.1,0
8.125,0
8.15,0
8.175,0
8.2,0
8.225,0
8.25,0
8.275,0
8.3,0
8.325,0
8.35,0
8.375,0
8.4,0
8.425,0
8.45,0
8.475,0
8.5,0
8.525,0
8.55,0
8.575,0
8.6,0
8.625,0
8.65,0
8.675,0
8.7,0
8.725,0
8.75,0
8.775,0
8.8,0
8.825,0
8.85,0
8.875,0
8.9,0
8.925,0
8.95,0
8.975,0
9,0
9.025,0
9.05,0
9.075,0
9.1,0
9.125,0
9.15,0
9.175,0
9.2,0
9.225,0
9.25,0
9.275,0
9.3,0
9.325,0
9.35,0
9.375,0
9.4,0
9.425,0
9.45,0
9.475,0
9.5,0
9.525,0
9.55,0
9.575,0
9.6,0
9.625,0
9.65,0
9.675,0
9.7,0
9.725,0
9.75,0
9.775,0
9.8,0
9.825,0
9.85,0
9.875,0
9.9,0.523136
9.925,0.6432
9.95,0.304448
9.975,0.591744
10,0.411648
10.025,0.47168
10.05,0.158656
10.075,0
10.1,1.04749
10.125,0.197248
10.15,0.420224
10.175,0.445952
10.2,0.45024
10.225,0.415936
10.25,0.45024
10.275,0.205824
10.3,0
10.325,1.04634
10.35,0.216
10.375,0
10.4,0
10.425,0
10.45,0
10.475,0
10.5,0
10.525,0
10.55,0
10.575,0
10.6,0
10.625,0
10.65,0
10.675,0
10.7,0
10.725,0
10.75,0
10.775,0
10.8,0
10.825,0
10.85,0
10.875,0
10.9,0
10.925,0
10.95,0
10.975,0
11,0
11.025,0
11.05,0
11.075,0
11.1,0
11.125,0
11.15,0
11.175,0
11.2,0
11.225,0
11.25,0
11.275,0
11.3,0
11.325,0
11.35,0
11.375,0
11.4,0
11.425,0
11.45,0
11.475,0
11.5,0
11.525,0
11.55,0
11.575,0
11.6,0
11.625,0
11.65,0
11.675,0
11.7,0
11.725,0
11.75,0
11.775,0
11.8,0
11.825,0
11.85,0
11.875,0
11.9,0
11.925,0
11.95,0
11.975,0
12,0
12.025,0
12.05,0
12.075,0
12.1,0
12.125,0
12.15,0
12.175,0
12.2,0
12.225,0
12.25,0
12.275,0
12.3,0
12.325,0
12.35,0.17152
12.375,0.403072
12.4,0.325888
12.425,0.4288
12.45,0.510272
12.475,0.49312
12.5,0.463104
12.525,0.411648
12.55,0.12864
12.575,0.437376
12.6,0.415936
12.625,0.270144
12.65,0.34304
12.675,0.398784
12.7,0.40736
12.725,0.3216
12.75,0.403072
12.775,0.38592
12.8,0.338752
12.825,0.36448
12.85,0.15008
12.875,0.02144
12.9,0.405952
12.925,0
12.95,0
12.975,0
13,0
13.025,0
13.05,0
13.075,0
13.1,0
13.125,0
13.15,0
13.175,0
13.2,0
13.225,0
13.25,0
13.275,0
13.3,0
13.325,0
13.35,0
13.375,0
13.4,0
13.425,0
13.45,0
13.475,0
13.5,0
13.525,0
13.55,0
13.575,0
13.6,0
13.625,0
13.65,0
13.675,0
13.7,0
13.725,0
13.75,0
13.775,0
13.8,0
13.825,0
13.85,0
13.875,0
13.9,0
13.925,0
13.95,0
13.975,0
14,0
14.025,0
14.05,0
14.075,0
14.1,0
14.125,0
14.15,0
14.175,0
14.2,0
14.225,0
14.25,0
14.275,0
14.3,0
14.325,0
14.35,0
14.375,0
14.4,0
14.425,0
14.45,0
14.475,0
14.5,0
14.525,0
14.55,0
14.575,0
14.6,0
14.625,0
14.65,0
14.675,0
14.7,0
14.725,0
14.75,0
14.775,0
14.8,0
14.825,0
14.85,0.411648
14.875,0.210112
14.9,0.47168
14.925,0.420224
14.95,0.488832
14.975,0.55744
15,0.463104
15.025,0.613184
15.05,0.587456
15.075,0.626048
15.1,0.651776
15.125,0.668928
15.15,0.694656
15.175,0.68608
15.2,0.448832
15.225,0
15.25,0
15.275,0
15.3,0
15.325,0
15.35,0
15.375,0
15.4,0
15.425,0
15.45,0
15.475,0
15.5,0
15.525,0
15.55,0
15.575,0
15.6,0
15.625,0
15.65,0
15.675,0
15.7,0
15.725,0
15.75,0
15.775,0
15.8,0
15.825,0
15.85,0
15.875,0
15.9,0
15.925,0
15.95,0
15.975,0
16,0
16.025,0
16.05,0
16.075,0
16.1,0
16.125,0
16.15,0
16.175,0
16.2,0
16.225,0
16.25,0
16.275,0
16.3,0
16.325,0
16.35,0
16.375,0
16.4,0
16.425,0
16.45,0
16.475,0
16.5,0
16.525,0
16.55,0
16.575,0
16.6,0
16.625,0
16.65,0
16.675,0
16.7,0
16.725,0
16.75,0
16.775,0
16.8,0
16.825,0
16.85,0
16.875,0
16.9,0
16.925,0
16.95,0
16.975,0
17,0
17.025,0
17.05,0
17.075,0
17.1,0
17.125,0
17.15,0
17.175,0
17.2,0.210112
17.225,0.57888
17.25,0.62176
17.275,0.724672
17.3,0.70752
17.325,0.716096
17.35,0.574592
17.375,0.853312
17.4,0.339136
17.425,0.411648
17.45,0.608896
17.475,0.570304
17.5,0.647488
17.525,0.435584
17.55,0
17.575,0
17.6,0
17.625,0
17.65,0
17.675,0
17.7,0
17.725,0
17.75,0
17.775,0
17.8,0
17.825,0
17.85,0
17.875,0
17.9,0
17.925,0
17.95,0
17.975,0
18,0
18.025,0
18.05,0
18.075,0
18.1,0
18.125,0
18.15,0
18.175,0
18.2,0
18.225,0
18.25,0
18.275,0
18.3,0
18.325,0
18.35,0
18.375,0
18.4,0
18.425,0
18.45,0
18.475,0
18.5,0
18.525,0
18.55,0
18.575,0
18.6,0
18.625,0
18.65,0
18.675,0
18.7,0
18.725,0
18.75,0
18.775,0
18.8,0
18.825,0
18.85,0
18.875,0
18.9,0
18.925,0
18.95,0
18.975,0
19,0
19.025,0
19.05,0
19.075,0
19.1,0
19.125,0
19.15,0
19.175,0
19.2,0
19.225,0
19.25,0
19.275,0
19.3,0
19.325,0
19.35,0
19.375,0
19.4,0
19.425,0
19.45,0
19.475,0
19.5,0
19.525,0.175808
19.55,0.656064
19.575,0.25728
19.6,0.763264
19.625,0.544576
19.65,0.295872
19.675,0.544576
19.7,0.317312
19.725,0.201536
19.75,0.373056
19.775,0.27872
19.8,0.411648
19.825,0.36448
19.85,0.36448
19.875,0.325888
19.9,0.394496
19.925,0.4288
19.95,0.325888
19.975,0.25728
20,0.433088
20.025,0.227264
20.05,0.058624
20.075,0
20.1,0
20.125,0
20.15,0
20.175,0
20.2,0
20.225,0
20.25,0
20.275,0
20.3,0
20.325,0
20.35,0
20.375,0
20.4,0
20.425,0
20.45,0
20.475,0
20.5,0
20.525,0
20.55,0
20.575,0
20.6,0
20.625,0
20.65,0
20.675,0
20.7,0
20.725,0
20.75,0
20.775,0
20.8,0
20.825,0
20.85,0
20.875,0
20.9,0
20.925,0
20.95,0
20.975,0
21,0
21.025,0
21.05,0
21.075,0
21.1,0
21.125,0
21.15,0
21.175,0
21.2,0
21.225,0
21.25,0
21.275,0
21.3,0
21.325,0
21.35,0
21.375,0
21.4,0
21.425,0
21.45,0
21.475,0
21.5,0
21.525,0
21.55,0
21.575,0
21.6,0
21.625,0
21.65,0
21.675,0
21.7,0
21.725,0
21.75,0
21.775,0
21.8,0
21.825,0
21.85,0
21.875,0
21.9,0
21.925,0
21.95,0
21.975,0
