host,value
192.168.2.5,0.937785
192.168.2.4,0.94072
192.168.2.3,2.25661
192.168.2.5,0.467147
192.168.2.4,0.488563
192.168.2.3,0.472631
192.168.2.4,0.42273
192.168.2.5,0.471649
192.168.2.3,0.630983
192.168.2.4,0.462518
192.168.2.5,0.470882
192.168.2.3,0.748544
192.168.2.4,0.492605
192.168.2.5,0.901036
192.168.2.3,0.607263
192.168.2.4,0.355295
192.168.2.5,0.549209
192.168.2.4,0.325619
192.168.2.3,0.94084
192.168.2.5,0.370625
192.168.2.4,0.469031
192.168.2.3,0.841574
192.168.2.5,0.459394
