time,value
2,0
2.025,0
2.05,0
2.075,0.047168
2.1,0.094336
2.125,0.201536
2.15,0.051456
2.175,0.317312
2.2,0.111488
2.225,0
2.25,0
2.275,0
2.3,1.04858
2.325,0.06432
2.35,0.227264
2.375,0.231552
2.4,0.218688
2.425,0.240128
2.45,0.463104
2.475,0.347328
2.5,0.274432
2.525,0.012864
2.55,0.231552
2.575,0.227264
2.6,0.098624
2.625,0
2.65,0.398784
2.675,0.411648
2.7,0.08576
2.725,0.158656
2.75,0.291584
2.775,0.381632
2.8,0.261568
2.825,0.265856
2.85,0.201536
2.875,0
2.9,0.536
2.925,0.077184
2.95,0.218688
2.975,0.180096
3,0.244416
3.025,0.3216
3.05,0.210112
3.075,0.381632
3.1,0.347328
3.125,0.377344
3.15,0.38592
3.175,0.360192
3.2,0.373056
3.225,0.317312
3.25,0.360192
3.275,0.40736
3.3,0.34304
3.325,0.38592
3.35,0.38592
3.375,0.317312
3.4,0.420224
3.425,0.381632
3.45,0.377344
3.475,0.390208
3.5,0.377344
3.525,0.403072
3.55,0.368768
3.575,0.351616
3.6,0.424512
3.625,0.373056
3.65,0.398784
3.675,0.325888
3.7,0.162944
3.725,0.38592
3.75,0.287296
3.775,0.287296
3.8,0.283008
3.825,0.265856
3.85,0.274432
3.875,0.283008
3.9,0.287296
3.925,0.27872
3.95,0.261568
3.975,0.304448
4,0.283008
4.025,0.27872
4.05,0.274432
4.075,0.261568
4.1,0.317312
4.125,0.274432
4.15,0.283008
4.175,0.304448
4.2,0.291584
4.225,0.25728
4.25,0.23584
4.275,0.30016
4.3,0.325888
4.325,0.261568
4.35,0.291584
4.375,0.295872
4.4,0.304448
4.425,0.265856
4.45,0.295872
4.475,0.30016
4.5,0.3216
4.525,0.313024
4.55,0.325888
4.575,0.231552
4.6,0.334464
4.625,0.317312
4.65,0.295872
4.675,0.291584
4.7,0.291584
4.725,0.313024
4.75,0.30016
4.775,0.304448
4.8,0.325888
4.825,0.295872
4.85,0.334464
4.875,0.313024
4.9,0.317312
4.925,0.210112
4.95,0.154368
4.975,0.261568
5,0.132928
5.025,0.210112
5.05,0.137216
5.075,0.252992
5.1,0.102912
5.125,0.17152
5.15,0.1072
5.175,0
5.2,0.274432
5.225,0.141504
5.25,0.047168
5.275,0.06432
5.3,0.111488
5.325,0.1072
5.35,0.090048
5.375,0.124352
5.4,0.132928
5.425,0
5.45,0.08576
5.475,0.1072
5.5,0.081472
5.525,0.102912
5.55,0.072896
5.575,0.111488
5.6,0.102912
5.625,0.1072
5.65,0.120064
5.675,0.098624
5.7,0.102912
5.725,0.115776
5.75,0.12864
5.775,0.12864
5.8,0.111488
5.825,0.111488
5.85,0.132928
5.875,0.132928
5.9,0.124352
5.925,0.137216
5.95,0.111488
5.975,0.145792
6,0.132928
6.025,0.137216
6.05,0.12864
6.075,0.12864
6.1,0.137216
6.125,0.137216
6.15,0.141504
6.175,0.132928
6.2,0.145792
6.225,0.145792
6.25,0.141504
6.275,0.15008
6.3,0.145792
6.325,0.15008
6.35,0.145792
6.375,0.145792
6.4,0.154368
6.425,0.137216
6.45,0.154368
6.475,0.137216
6.5,0.145792
6.525,0.15008
6.55,0.137216
6.575,0.15008
6.6,0.158656
6.625,0.145792
6.65,0.154368
6.675,0.154368
6.7,0.141504
6.725,0.141504
6.75,0.158656
6.775,0.15008
6.8,0.15008
6.825,0.158656
6.85,0.145792
6.875,0.145792
6.9,0.15008
6.925,0.141504
6.95,0.15008
6.975,0.158656
7,0.145792
7.025,0.145792
7.05,0.158656
7.075,0.15008
7.1,0.15008
7.125,0.145792
7.15,0.145792
7.175,0.145792
7.2,0.15008
7.225,0.154368
7.25,0.145792
7.275,0.154368
7.3,0.145792
7.325,0.15008
7.35,0.145792
7.375,0.15008
7.4,0.15008
7.425,0.15008
7.45,0.15008
7.475,0.077184
7.5,0.081472
7.525,0.124352
7.55,0.115776
7.575,0.077184
7.6,0.1072
7.625,0.1072
7.65,0.094336
7.675,0.102912
7.7,0.137216
7.725,0.120064
7.75,0.154368
7.775,0.102912
7.8,0.137216
7.825,0.12864
7.85,0.15008
7.875,0.090048
7.9,0.132928
7.925,0.141504
7.95,0.15008
7.975,0.141504
8,0.141504
8.025,0.120064
8.05,0.137216
8.075,0.137216
8.1,0.15008
8.125,0.111488
8.15,0.12864
8.175,0.068608
8.2,0.090048
8.225,0.051456
8.25,0.094336
8.275,0.077184
8.3,0.08576
8.325,0.098624
8.35,0.102912
8.375,0.102912
8.4,0.090048
8.425,0.1072
8.45,0.120064
8.475,0.115776
8.5,0.102912
8.525,0.120064
8.55,0.077184
8.575,0.060032
8.6,0.072896
8.625,0.068608
8.65,0.081472
8.675,0.077184
8.7,0.08576
8.725,0.090048
8.75,0.072896
8.775,0.08576
8.8,0.08576
8.825,0.102912
8.85,0.098624
8.875,0.102912
8.9,0.102912
8.925,0.098624
8.95,0.098624
8.975,0.098624
9,0.098624
9.025,0.098624
9.05,0.1072
9.075,0.1072
9.1,0.1072
9.125,0.102912
9.15,0.094336
9.175,0.1072
9.2,0.1072
9.225,0.102912
9.25,0.1072
9.275,0.094336
9.3,0.1072
9.325,0.102912
9.35,0.111488
9.375,0.102912
9.4,0.1072
9.425,0.111488
9.45,0.111488
9.475,0.1072
9.5,0.111488
9.525,0.111488
9.55,0.115776
9.575,0.102912
9.6,0.111488
9.625,0.111488
9.65,0.111488
9.675,0.111488
9.7,0.068608
9.725,0.08576
9.75,0.094336
9.775,0.06432
9.8,0.098624
9.825,0.055744
9.85,0.081472
9.875,0.077184
9.9,0.06432
9.925,0.090048
9.95,0.1072
9.975,0.102912
10,0.1072
10.025,0.102912
10.05,0.111488
10.075,0.111488
10.1,0.115776
10.125,0.111488
10.15,0.1072
10.175,0.102912
10.2,0.111488
10.225,0.111488
10.25,0.111488
10.275,0.111488
10.3,0.111488
10.325,0.1072
10.35,0.111488
10.375,0.111488
10.4,0.115776
10.425,0.111488
10.45,0.115776
10.475,0.115776
10.5,0.120064
10.525,0.111488
10.55,0.111488
10.575,0.115776
10.6,0.111488
10.625,0.1072
10.65,0.115776
10.675,0.102912
10.7,0.102912
10.725,0.1072
10.75,0.098624
10.775,0.102912
10.8,0.077184
10.825,0.102912
10.85,0.081472
10.875,0.098624
10.9,0.081472
10.925,0.098624
10.95,0.094336
10.975,0.094336
11,0.08576
11.025,0.090048
11.05,0.094336
11.075,0.090048
11.1,0.081472
11.125,0.098624
11.15,0.090048
11.175,0.098624
11.2,0.077184
11.225,0.077184
11.25,0.094336
11.275,0.111488
11.3,0.1072
11.325,0.094336
11.35,0.090048
11.375,0.055744
11.4,0.077184
11.425,0.077184
11.45,0.077184
11.475,0.081472
11.5,0.08576
11.525,0.08576
11.55,0.090048
11.575,0.08576
11.6,0.094336
11.625,0.090048
11.65,0.094336
11.675,0.094336
11.7,0.094336
11.725,0.094336
11.75,0.094336
11.775,0.090048
11.8,0.098624
11.825,0.102912
11.85,0.098624
11.875,0.098624
11.9,0.102912
11.925,0.094336
11.95,0.08576
11.975,0.060032
12,0.047168
12.025,0.077184
12.05,0.077184
12.075,0.094336
12.1,0.04288
12.125,0.068608
12.15,0.081472
12.175,0.098624
12.2,0.102912
12.225,0.102912
12.25,0.102912
12.275,0.1072
12.3,0.115776
12.325,0.1072
12.35,0.111488
12.375,0.102912
12.4,0.115776
12.425,0.111488
12.45,0.102912
12.475,0.111488
12.5,0.111488
12.525,0.111488
12.55,0.1072
12.575,0.111488
12.6,0.111488
12.625,0.115776
12.65,0.111488
12.675,0.1072
12.7,0.115776
12.725,0.115776
12.75,0.115776
12.775,0.115776
12.8,0.115776
12.825,0.111488
12.85,0.111488
12.875,0.115776
12.9,0.115776
12.925,0.120064
12.95,0.111488
12.975,0.115776
13,0.115776
13.025,0.111488
13.05,0.12864
13.075,0.120064
13.1,0.115776
13.125,0.115776
13.15,0.120064
13.175,0.120064
13.2,0.120064
13.225,0.111488
13.25,0.098624
13.275,0.111488
13.3,0.102912
13.325,0.102912
13.35,0.115776
13.375,0.102912
13.4,0.098624
13.425,0.102912
13.45,0.102912
13.475,0.098624
13.5,0.072896
13.525,0.08576
13.55,0.098624
13.575,0.098624
13.6,0.08576
13.625,0.077184
13.65,0.102912
13.675,0.102912
13.7,0.094336
13.725,0.08576
13.75,0.102912
13.775,0.102912
13.8,0.1072
13.825,0.111488
13.85,0.08576
13.875,0.120064
13.9,0.102912
13.925,0.115776
13.95,0.120064
13.975,0.124352
14,0.115776
14.025,0.111488
14.05,0.120064
14.075,0.12864
14.1,0.115776
14.125,0.111488
14.15,0.120064
14.175,0.072896
14.2,0.094336
14.225,0.102912
14.25,0.081472
14.275,0.072896
14.3,0.090048
14.325,0.077184
14.35,0.111488
14.375,0.060032
14.4,0.08576
14.425,0.111488
14.45,0.111488
14.475,0.120064
14.5,0.115776
14.525,0.120064
14.55,0.120064
14.575,0.120064
14.6,0.124352
14.625,0.120064
14.65,0.120064
14.675,0.124352
14.7,0.120064
14.725,0.115776
14.75,0.120064
14.775,0.120064
14.8,0.120064
14.825,0.120064
14.85,0.120064
14.875,0.120064
14.9,0.120064
14.925,0.120064
14.95,0.124352
14.975,0.111488
15,0.124352
15.025,0.115776
15.05,0.111488
15.075,0.120064
15.1,0.124352
15.125,0.1072
15.15,0.120064
15.175,0.111488
15.2,0.124352
15.225,0.120064
15.25,0.124352
15.275,0.120064
15.3,0.111488
15.325,0.124352
15.35,0.12864
15.375,0.12864
15.4,0.124352
15.425,0.124352
15.45,0.124352
15.475,0.124352
15.5,0.12864
15.525,0.124352
15.55,0.124352
15.575,0.115776
15.6,0.12864
15.625,0.124352
15.65,0.12864
15.675,0.120064
15.7,0.120064
15.725,0.12864
15.75,0.124352
15.775,0.098624
15.8,0.120064
15.825,0.1072
15.85,0.115776
15.875,0.111488
15.9,0.102912
15.925,0.1072
15.95,0.012864
15.975,0.098624
16,0
16.025,0.145792
16.05,0.060032
16.075,0.072896
16.1,0.06432
16.125,0.038592
16.15,0.081472
16.175,0.047168
16.2,0.08576
16.225,0.090048
16.25,0.094336
16.275,0.098624
16.3,0.068608
16.325,0.094336
16.35,0.094336
16.375,0.098624
16.4,0.098624
16.425,0.072896
16.45,0.038592
16.475,0.081472
16.5,0.004288
16.525,0.060032
16.55,0.055744
16.575,0.04288
16.6,0.051456
16.625,0.068608
16.65,0.025728
16.675,0.06432
16.7,0.068608
16.725,0.051456
16.75,0.072896
16.775,0.08576
16.8,0.08576
16.825,0.08576
16.85,0.081472
16.875,0.081472
16.9,0.08576
16.925,0.081472
16.95,0.081472
16.975,0.08576
17,0.081472
17.025,0.08576
17.05,0.081472
17.075,0.08576
17.1,0.094336
17.125,0.08576
17.15,0.090048
17.175,0.090048
17.2,0.08576
17.225,0.090048
17.25,0.081472
17.275,0.08576
17.3,0.090048
17.325,0.090048
17.35,0.090048
17.375,0.090048
17.4,0.090048
17.425,0.090048
17.45,0.08576
17.475,0.090048
17.5,0.090048
17.525,0.090048
17.55,0.090048
17.575,0.08576
17.6,0.090048
17.625,0.090048
17.65,0.090048
17.675,0.090048
17.7,0.094336
17.725,0.08576
17.75,0.094336
17.775,0.094336
17.8,0.094336
17.825,0.098624
17.85,0.090048
17.875,0.094336
17.9,0.094336
17.925,0.094336
17.95,0.090048
17.975,0.090048
18,0.094336
18.025,0.094336
18.05,0.094336
18.075,0.098624
18.1,0.090048
18.125,0.094336
18.15,0.094336
18.175,0.094336
18.2,0.060032
18.225,0.077184
18.25,0.077184
18.275,0.060032
18.3,0.068608
18.325,0.090048
18.35,0.077184
18.375,0.072896
18.4,0.051456
18.425,0.090048
18.45,0.081472
18.475,0.072896
18.5,0.090048
18.525,0.094336
18.55,0.08576
18.575,0.098624
18.6,0.094336
18.625,0.090048
18.65,0.098624
18.675,0.090048
18.7,0.077184
18.725,0.077184
18.75,0.055744
18.775,0.034304
18.8,0.068608
18.825,0.055744
18.85,0.055744
18.875,0.077184
18.9,0.068608
18.925,0.051456
18.95,0.055744
18.975,0.06432
19,0.08576
19.025,0.06432
19.05,0.081472
19.075,0.08576
19.1,0.08576
19.125,0.094336
19.15,0.081472
19.175,0.081472
19.2,0.094336
19.225,0.090048
19.25,0.090048
19.275,0.081472
19.3,0.094336
19.325,0.08576
19.35,0.077184
19.375,0.081472
19.4,0.090048
19.425,0.08576
19.45,0.090048
19.475,0.081472
19.5,0.098624
19.525,0.090048
19.55,0.098624
19.575,0.094336
19.6,0.094336
19.625,0.094336
19.65,0.090048
19.675,0.098624
19.7,0.094336
19.725,0.098624
19.75,0.090048
19.775,0.098624
19.8,0.090048
19.825,0.098624
19.85,0.094336
19.875,0.094336
19.9,0.094336
19.925,0.094336
19.95,0.094336
19.975,0.094336
20,0.094336
20.025,0.094336
20.05,0.098624
20.075,0.098624
20.1,0.098624
20.125,0.098624
20.15,0.098624
20.175,0.098624
20.2,0.102912
20.225,0.098624
20.25,0.102912
20.275,0.102912
20.3,0.098624
20.325,0.102912
20.35,0.098624
20.375,0.098624
20.4,0.102912
20.425,0.1072
20.45,0.102912
20.475,0.081472
20.5,0.08576
20.525,0.08576
20.55,0.077184
20.575,0.068608
20.6,0.090048
20.625,0.094336
20.65,0.068608
20.675,0.077184
20.7,0.077184
20.725,0.098624
20.75,0.1072
20.775,0.120064
20.8,0.115776
20.825,0.120064
20.85,0.111488
20.875,0.115776
20.9,0.115776
20.925,0.124352
20.95,0.120064
20.975,0.124352
21,0.115776
21.025,0.102912
21.05,0.077184
21.075,0.060032
21.1,0.094336
21.125,0.090048
21.15,0.115776
21.175,0.094336
21.2,0.094336
21.225,0.120064
21.25,0.1072
21.275,0.094336
21.3,0.132928
21.325,0.137216
21.35,0.141504
21.375,0.137216
21.4,0.145792
21.425,0.141504
21.45,0.111488
21.475,0.145792
21.5,0.137216
21.525,0.124352
21.55,0.15008
21.575,0.137216
21.6,0.137216
21.625,0.124352
21.65,0.137216
21.675,0.141504
21.7,0.120064
21.725,0.162944
21.75,0.141504
21.775,0.145792
21.8,0.145792
21.825,0.145792
21.85,0.145792
21.875,0.15008
21.9,0.158656
21.925,0.162944
21.95,0.180096
21.975,0.184384
