time,value
2,0
2.025,0
2.05,0.04288
2.075,0.077184
2.1,0.154368
2.125,0.244416
2.15,0.360192
2.175,0.360192
2.2,0.287296
2.225,0.265856
2.25,0.244416
2.275,0.257728
2.3,0.077056
2.325,0
2.35,0
2.375,0
2.4,1.03392
2.425,0.014656
2.45,0
2.475,0
2.5,0
2.525,0
2.55,0
2.575,0
2.6,0
2.625,0
2.65,0
2.675,0
2.7,0
2.725,0
2.75,0
2.775,0
2.8,0
2.825,0
2.85,0
2.875,0
2.9,0
2.925,0
2.95,0
2.975,0
3,0
3.025,0
3.05,0
3.075,0
3.1,0
3.125,0
3.15,0
3.175,0
3.2,0
3.225,0
3.25,0
3.275,0
3.3,0
3.325,0
3.35,0
3.375,0
3.4,0
3.425,0
3.45,0.004288
3.475,0
3.5,0
3.525,0
3.55,0
3.575,0
3.6,0
3.625,0
3.65,0
3.675,0.004288
3.7,0
3.725,0.004288
3.75,0
3.775,0.004288
3.8,0.004288
3.825,0
3.85,0.004288
3.875,0
3.9,0.004288
3.925,0
3.95,0.004288
3.975,0.004288
4,0
4.025,0.004288
4.05,0.004288
4.075,0.004288
4.1,0.004288
4.125,0.004288
4.15,0.004288
4.175,0.004288
4.2,0.004288
4.225,0.004288
4.25,0.008576
4.275,0.004288
4.3,0.004288
4.325,0.008576
4.35,0.004288
4.375,0.004288
4.4,0.008576
4.425,0.004288
4.45,0.008576
4.475,0.008576
4.5,0.012864
4.525,0.008576
4.55,0.012864
4.575,0.012864
4.6,0.008576
4.625,0.012864
4.65,0.017152
4.675,0.017152
4.7,0.02144
4.725,0.017152
4.75,0.02144
4.775,0.02144
4.8,0.02144
4.825,0.02144
4.85,0.02144
4.875,0.030016
4.9,0.012864
4.925,0.025728
4.95,0.02144
4.975,0.017152
5,0.030016
5.025,0.025728
5.05,0.025728
5.075,0.030016
5.1,0.038592
5.125,0.038592
5.15,0.047168
5.175,0.034304
5.2,0.04288
5.225,0.047168
5.25,0.047168
5.275,0.055744
5.3,0.051456
5.325,0.055744
5.35,0.04288
5.375,0.055744
5.4,0.060032
5.425,0.060032
5.45,0.047168
5.475,0.090048
5.5,0.08576
5.525,0.090048
5.55,0.08576
5.575,0.077184
5.6,0.1072
5.625,0.1072
5.65,0.102912
5.675,0.1072
5.7,0.124352
5.725,0.12864
5.75,0.15008
5.775,0.158656
5.8,0.167232
5.825,0.175808
5.85,0.19296
5.875,0.19296
5.9,0.201536
5.925,0.205824
5.95,0.222976
5.975,0.252992
6,0.240128
6.025,0.25728
6.05,0.30016
6.075,0.291584
6.1,0.317312
6.125,0.325888
6.15,0.334464
6.175,0.36448
6.2,0.390208
6.225,0.4288
6.25,0.433088
6.275,0.420224
6.3,0.458816
6.325,0.484544
6.35,0.527424
6.375,0.553152
6.4,0.548864
6.425,0.540288
6.45,0.596032
6.475,0.668928
6.5,0.68608
6.525,0.711808
6.55,0.737536
6.575,0.780416
6.6,0.788992
6.625,0.83616
6.65,0.810432
6.675,0.810432
6.7,0.83616
6.725,0.883328
6.75,0.883328
6.775,0.83456
6.8,0.897216
6.825,0.835904
6.85,0.887488
6.875,0.858048
6.9,0.855808
6.925,0.156608
6.95,1.04282
6.975,0.673216
7,0.849024
7.025,0.913344
7.05,0.102912
7.075,1.0455
7.1,0.398784
7.125,0.40736
7.15,0.527424
7.175,0
7.2,0.698944
7.225,0.360192
7.25,0.115776
7.275,0.252992
7.3,0.270144
7.325,0.351616
7.35,0.3216
7.375,0.313024
7.4,0.330176
7.425,0.252992
7.45,0.317312
7.475,0.351616
7.5,0.287296
7.525,0.330176
7.55,0.252992
7.575,0.291584
7.6,0.330176
7.625,0.252992
7.65,0.317312
7.675,0.261568
7.7,0.270144
7.725,0.261568
7.75,0.248704
7.775,0.252992
7.8,0.325888
7.825,0.317312
7.85,0.360192
7.875,0.270144
7.9,0.347328
7.925,0.291584
7.95,0.368768
7.975,0.34304
8,0.390208
8.025,0.377344
8.05,0.360192
8.075,0.38592
8.1,0.3216
8.125,0.445952
8.15,0.411648
8.175,0.394496
8.2,0.394496
8.225,0.38592
8.25,0.415936
8.275,0.433088
8.3,0.454528
8.325,0.4288
8.35,0.4288
8.375,0.252992
8.4,0.548864
8.425,0.274432
8.45,0.304448
8.475,0.304448
8.5,0.3216
8.525,0.308736
8.55,0.330176
8.575,0.325888
8.6,0.3216
8.625,0.313024
8.65,0.3216
8.675,0.334464
8.7,0.313024
8.725,0.330176
8.75,0.334464
8.775,0.317312
8.8,0.351616
8.825,0.338752
8.85,0.313024
8.875,0.3216
8.9,0.355904
8.925,0.338752
8.95,0.325888
8.975,0.368768
9,0.313024
9.025,0.351616
9.05,0.325888
9.075,0.351616
9.1,0.34304
9.125,0.330176
9.15,0.325888
9.175,0.27872
9.2,0.360192
9.225,0.360192
9.25,0.360192
9.275,0.334464
9.3,0.360192
9.325,0.360192
9.35,0.351616
9.375,0.330176
9.4,0.373056
9.425,0.338752
9.45,0.283008
9.475,0.205824
9.5,0.27872
9.525,0.248704
9.55,0.317312
9.575,0.313024
9.6,0.274432
9.625,0.158656
9.65,0.274432
9.675,0.317312
9.7,0.218688
9.725,0.313024
9.75,0.3216
9.775,0.240128
9.8,0.25728
9.825,0.30016
9.85,0.210112
9.875,0.19296
9.9,0.248704
9.925,0.347328
9.95,0.25728
9.975,0.291584
10,0.283008
10.025,0.317312
10.05,0.248704
10.075,0.355904
10.1,0.351616
10.125,0.38592
10.15,0.36448
10.175,0.304448
10.2,0.3216
10.225,0.325888
10.25,0.36448
10.275,0.377344
10.3,0.360192
10.325,0.283008
10.35,0.304448
10.375,0.377344
10.4,0.34304
10.425,0.368768
10.45,0.317312
10.475,0.338752
10.5,0.360192
10.525,0.27872
10.55,0.36448
10.575,0.283008
10.6,0.248704
10.625,0.394496
10.65,0.38592
10.675,0.347328
10.7,0.394496
10.725,0.36448
10.75,0.355904
10.775,0.40736
10.8,0.351616
10.825,0.390208
10.85,0.38592
10.875,0.360192
10.9,0.38592
10.925,0.394496
10.95,0.373056
10.975,0.270144
11,0.351616
11.025,0.394496
11.05,0.38592
11.075,0.38592
11.1,0.377344
11.125,0.334464
11.15,0.403072
11.175,0.360192
11.2,0.283008
11.225,0.188672
11.25,0.38592
11.275,0.368768
11.3,0.360192
11.325,0.360192
11.35,0.398784
11.375,0.390208
11.4,0.377344
11.425,0.355904
11.45,0.3216
11.475,0.38592
11.5,0.295872
11.525,0.334464
11.55,0.394496
11.575,0.381632
11.6,0.394496
11.625,0.36448
11.65,0.36448
11.675,0.38592
11.7,0.38592
11.725,0.30016
11.75,0.313024
11.775,0.274432
11.8,0.115776
11.825,0.304448
11.85,0.240128
11.875,0.205824
11.9,0.201536
11.925,0.27872
11.95,0.231552
11.975,0.295872
12,0.330176
12.025,0.381632
12.05,0.373056
12.075,0.330176
12.1,0.248704
12.125,0.334464
12.15,0.283008
12.175,0.355904
12.2,0.291584
12.225,0.347328
12.25,0.188672
12.275,0.368768
12.3,0.3216
12.325,0.283008
12.35,0.291584
12.375,0.313024
12.4,0.270144
12.425,0.265856
12.45,0.141504
12.475,0.373056
12.5,0.274432
12.525,0.244416
12.55,0.287296
12.575,0.27872
12.6,0.287296
12.625,0.25728
12.65,0.184384
12.675,0.19296
12.7,0.27872
12.725,0.261568
12.75,0.210112
12.775,0.188672
12.8,0.261568
12.825,0.261568
12.85,0.252992
12.875,0.2144
12.9,0.222976
12.925,0.218688
12.95,0.295872
12.975,0.308736
13,0.27872
13.025,0.313024
13.05,0.325888
13.075,0.313024
13.1,0.330176
13.125,0.283008
13.15,0.3216
13.175,0.317312
13.2,0.308736
13.225,0.334464
13.25,0.325888
13.275,0.317312
13.3,0.3216
13.325,0.34304
13.35,0.308736
13.375,0.3216
13.4,0.317312
13.425,0.338752
13.45,0.351616
13.475,0.313024
13.5,0.351616
13.525,0.338752
13.55,0.3216
13.575,0.330176
13.6,0.330176
13.625,0.355904
13.65,0.338752
13.675,0.338752
13.7,0.351616
13.725,0.287296
13.75,0.36448
13.775,0.347328
13.8,0.347328
13.825,0.338752
13.85,0.338752
13.875,0.338752
13.9,0.338752
13.925,0.360192
13.95,0.3216
13.975,0.381632
14,0.201536
14.025,0.313024
14.05,0.244416
14.075,0.197248
14.1,0.180096
14.125,0.27872
14.15,0.227264
14.175,0.175808
14.2,0.27872
14.225,0.27872
14.25,0.197248
14.275,0.295872
14.3,0.360192
14.325,0.330176
14.35,0.3216
14.375,0.355904
14.4,0.38592
14.425,0.23584
14.45,0.201536
14.475,0.334464
14.5,0.283008
14.525,0.283008
14.55,0.295872
14.575,0.3216
14.6,0.313024
14.625,0.317312
14.65,0.338752
14.675,0.355904
14.7,0.274432
14.725,0.34304
14.75,0.34304
14.775,0.338752
14.8,0.317312
14.825,0.338752
14.85,0.231552
14.875,0.381632
14.9,0.244416
14.925,0.261568
14.95,0.188672
14.975,0.205824
15,0.222976
15.025,0.240128
15.05,0.184384
15.075,0.15008
15.1,0.19296
15.125,0.19296
15.15,0.184384
15.175,0.145792
15.2,0.27872
15.225,0.2144
15.25,0.274432
15.275,0.287296
15.3,0.270144
15.325,0.287296
15.35,0.291584
15.375,0.274432
15.4,0.261568
15.425,0.27872
15.45,0.252992
15.475,0.287296
15.5,0.287296
15.525,0.30016
15.55,0.27872
15.575,0.261568
15.6,0.291584
15.625,0.283008
15.65,0.308736
15.675,0.283008
15.7,0.283008
15.725,0.30016
15.75,0.141504
15.775,0.34304
15.8,0.218688
15.825,0.210112
15.85,0.205824
15.875,0.2144
15.9,0.2144
15.925,0.2144
15.95,0.222976
15.975,0.2144
16,0.222976
16.025,0.218688
16.05,0.205824
16.075,0.218688
16.1,0.218688
16.125,0.222976
16.15,0.218688
16.175,0.23584
16.2,0.218688
16.225,0.227264
16.25,0.222976
16.275,0.12864
16.3,0.19296
16.325,0.141504
16.35,0.162944
16.375,0.132928
16.4,0.162944
16.425,0.162944
16.45,0.154368
16.475,0.19296
16.5,0.162944
16.525,0.188672
16.55,0.201536
16.575,0.218688
16.6,0.231552
16.625,0.240128
16.65,0.23584
16.675,0.231552
16.7,0.244416
16.725,0.218688
16.75,0.222976
16.775,0.222976
16.8,0.2144
16.825,0.227264
16.85,0.12864
16.875,0.205824
16.9,0.205824
16.925,0.218688
16.95,0.205824
16.975,0.201536
17,0.2144
17.025,0.222976
17.05,0.231552
17.075,0.188672
17.1,0.188672
17.125,0.04288
17.15,0.295872
17.175,0.167232
17.2,0.158656
17.225,0.102912
17.25,0.111488
17.275,0.154368
17.3,0.115776
17.325,0.1072
17.35,0.120064
17.375,0.120064
17.4,0.137216
17.425,0.094336
17.45,0.120064
17.475,0.180096
17.5,0.184384
17.525,0.184384
17.55,0.180096
17.575,0.167232
17.6,0.188672
17.625,0.19296
17.65,0.184384
17.675,0.180096
17.7,0.188672
17.725,0.180096
17.75,0.184384
17.775,0.180096
17.8,0.201536
17.825,0.19296
17.85,0.197248
17.875,0.17152
17.9,0.184384
17.925,0.2144
17.95,0.175808
17.975,0.201536
18,0.19296
18.025,0.197248
18.05,0.197248
18.075,0.17152
18.1,0.19296
18.125,0.197248
18.15,0.201536
18.175,0.184384
18.2,0.197248
18.225,0.19296
18.25,0.210112
18.275,0.205824
18.3,0.19296
18.325,0.162944
18.35,0.201536
18.375,0.201536
18.4,0.210112
18.425,0.19296
18.45,0.184384
18.475,0.2144
18.5,0.205824
18.525,0.188672
18.55,0.158656
18.575,0.175808
18.6,0.137216
18.625,0.1072
18.65,0.137216
18.675,0.158656
18.7,0.120064
18.725,0.120064
18.75,0.145792
18.775,0.111488
18.8,0.145792
18.825,0.180096
18.85,0.115776
18.875,0.154368
18.9,0.145792
18.925,0.158656
18.95,0.154368
18.975,0.145792
19,0.162944
19.025,0.154368
19.05,0.15008
19.075,0.167232
19.1,0.158656
19.125,0.154368
19.15,0.154368
19.175,0.162944
19.2,0.154368
19.225,0.141504
19.25,0.132928
19.275,0.12864
19.3,0.141504
19.325,0.120064
19.35,0.158656
19.375,0.15008
19.4,0.141504
19.425,0.115776
19.45,0.154368
19.475,0.137216
19.5,0.124352
19.525,0.072896
19.55,0.124352
19.575,0.132928
19.6,0.08576
19.625,0.12864
19.65,0.098624
19.675,0.111488
19.7,0.120064
19.725,0.1072
19.75,0.098624
19.775,0.132928
19.8,0.167232
19.825,0.132928
19.85,0.188672
19.875,0.19296
19.9,0.19296
19.925,0.175808
19.95,0.180096
19.975,0.197248
20,0.19296
20.025,0.184384
20.05,0.180096
20.075,0.19296
20.1,0.205824
20.125,0.197248
20.15,0.197248
20.175,0.19296
20.2,0.180096
20.225,0.201536
20.25,0.205824
20.275,0.197248
20.3,0.197248
20.325,0.197248
20.35,0.197248
20.375,0.201536
20.4,0.201536
20.425,0.210112
20.45,0.197248
20.475,0.197248
20.5,0.201536
20.525,0.19296
20.55,0.180096
20.575,0.201536
20.6,0.205824
20.625,0.197248
20.65,0.19296
20.675,0.210112
20.7,0.2144
20.725,0.205824
20.75,0.197248
20.775,0.197248
20.8,0.210112
20.825,0.19296
20.85,0.038592
20.875,0.15008
20.9,0.115776
20.925,0.158656
20.95,0.12864
20.975,0.132928
21,0.132928
21.025,0.154368
21.05,0.197248
21.075,0.15008
21.1,0.201536
21.125,0.197248
21.15,0.201536
21.175,0.218688
21.2,0.197248
21.225,0.205824
21.25,0.2144
21.275,0.205824
21.3,0.205824
21.325,0.210112
21.35,0.19296
21.375,0.197248
21.4,0.19296
21.425,0.218688
21.45,0.201536
21.475,0.218688
21.5,0.205824
21.525,0.205824
21.55,0.2144
21.575,0.201536
21.6,0.205824
21.625,0.2144
21.65,0.201536
21.675,0.218688
21.7,0.162944
21.725,0.19296
21.75,0.167232
21.775,0.184384
21.8,0.158656
21.825,0.180096
21.85,0.08576
21.875,0.12864
21.9,0.137216
21.925,0.102912
21.95,0.1072
21.975,0.102912
