time,value
2,0
2.025,0
2.05,0.04288
2.075,0.060032
2.1,0.094336
2.125,0.158656
2.15,0.2144
2.175,0.3216
2.2,0.1072
2.225,0.505984
2.25,0.270144
2.275,0.261568
2.3,0.240128
2.325,0.231552
2.35,0.261568
2.375,0.02144
2.4,0
2.425,0
2.45,0
2.475,0.94016
2.5,0.098496
2.525,0
2.55,0.312256
2.575,0.184384
2.6,0.162944
2.625,0.252992
2.65,0.240128
2.675,0.252992
2.7,0.240128
2.725,0.098624
2.75,0
2.775,0
2.8,1.04454
2.825,0.012864
2.85,0.270144
2.875,0.304448
2.9,0.261568
2.925,0.261568
2.95,0.051456
2.975,0
3,0.49312
3.025,0.49312
3.05,0.205248
3.075,0.072896
3.1,0.201536
3.125,0.681792
3.15,0.411648
3.175,0.355904
3.2,0.360192
3.225,0.368768
3.25,0.424512
3.275,0.4288
3.3,0.441664
3.325,0.445952
3.35,0.523136
3.375,0.553152
3.4,0.51456
3.425,0.55744
3.45,0.57888
3.475,0.252992
3.5,0.94336
3.525,0.332416
3.55,0.548864
3.575,0.617472
3.6,0.57888
3.625,0.596032
3.65,0.57888
3.675,0.583168
3.7,0.570304
3.725,0.454528
3.75,0.716096
3.775,0.325888
3.8,0.49312
3.825,0.227264
3.85,0.536
3.875,0.561728
3.9,0.51456
3.925,0.244416
3.95,0.70752
3.975,0.355904
4,0.458816
4.025,0.433088
4.05,0.488832
4.075,0.454528
4.1,0.458816
4.125,0.360192
4.15,0.424512
4.175,0.420224
4.2,0.40736
4.225,0.355904
4.25,0
4.275,0.737536
4.3,0.25728
4.325,0.338752
4.35,0.360192
4.375,0.308736
4.4,0.3216
4.425,0.360192
4.45,0.4288
4.475,0.304448
4.5,0.30016
4.525,0.36448
4.55,0.373056
4.575,0.351616
4.6,0.445952
4.625,0.415936
4.65,0.381632
4.675,0.424512
4.7,0.497408
4.725,0.325888
4.75,0.703232
4.775,0.34304
4.8,0.381696
4.825,0.463104
4.85,0.501696
4.875,0.4288
4.9,0.467392
4.925,0.651776
4.95,0.420224
4.975,0.308736
5,0.283008
5.025,0.287296
5.05,0.283008
5.075,0.077184
5.1,0
5.125,0.776128
5.15,0.188672
5.175,0.313024
5.2,0.330176
5.225,0.274432
5.25,0.295872
5.275,0.283008
5.3,0.325888
5.325,0.090048
5.35,0
5.375,0.7504
5.4,0.162944
5.425,0.45024
5.45,0.317312
5.475,0.291584
5.5,0.2144
5.525,0.27872
5.55,0.291584
5.575,0.287296
5.6,0.317312
5.625,0.25728
5.65,0.381632
5.675,0.497408
5.7,0.51456
5.725,0.463104
5.75,0.424512
5.775,0.420224
5.8,0.420224
5.825,0.433088
5.85,0.458816
5.875,0.458816
5.9,0.355904
5.925,0.47168
5.95,0.437376
5.975,0.445952
6,0.62176
6.025,0.102912
6.05,0.746112
6.075,0.360192
6.1,0.411648
6.125,0.454528
6.15,0.420224
6.175,0.415936
6.2,0.40736
6.225,0.441664
6.25,0.441664
6.275,0.403072
6.3,0.47168
6.325,0.398784
6.35,0.441664
6.375,0.437376
6.4,0.398784
6.425,0.458816
6.45,0.433088
6.475,0.45024
6.5,0.420224
6.525,0.441664
6.55,0.480256
6.575,0.608896
6.6,0.497408
6.625,0.484544
6.65,0.433088
6.675,0.501696
6.7,0.523136
6.725,0.390208
6.75,0.566016
6.775,0.437376
6.8,0.420224
6.825,0.475968
6.85,0.540288
6.875,0.484544
6.9,0.527424
6.925,0.527424
6.95,0.497408
6.975,0.570304
7,0.566016
7.025,0.566016
7.05,0.668928
7.075,0.527424
7.1,0.570304
7.125,0.566016
7.15,0.57024
7.175,0.337088
7.2,0
7.225,1.06362
7.25,0.587456
7.275,0.737536
7.3,0.570304
7.325,0.124352
7.35,0.806144
7.375,0.24992
7.4,0.30016
7.425,0.60032
7.45,0.553152
7.475,0.617472
7.5,0.690368
7.525,0.647488
7.55,0.574592
7.575,0.608896
7.6,0.737536
7.625,0.304448
7.65,0.34304
7.675,0.27872
7.7,0.295872
7.725,0.30016
7.75,0
7.775,0
7.8,0.870464
7.825,0.178112
7.85,0.248704
7.875,0.381632
7.9,0.415936
7.925,0.308736
7.95,0.283008
7.975,0.283008
8,0.287296
8.025,0.072896
8.05,0
8.075,0.887616
8.1,0.225728
8.125,0.077184
8.15,0.445952
8.175,0.12864
8.2,0.304448
8.225,0.295872
8.25,0.283008
8.275,0.291584
8.3,0.454528
8.325,0.454528
8.35,0.57888
8.375,0.437376
8.4,0.531712
8.425,0.501696
8.45,0.36448
8.475,0.184384
8.5,0.566016
8.525,0.394496
8.55,0.484544
8.575,0.36448
8.6,0.458816
8.625,0.420224
8.65,0.411648
8.675,0.373056
8.7,0.437376
8.725,0.463104
8.75,0.51456
8.775,0.55744
8.8,0.651776
8.825,0.673216
8.85,0.703232
8.875,0.79328
8.9,0.531712
8.925,0.887616
8.95,0.801856
8.975,0.8576
9,0.861888
9.025,0.876736
9.05,0.898816
9.075,0.858944
9.1,0.867584
9.125,0.833856
9.15,0.885504
9.175,0.307776
9.2,1.04685
9.225,0.45024
9.25,0.772096
9.275,0.773376
9.3,0.786624
9.325,0.638976
9.35,0.74272
9.375,0.641152
9.4,0.6848
9.425,0.611648
9.45,0.607616
9.475,0.34208
9.5,0
9.525,1.04646
9.55,0.283008
9.575,0.544576
9.6,0.570304
9.625,0.566016
9.65,0.570304
9.675,0.566016
9.7,0.081472
9.725,1.04538
9.75,0.090048
9.775,0.544576
9.8,0.904768
9.825,0.720384
9.85,0.733248
9.875,0.531712
9.9,0.690368
9.925,0.87904
9.95,0.694656
9.975,0.626048
10,0.480256
10.025,0
10.05,1.04704
10.075,0.596032
10.1,0.716096
10.125,0.763264
10.15,0.698944
10.175,0.660352
10.2,0.694656
10.225,0.673216
10.25,0.480256
10.275,0.411648
10.3,0.283008
10.325,0.287296
10.35,0.283008
10.375,0.055744
10.4,0
10.425,0
10.45,0.677504
10.475,0.42176
10.5,0.184384
10.525,0.102912
10.55,0.137216
10.575,0.536
10.6,0.347328
10.625,0.218688
10.65,0.424512
10.675,0.248704
10.7,0.415936
10.725,0.377344
10.75,0.252992
10.775,0.098624
10.8,0
10.825,0.591744
10.85,0.068608
10.875,0.167232
10.9,0.265856
10.925,0.261568
10.95,0.248704
10.975,0.291584
11,0.252992
11.025,0.240128
11.05,0.295872
11.075,0.3216
11.1,0.411648
11.125,0.424512
11.15,0.351616
11.175,0.325888
11.2,0.420224
11.225,0.38592
11.25,0.355904
11.275,0.433088
11.3,0.381632
11.325,0.424512
11.35,0.051456
11.375,0.720384
11.4,0.38592
11.425,0.49312
11.45,0.424512
11.475,0.458816
11.5,0.463104
11.525,0.475968
11.55,0.467392
11.575,0.377344
11.6,0.55744
11.625,0.553152
11.65,0.51456
11.675,0.626048
11.7,0.630336
11.725,0.677504
11.75,0.62176
11.775,0.634624
11.8,0.656064
11.825,0.6432
11.85,0.673216
11.875,0.566016
11.9,0.566016
11.925,0.566016
11.95,0.57056
11.975,0.50336
12,0
12.025,1.04474
12.05,0.025728
12.075,0.548864
12.1,0.424512
12.125,0.570304
12.15,0.561728
12.175,0.570304
12.2,0.38592
12.225,0
12.25,1.0455
12.275,0.347328
12.3,0.638912
12.325,0.531712
12.35,0.441664
12.375,0
12.4,1.04685
12.425,0.330176
12.45,0.505984
12.475,0.523136
12.5,0.441664
12.525,0
12.55,0.690368
12.575,0.406848
12.6,0.175808
12.625,0.561728
12.65,0.484544
12.675,0.40736
12.7,0.475968
12.725,0.488832
12.75,0.424512
12.775,0.49312
12.8,0.445952
12.825,0.4288
12.85,0.527424
12.875,0.445952
12.9,0.497408
12.925,0.47168
12.95,0.548864
12.975,0.49312
13,0.536
13.025,0.295872
13.05,0.283008
13.075,0.287296
13.1,0.283008
13.125,0.154368
13.15,0
13.175,0
13.2,0.981952
13.225,0.180096
13.25,0.351616
13.275,0.394496
13.3,0.40736
13.325,0.338752
13.35,0.463104
13.375,0.060032
13.4,0
13.425,0.83616
13.45,0.154368
13.475,0.295872
13.5,0.308736
13.525,0.287296
13.55,0.244416
13.575,0
13.6,0.7504
13.625,0.180096
13.65,0.287296
13.675,0.484544
13.7,0.338752
13.725,0.325888
13.75,0.334464
13.775,0.574592
13.8,0.360192
13.825,0.463104
13.85,0.617472
13.875,0.626048
13.9,0.647488
13.925,0.613184
13.95,0.6432
13.975,0.630336
14,0.583168
14.025,0.634624
14.05,0.57888
14.075,0.591744
14.1,0.608896
14.125,0.66464
14.15,0.591744
14.175,0.651776
14.2,0.634624
14.225,0.634624
14.25,0.66464
14.275,0.617472
14.3,0.6432
14.325,0.66464
14.35,0.604608
14.375,0.626048
14.4,0.68608
14.425,0.720384
14.45,0.673216
14.475,0.716096
14.5,0.660352
14.525,0.690368
14.55,0.660352
14.575,0.627392
14.6,0.702336
14.625,0.566208
14.65,0.634112
14.675,0.594944
14.7,0.56192
14.725,0.622208
14.75,0.401216
14.775,0
14.8,1.07821
14.825,0.574592
14.85,0.634624
14.875,0.56864
14.9,0.62912
14.925,0.377728
14.95,0
14.975,1.04762
15,0.231552
15.025,0.548864
15.05,0
15.075,1.0464
15.1,0.403072
15.125,0
15.15,0.9648
15.175,0.352256
15.2,0.381632
15.225,0.497408
15.25,0.497408
15.275,0.454528
15.3,0.548864
15.325,0.613184
15.35,0.544576
15.375,0.540288
15.4,0.527424
15.425,0.617472
15.45,0.497408
15.475,0.505984
15.5,0.480256
15.525,0.57888
15.55,0.497408
15.575,0.510272
15.6,0.66464
15.625,0.480256
15.65,0.510272
15.675,0.261568
15.7,0.381632
15.725,0
15.75,0.677504
15.775,0.274432
15.8,0.441664
15.825,0.36448
15.85,0.25728
15.875,0.283008
15.9,0.291584
15.925,0.27872
15.95,0.283008
15.975,0.283008
16,0.27872
16.025,0.334464
16.05,0
16.075,0.570304
16.1,0.12864
16.125,0.270144
16.15,0.283008
16.175,0.283008
16.2,0.287296
16.225,0.283008
16.25,0.317312
16.275,0.295872
16.3,0.398784
16.325,0.424512
16.35,0.261568
16.375,0.222976
16.4,0.338752
16.425,0.184384
16.45,0
16.475,0.55744
16.5,0.2144
16.525,0.351616
16.55,0.162944
16.575,0.45024
16.6,0.180096
16.625,0.347328
16.65,0.390208
16.675,0.338752
16.7,0.265856
16.725,0.403072
16.75,0.27872
16.775,0.40736
16.8,0.34304
16.825,0.561728
16.85,0.501696
16.875,0.55744
16.9,0.566016
16.925,0.570304
16.95,0.527424
16.975,0.548864
17,0.497408
17.025,0.596032
17.05,0.591744
17.075,0.51456
17.1,0.561728
17.125,0.613184
17.15,0.561728
17.175,0.570304
17.2,0.604608
17.225,0.604608
17.25,0.630336
17.275,0.647488
17.3,0.660352
17.325,0.673216
17.35,0.656064
17.375,0.656064
17.4,0.681792
17.425,0.741824
17.45,0.763264
17.475,0.728512
17.5,0.691008
17.525,0.771648
17.55,0.741696
17.575,0.865536
17.6,0.624128
17.625,0.734912
17.65,0.621824
17.675,0.676032
17.7,0.67232
17.725,0.695168
17.75,0.69568
17.775,0.572288
17.8,0.714304
17.825,0.693504
17.85,0.70816
17.875,0.61024
17.9,0.377024
17.925,0
17.95,1.04762
17.975,0.724672
18,0.709312
18.025,0.778752
18.05,0.632192
18.075,0.765568
18.1,0.72768
18.125,0.769728
18.15,0.687872
18.175,0.69696
18.2,0.657664
18.225,0.585152
18.25,0.372544
18.275,0.38016
18.3,0.369216
18.325,0.284992
18.35,0
18.375,0
18.4,1.04838
18.425,0.08576
18.45,0.57888
18.475,0.381632
18.5,0.351616
18.525,0.2816
18.55,0.285568
18.575,0.157248
18.6,0
18.625,0
18.65,0
18.675,1.048
18.7,0.295872
18.725,0.527424
18.75,0.36448
18.775,0.304448
18.8,0.322368
18.825,0.32448
18.85,0.163072
18.875,0
18.9,0
18.925,1.04838
18.95,0.115776
18.975,0.283008
19,0.445952
19.025,0.548864
19.05,0.57888
19.075,0.373056
19.1,0.501696
19.125,0.463104
19.15,0.711808
19.175,0.373056
19.2,0.66464
19.225,0.240128
19.25,0.956224
19.275,0.470144
19.3,0.184384
19.325,0.527424
19.35,0.536
19.375,0.523136
19.4,0.566016
19.425,0.548864
19.45,0.591744
19.475,0.553152
19.5,0.531712
19.525,0.613184
19.55,0.630336
19.575,0.608896
19.6,0.55744
19.625,0.544576
19.65,0.587456
19.675,0.548864
19.7,0.536
19.725,0.51456
19.75,0
19.775,0.81472
19.8,0.437376
19.825,0.411648
19.85,0.415936
19.875,0.36448
19.9,0
19.925,0.784704
19.95,0.377344
19.975,0.38592
20,0.441664
20.025,0.347328
20.05,0.347328
20.075,0.338752
20.1,0.420224
20.125,0.45024
20.15,0.40736
20.175,0.433088
20.2,0.475968
20.225,0.475968
20.25,0.445952
20.275,0.6432
20.3,0.570304
20.325,0.531712
20.35,0.60032
20.375,0.591744
20.4,0.583168
20.425,0.587456
20.45,0.561728
20.475,0.57888
20.5,0.634624
20.525,0.566016
20.55,0.574848
20.575,0.551616
20.6,0
20.625,1.04646
20.65,0.132928
20.675,0.548864
20.7,0.570304
20.725,0.570304
20.75,0.561728
20.775,0.566016
20.8,0.355904
20.825,0
20.85,1.048
20.875,0.145792
20.9,0.544576
20.925,0.47168
20.95,0.381632
20.975,0.381632
21,0.373056
21.025,0.222976
21.05,0
21.075,0.994816
21.1,0.051456
21.125,0.25728
21.15,0.167232
21.175,0
21.2,0
21.225,0.930496
21.25,0
21.275,0.19264
21.3,0.141504
21.325,0.283008
21.35,0.283008
21.375,0.047168
21.4,0.420224
21.425,0.081472
21.45,0.274432
21.475,0.30016
21.5,0.3216
21.525,0.2144
21.55,0.313024
21.575,0.295872
21.6,0.270144
21.625,0.304448
21.65,0.411648
21.675,0.373056
21.7,0.308736
21.725,0.420224
21.75,0.252992
21.775,0.394496
21.8,0.313024
21.825,0.424512
21.85,0.355904
21.875,0.252992
21.9,0.373056
21.925,0.17152
21.95,0.30016
21.975,0.308736
