time,value
2,0
2.025,0
2.05,0.04288
2.075,0.055744
2.1,0.094336
2.125,0.081472
2.15,0.17152
2.175,0.252992
2.2,0.124352
2.225,0.334464
2.25,0.313024
2.275,0.222976
2.3,0.244416
2.325,0.291584
2.35,0.270144
2.375,0
2.4,0
2.425,0
2.45,0.965504
2.475,0
2.5,0.158912
2.525,0.102912
2.55,0.274432
2.575,0.240128
2.6,0.270144
2.625,0.274432
2.65,0.227264
2.675,0.261568
2.7,0.04288
2.725,0
2.75,0
2.775,0.304448
2.8,0.651776
2.825,0.168064
2.85,0.060032
2.875,0.175808
2.9,0.445952
2.925,0.308736
2.95,0.25728
2.975,0.377344
3,0.437376
3.025,0.34304
3.05,0.480256
3.075,0.38592
3.1,0.531712
3.125,0.561728
3.15,0.574592
3.175,0.527424
3.2,0.531712
3.225,0.544576
3.25,0.523136
3.275,0.651776
3.3,0.553152
3.325,0.66464
3.35,0.488832
3.375,0.55744
3.4,0
3.425,1.04461
3.45,0.57888
3.475,0.55744
3.5,0.62176
3.525,0.6432
3.55,0.587456
3.575,0.604608
3.6,0.587456
3.625,0.711808
3.65,0.591744
3.675,0.608896
3.7,0.647488
3.725,0.626048
3.75,0.613184
3.775,0.638912
3.8,0.536
3.825,0
3.85,1.04826
3.875,0.351616
3.9,0.617472
3.925,0.570304
3.95,0.484544
3.975,0.711808
4,0.540288
4.025,0.55744
4.05,0.70752
4.075,0.77184
4.1,0.570304
4.125,0.231552
4.15,1.04512
4.175,0.334464
4.2,0.583168
4.225,0.62176
4.25,0.681792
4.275,0.596032
4.3,0.630336
4.325,0.175808
4.35,0.934784
4.375,0.398784
4.4,0.488832
4.425,0.38592
4.45,0.570304
4.475,0.566016
4.5,0.317312
4.525,0.484544
4.55,0.484544
4.575,0.45024
4.6,0.634624
4.625,0.51456
4.65,0.454528
4.675,0.553152
4.7,0.480256
4.725,0.55744
4.75,0.544576
4.775,0.540288
4.8,0.570304
4.825,0.566016
4.85,0.566016
4.875,0.566016
4.9,0.377344
4.925,0.377344
4.95,0.338752
4.975,0.265856
5,0
5.025,0
5.05,0
5.075,1.03501
5.1,0
5.125,0
5.15,0
5.175,0
5.2,0.611456
5.225,0.227264
5.25,0.04288
5.275,0.308736
5.3,0.197248
5.325,0.231552
5.35,0.252992
5.375,0.261568
5.4,0.08576
5.425,0
5.45,0
5.475,1.06086
5.5,0.072896
5.525,0.334464
5.55,0.308736
5.575,0.360192
5.6,0.231552
5.625,0.252992
5.65,0.248704
5.675,0.287296
5.7,0.12864
5.725,0.566016
5.75,0.141504
5.775,0
5.8,0.480256
5.825,0.180096
5.85,0.244416
5.875,0.27872
5.9,0.467392
5.925,0.49312
5.95,0.505984
5.975,0.475968
6,0.531712
6.025,0.248704
6.05,0.566016
6.075,0.248704
6.1,0.424512
6.125,0.420224
6.15,0.445952
6.175,0.437376
6.2,0.355904
6.225,0.488832
6.25,0.484544
6.275,0.424512
6.3,0.505984
6.325,0.467392
6.35,0.527424
6.375,0.553152
6.4,0.681792
6.425,0.673216
6.45,0.70752
6.475,0.909056
6.5,0.698944
6.525,0.849024
6.55,0.819008
6.575,0.823296
6.6,0.847936
6.625,0.551424
6.65,1.04314
6.675,0.137216
6.7,0.77184
6.725,0.853312
6.75,0.754688
6.775,0.844736
6.8,0.824704
6.825,0.796544
6.85,0.79008
6.875,0.847744
6.9,0.785024
6.925,0.759168
6.95,0.7792
6.975,0.830528
7,0.761216
7.025,0.767168
7.05,0.838144
7.075,0.8032
7.1,0.229184
7.125,1.04762
7.15,0.373056
7.175,0.784704
7.2,0.754688
7.225,0.677504
7.25,0.801856
7.275,0
7.3,1.04826
7.325,0.638912
7.35,0.604608
7.375,0.651776
7.4,0.668928
7.425,0.441664
7.45,0.651776
7.475,0.548864
7.5,0.090048
7.525,1.04461
7.55,0.17152
7.575,0.758976
7.6,0.668928
7.625,0.49312
7.65,0.570304
7.675,0.548864
7.7,0.561728
7.725,0.488832
7.75,0.540288
7.775,0.527424
7.8,0.390208
7.825,0.355904
7.85,0.381632
7.875,0.145792
7.9,0
7.925,0
7.95,0.411648
7.975,0.649024
8,0.094336
8.025,0.325888
8.05,0.360192
8.075,0.497408
8.1,0.252992
8.125,0.265856
8.15,0.227264
8.175,0.274432
8.2,0.098624
8.225,0
8.25,0.698944
8.275,0.077184
8.3,0.283008
8.325,0.27872
8.35,0.270144
8.375,0.222976
8.4,0.231552
8.425,0.270144
8.45,0
8.475,0.536
8.5,0.06432
8.525,0.098624
8.55,0.38592
8.575,0.08576
8.6,0.347328
8.625,0.330176
8.65,0.458816
8.675,0.111488
8.7,0.373056
8.725,0.360192
8.75,0.458816
8.775,0.454528
8.8,0.475968
8.825,0.420224
8.85,0.480256
8.875,0.523136
8.9,0.501696
8.925,0.583168
8.95,0.51456
8.975,0.596032
9,0.484544
9.025,0.703232
9.05,0.398784
9.075,0.510272
9.1,0.484544
9.125,0.454528
9.15,0.424512
9.175,0.561728
9.2,0.394496
9.225,0.501696
9.25,0.501696
9.275,0.570304
9.3,0.531712
9.325,0.510272
9.35,0.420224
9.375,0.583168
9.4,0.424512
9.425,0.49312
9.45,0.548864
9.475,0.518848
9.5,0.360192
9.525,0.587456
9.55,0.458816
9.575,0.510272
9.6,0.484544
9.625,0.536
9.65,0.480256
9.675,0.548864
9.7,0.497408
9.725,0.484544
9.75,0.523136
9.775,0.574592
9.8,0.70752
9.825,0.415936
9.85,0.6432
9.875,0.433088
9.9,0.591744
9.925,0.51456
9.95,0.60032
9.975,0.553152
10,0.467392
10.025,0.596032
10.05,0.570304
10.075,0.566016
10.1,0.608896
10.125,0.733248
10.15,0.68704
10.175,0.643456
10.2,0.702848
10.225,0.56672
10.25,0.599616
10.275,0.603456
10.3,0.563136
10.325,0.564864
10.35,0
10.375,1.04838
10.4,0.360192
10.425,0.527424
10.45,0.570944
10.475,0.56096
10.5,0.8112
10.525,0.571904
10.55,0.671104
10.575,0.473024
10.6,0.465664
10.625,0.555392
10.65,0.106496
10.675,0
10.7,0
10.725,1.04723
10.75,0
10.775,0.162944
10.8,0.227264
10.825,0.240128
10.85,0.274432
10.875,0.197248
10.9,0
10.925,0
10.95,0
10.975,1.04838
11,0.111488
11.025,0.222976
11.05,0.261568
11.075,0.252992
11.1,0.304448
11.125,0.055744
11.15,0
11.175,0.758976
11.2,0.077184
11.225,0.330176
11.25,0.330176
11.275,0.475968
11.3,0.325888
11.325,0.252992
11.35,0.308736
11.375,0.04288
11.4,0
11.425,0.827584
11.45,0.034304
11.475,0.377344
11.5,0.25728
11.525,0.49312
11.55,0.441664
11.575,0.51456
11.6,0.55744
11.625,0.518848
11.65,0.475968
11.675,0.497408
11.7,0.548864
11.725,0.531712
11.75,0.501696
11.775,0.660352
11.8,0.4288
11.825,0.51456
11.85,0.561728
11.875,0.566016
11.9,0.527424
11.925,0.531712
11.95,0.540288
11.975,0.591744
12,0.536
12.025,0.518848
12.05,0.510272
12.075,0.480256
12.1,0.47168
12.125,0.132928
12.15,0.716096
12.175,0.287296
12.2,0.325888
12.225,0.394496
12.25,0.394496
12.275,0.308736
12.3,0.377344
12.325,0.38592
12.35,0.368768
12.375,0.36448
12.4,0.4288
12.425,0.403072
12.45,0.355904
12.475,0.45024
12.5,0.433088
12.525,0.420224
12.55,0.437376
12.575,0.49312
12.6,0.49312
12.625,0.536
12.65,0.561728
12.675,0.55744
12.7,0.566016
12.725,0.570304
12.75,0.583168
12.775,0.891904
12.8,0.488832
12.825,0.566016
12.85,0.695424
12.875,0.728128
12.9,0.57888
12.925,0.568192
12.95,0.563072
12.975,0.563712
13,0.45504
13.025,0
13.05,1.04742
13.075,0.27872
13.1,0.47168
13.125,0.570304
13.15,0.56832
13.175,0.566592
13.2,0.56544
13.225,0.149376
13.25,0
13.275,1.04845
13.3,0.523136
13.325,0.70752
13.35,0.570304
13.375,0.415936
13.4,0.445952
13.425,0.38592
13.45,0.394496
13.475,0
13.5,0
13.525,1.04595
13.55,0.19296
13.575,0
13.6,0.394496
13.625,0.330176
13.65,0.188672
13.675,0
13.7,0.94336
13.725,0.090048
13.75,0.420224
13.775,0.373056
13.8,0.317312
13.825,0.287296
13.85,0.283008
13.875,0.283008
13.9,0.175808
13.925,0
13.95,0.68608
13.975,0.201536
14,0.317312
14.025,0.501696
14.05,0.510272
14.075,0.377344
14.1,0.57888
14.125,0.038592
14.15,0.673216
14.175,0.205824
14.2,0.373056
14.225,0
14.25,0.668928
14.275,0.437376
14.3,0.484544
14.325,0.45024
14.35,0.527424
14.375,0.47168
14.4,0.49312
14.425,0.475968
14.45,0.420224
14.475,0.488832
14.5,0.458816
14.525,0.411648
14.55,0.390208
14.575,0.403072
14.6,0.390208
14.625,0.411648
14.65,0.36448
14.675,0.403072
14.7,0.510272
14.725,0.283008
14.75,0.36448
14.775,0.510272
14.8,0.437376
14.825,0.488832
14.85,0.403072
14.875,0.373056
14.9,0.377344
14.925,0.49312
14.95,0.424512
14.975,0.40736
15,0.475968
15.025,0.411648
15.05,0.548864
15.075,0.467392
15.1,0.561728
15.125,0.570304
15.15,0.561728
15.175,0.566016
15.2,0.634624
15.225,0.8576
15.25,0.656064
15.275,0.587456
15.3,0.567424
15.325,0.563072
15.35,0.567232
15.375,0.205888
15.4,0
15.425,1.0473
15.45,0.398784
15.475,0.596032
15.5,0.566016
15.525,0.566016
15.55,0.570304
15.575,0.561472
15.6,0.071616
15.625,1.04429
15.65,0.094336
15.675,0.475968
15.7,0.596032
15.725,0.566016
15.75,0.570304
15.775,0.570304
15.8,0.583168
15.825,0.784704
15.85,0.613184
15.875,0.355904
15.9,0
15.925,1.04467
15.95,0.184384
15.975,0.45024
16,0.252992
16.025,0
16.05,0.887616
16.075,0.192384
16.1,0.338752
16.125,0.433088
16.15,0.505984
16.175,0.347328
16.2,0.368768
16.225,0.523136
16.25,0.304448
16.275,0.060032
16.3,0
16.325,0.81472
16.35,0.17152
16.375,0.308736
16.4,0.283008
16.425,0.034304
16.45,0.4288
16.475,0
16.5,0.368768
16.525,0.158656
16.55,0.23584
16.575,0.295872
16.6,0.240128
16.625,0.23584
16.65,0.261568
16.675,0.274432
16.7,0.274432
16.725,0.145792
16.75,0
16.775,0.45024
16.8,0
16.825,0
16.85,0.373056
16.875,0
16.9,0.188672
16.925,0.23584
16.95,0.231552
16.975,0.248704
17,0.313024
17.025,0.240128
17.05,0.240128
17.075,0.334464
17.1,0.098624
17.125,0.553152
17.15,0.252992
17.175,0.252992
17.2,0.330176
17.225,0.270144
17.25,0.265856
17.275,0.004288
17.3,0.330176
17.325,0.240128
17.35,0.240128
17.375,0.274432
17.4,0.25728
17.425,0.27872
17.45,0.252992
17.475,0.25728
17.5,0.274432
17.525,0.252992
17.55,0.34304
17.575,0.227264
17.6,0.304448
17.625,0.270144
17.65,0.270144
17.675,0.394496
17.7,0.252992
17.725,0.317312
17.75,0.252992
17.775,0.287296
17.8,0.308736
17.825,0.334464
17.85,0.334464
17.875,0.274432
17.9,0.330176
17.925,0.274432
17.95,0.30016
17.975,0.325888
18,0.334464
18.025,0.368768
18.05,0.287296
18.075,0.38592
18.1,0.347328
18.125,0.458816
18.15,0.3216
18.175,0.49312
18.2,0.415936
18.225,0.548864
18.25,0.497408
18.275,0.330176
18.3,1.04736
18.325,0.218688
18.35,0.467392
18.375,0.536
18.4,0.540288
18.425,0.527424
18.45,0.510272
18.475,0.570304
18.5,0.49312
18.525,0.23584
18.55,0.83616
18.575,0.3216
18.6,0.398784
18.625,0.04288
18.65,0.797568
18.675,0.184384
18.7,0.463104
18.725,0.304448
18.75,0.355904
18.775,0.38592
18.8,0.34304
18.825,0.445952
18.85,0.317312
18.875,0.394496
18.9,0.38592
18.925,0.415936
18.95,0.38592
18.975,0.347328
19,0.295872
19.025,0.377344
19.05,0.295872
19.075,0.283008
19.1,0.295872
19.125,0.325888
19.15,0.30016
19.175,0.261568
19.2,0.02144
19.225,0
19.25,0.608896
19.275,0.115776
19.3,0.124352
19.325,0
19.35,0.566016
19.375,0.15008
19.4,0
19.425,0.403072
19.45,0.04288
19.475,0.274432
19.5,0.30016
19.525,0.287296
19.55,0.27872
19.575,0.313024
19.6,0.025728
19.625,0.540288
19.65,0.197248
19.675,0.137216
19.7,0.175808
19.725,0.19296
19.75,0.205824
19.775,0.27872
19.8,0.390208
19.825,0.330176
19.85,0.38592
19.875,0.437376
19.9,0.47168
19.925,0.454528
19.95,0.4288
19.975,0.510272
20,0.548864
20.025,0.523136
20.05,0.681792
20.075,0.767552
20.1,0.733248
20.125,0.960512
20.15,0.004288
20.175,1.04851
20.2,0.656064
20.225,0.724672
20.25,0.746112
20.275,0.746112
20.3,0.737536
20.325,0.690368
20.35,0.733248
20.375,0.677504
20.4,0.66464
20.425,0.66464
20.45,0.647488
20.475,0.776128
20.5,0.767552
20.525,0.694656
20.55,0.634624
20.575,0.703232
20.6,0.647488
20.625,0.66464
20.65,0.647488
20.675,0.626048
20.7,0.720384
20.725,0.634624
20.75,0.626048
20.775,0.70752
20.8,0.638912
20.825,0.591744
20.85,0.8576
20.875,0.694656
20.9,0.720384
20.925,0.810432
20.95,0.776128
20.975,0.934784
21,0.81472
21.025,0.83616
21.05,0.840448
21.075,0.8576
21.1,0.863936
21.125,0.810816
21.15,0.84064
21.175,0.863104
21.2,0.88096
21.225,0.776
21.25,0.808448
21.275,0.85312
21.3,0.482496
21.325,0.415104
21.35,0.40416
21.375,0.388928
21.4,0.2912
21.425,0
21.45,0
21.475,1.048
21.5,0.094336
21.525,0.4288
21.55,0.38592
21.575,0.373056
21.6,0.377728
21.625,0.361216
21.65,0
21.675,0
21.7,1.04685
21.725,0
21.75,0.527424
21.775,0.317312
21.8,0.4288
21.825,0.261568
21.85,0.23776
21.875,0.3328
21.9,0.044928
21.925,0
21.95,0
21.975,1.04838
