time,value
2,0
2.025,0
2.05,0.04288
2.075,0.077184
2.1,0.154368
2.125,0.261568
2.15,0.424512
2.175,0.49312
2.2,0.283008
2.225,0.295872
2.25,0.249152
2.275,0.261952
2.3,0
2.325,0
2.35,0
2.375,0.522496
2.4,0.52608
2.425,0.227264
2.45,0.274432
2.475,0.295872
2.5,0.274432
2.525,0.261568
2.55,0.277696
2.575,0.017152
2.6,0
2.625,0
2.65,0.145536
2.675,0.856576
2.7,0.057024
2.725,0.17152
2.75,0.252992
2.775,0.325888
2.8,0.287296
2.825,0.530816
2.85,0.285184
2.875,0.034304
2.9,0
2.925,1.04826
2.95,0.068608
2.975,0.398784
3,0.758976
3.025,0.690368
3.05,0.754688
3.075,0.716096
3.1,0.72896
3.125,0.72896
3.15,0.827584
3.175,0.806144
3.2,0.801856
3.225,0.896192
3.25,0.737536
3.275,0.827584
3.3,0.853312
3.325,0.90048
3.35,0.874752
3.375,0.861888
3.4,0.827584
3.425,0.887616
3.45,0.844736
3.475,0.896192
3.5,0.853312
3.525,0.810432
3.55,0.66464
3.575,0.973376
3.6,0.273088
3.625,0.668928
3.65,0.62176
3.675,0.656064
3.7,0.651776
3.725,0.626048
3.75,0.690368
3.775,0.227264
3.8,0.90048
3.825,0.467392
3.85,0.497408
3.875,0.4288
3.9,0.480256
3.925,0.505984
3.95,0.480256
3.975,0.467392
4,0.501696
4.025,0.441664
4.05,0.463104
4.075,0.510272
4.1,0.47168
4.125,0.51456
4.15,0.505984
4.175,0.480256
4.2,0.501696
4.225,0.501696
4.25,0.484544
4.275,0.49312
4.3,0.497408
4.325,0.51456
4.35,0.51456
4.375,0.501696
4.4,0.49312
4.425,0.463104
4.45,0.51456
4.475,0.553152
4.5,0.497408
4.525,0.527424
4.55,0.463104
4.575,0.484544
4.6,0.484544
4.625,0.501696
4.65,0.510272
4.675,0.561728
4.7,0.523136
4.725,0.497408
4.75,0.527424
4.775,0.548864
4.8,0.49312
4.825,0.548864
4.85,0.287296
4.875,0.415936
4.9,0.4288
4.925,0.34304
4.95,0.34304
4.975,0.313024
5,0.265856
5.025,0.283008
5.05,0.252992
5.075,0.270144
5.1,0
5.125,0.540288
5.15,0.08576
5.175,0.15008
5.2,0.244416
5.225,0.17152
5.25,0.227264
5.275,0.197248
5.3,0.19296
5.325,0.201536
5.35,0.23584
5.375,0.334464
5.4,0.124352
5.425,0.222976
5.45,0.270144
5.475,0.360192
5.5,0.261568
5.525,0.355904
5.55,0.317312
5.575,0.270144
5.6,0.377344
5.625,0.373056
5.65,0.244416
5.675,0.36448
5.7,0.394496
5.725,0.38592
5.75,0.4288
5.775,0.398784
5.8,0.411648
5.825,0.34304
5.85,0.360192
5.875,0.381632
5.9,0.437376
5.925,0.441664
5.95,0.45024
5.975,0.433088
6,0.368768
6.025,0.433088
6.05,0.411648
6.075,0.454528
6.1,0.445952
6.125,0.437376
6.15,0.411648
6.175,0.441664
6.2,0.411648
6.225,0.45024
6.25,0.441664
6.275,0.4288
6.3,0.441664
6.325,0.437376
6.35,0.433088
6.375,0.433088
6.4,0.445952
6.425,0.463104
6.45,0.45024
6.475,0.411648
6.5,0.411648
6.525,0.433088
6.55,0.445952
6.575,0.463104
6.6,0.458816
6.625,0.424512
6.65,0.45024
6.675,0.390208
6.7,0.441664
6.725,0.415936
6.75,0.454528
6.775,0.463104
6.8,0.454528
6.825,0.433088
6.85,0.458816
6.875,0.441664
6.9,0.394496
6.925,0.347328
6.95,0.488832
6.975,0.291584
7,0.317312
7.025,0.334464
7.05,0.325888
7.075,0.34304
7.1,0.334464
7.125,0.330176
7.15,0.338752
7.175,0.330176
7.2,0.34304
7.225,0.34304
7.25,0.3216
7.275,0.30016
7.3,0.360192
7.325,0.360192
7.35,0.34304
7.375,0.34304
7.4,0.330176
7.425,0.325888
7.45,0.34304
7.475,0.351616
7.5,0.325888
7.525,0.295872
7.55,0.051456
7.575,0.308736
7.6,0.25728
7.625,0.244416
7.65,0.227264
7.675,0.120064
7.7,0.222976
7.725,0.201536
7.75,0.222976
7.775,0.231552
7.8,0.2144
7.825,0.175808
7.85,0.167232
7.875,0.04288
7.9,0.23584
7.925,0.060032
7.95,0.167232
7.975,0.162944
8,0.15008
8.025,0.162944
8.05,0.12864
8.075,0.115776
8.1,0.055744
8.125,0.167232
8.15,0.1072
8.175,0.154368
8.2,0.175808
8.225,0.120064
8.25,0.175808
8.275,0.154368
8.3,0.167232
8.325,0.184384
8.35,0.158656
8.375,0.162944
8.4,0.137216
8.425,0.145792
8.45,0.180096
8.475,0.188672
8.5,0.175808
8.525,0.137216
8.55,0.180096
8.575,0.094336
8.6,0.180096
8.625,0.158656
8.65,0.154368
8.675,0.201536
8.7,0
8.725,0.184384
8.75,0.090048
8.775,0.188672
8.8,0.201536
8.825,0.137216
8.85,0.205824
8.875,0.227264
8.9,0.210112
8.925,0.231552
8.95,0.222976
8.975,0.244416
9,0.210112
9.025,0.210112
9.05,0.210112
9.075,0.210112
9.1,0.222976
9.125,0.222976
9.15,0.227264
9.175,0.227264
9.2,0.2144
9.225,0.231552
9.25,0.23584
9.275,0.231552
9.3,0.218688
9.325,0.231552
9.35,0.227264
9.375,0.227264
9.4,0.227264
9.425,0.231552
9.45,0.222976
9.475,0.222976
9.5,0.23584
9.525,0.227264
9.55,0.227264
9.575,0.23584
9.6,0.231552
9.625,0.227264
9.65,0.227264
9.675,0.2144
9.7,0.222976
9.725,0.23584
9.75,0.227264
9.775,0.227264
9.8,0.23584
9.825,0.23584
9.85,0.222976
9.875,0.231552
9.9,0.227264
9.925,0.222976
9.95,0.231552
9.975,0.210112
10,0.244416
10.025,0.2144
10.05,0.231552
10.075,0.231552
10.1,0.227264
10.125,0.227264
10.15,0.205824
10.175,0.23584
10.2,0.201536
10.225,0.23584
10.25,0.222976
10.275,0.210112
10.3,0.231552
10.325,0.23584
10.35,0.222976
10.375,0.231552
10.4,0.231552
10.425,0.227264
10.45,0.227264
10.475,0.222976
10.5,0.231552
10.525,0.23584
10.55,0.240128
10.575,0.23584
10.6,0.201536
10.625,0.124352
10.65,0.068608
10.675,0.222976
10.7,0.15008
10.725,0.077184
10.75,0.145792
10.775,0.102912
10.8,0.124352
10.825,0.15008
10.85,0.102912
10.875,0.12864
10.9,0.081472
10.925,0.115776
10.95,0.154368
10.975,0.154368
11,0.124352
11.025,0.132928
11.05,0.115776
11.075,0.132928
11.1,0.145792
11.125,0.162944
11.15,0.17152
11.175,0.145792
11.2,0.154368
11.225,0.124352
11.25,0.141504
11.275,0.167232
11.3,0.154368
11.325,0.180096
11.35,0.137216
11.375,0.167232
11.4,0.060032
11.425,0.205824
11.45,0.115776
11.475,0.132928
11.5,0.068608
11.525,0.055744
11.55,0.17152
11.575,0.090048
11.6,0.098624
11.625,0.102912
11.65,0.08576
11.675,0.098624
11.7,0.098624
11.725,0.08576
11.75,0.102912
11.775,0.094336
11.8,0.098624
11.825,0.098624
11.85,0.1072
11.875,0.102912
11.9,0.102912
11.925,0.1072
11.95,0.098624
11.975,0.1072
12,0.094336
12.025,0.1072
12.05,0.115776
12.075,0.102912
12.1,0.098624
12.125,0.115776
12.15,0.111488
12.175,0.111488
12.2,0.115776
12.225,0.115776
12.25,0.120064
12.275,0.111488
12.3,0.115776
12.325,0.115776
12.35,0.124352
12.375,0.120064
12.4,0.124352
12.425,0.120064
12.45,0.124352
12.475,0.120064
12.5,0.124352
12.525,0.120064
12.55,0.120064
12.575,0.124352
12.6,0.12864
12.625,0.120064
12.65,0.120064
12.675,0.120064
12.7,0.120064
12.725,0.124352
12.75,0.124352
12.775,0.12864
12.8,0.115776
12.825,0.115776
12.85,0.132928
12.875,0.12864
12.9,0.12864
12.925,0.120064
12.95,0.12864
12.975,0.124352
13,0.12864
13.025,0.124352
13.05,0.124352
13.075,0.12864
13.1,0.124352
13.125,0.12864
13.15,0.124352
13.175,0.12864
13.2,0.124352
13.225,0.12864
13.25,0.124352
13.275,0.12864
13.3,0.124352
13.325,0.12864
13.35,0.124352
13.375,0.124352
13.4,0.12864
13.425,0.124352
13.45,0.098624
13.475,0.115776
13.5,0.090048
13.525,0.12864
13.55,0.1072
13.575,0.115776
13.6,0.124352
13.625,0.120064
13.65,0.120064
13.675,0.120064
13.7,0.090048
13.725,0.120064
13.75,0.081472
13.775,0.102912
13.8,0.115776
13.825,0.081472
13.85,0.06432
13.875,0.102912
13.9,0
13.925,0.111488
13.95,0.055744
13.975,0.077184
14,0.090048
14.025,0.081472
14.05,0.08576
14.075,0.068608
14.1,0.094336
14.125,0.081472
14.15,0.077184
14.175,0.077184
14.2,0.094336
14.225,0.077184
14.25,0.08576
14.275,0.08576
14.3,0.08576
14.325,0.090048
14.35,0.094336
14.375,0.055744
14.4,0.090048
14.425,0.081472
14.45,0.090048
14.475,0.102912
14.5,0.1072
14.525,0.111488
14.55,0.1072
14.575,0.1072
14.6,0.1072
14.625,0.111488
14.65,0.111488
14.675,0.111488
14.7,0.1072
14.725,0.1072
14.75,0.115776
14.775,0.111488
14.8,0.115776
14.825,0.1072
14.85,0.111488
14.875,0.102912
14.9,0.115776
14.925,0.1072
14.95,0.120064
14.975,0.115776
15,0.115776
15.025,0.115776
15.05,0.120064
15.075,0.111488
15.1,0.094336
15.125,0.124352
15.15,0.102912
15.175,0.124352
15.2,0.120064
15.225,0.124352
15.25,0.111488
15.275,0.12864
15.3,0.12864
15.325,0.132928
15.35,0.120064
15.375,0.124352
15.4,0.124352
15.425,0.12864
15.45,0.132928
15.475,0.120064
15.5,0.132928
15.525,0.132928
15.55,0.132928
15.575,0.132928
15.6,0.12864
15.625,0.137216
15.65,0.12864
15.675,0.137216
15.7,0.132928
15.725,0.132928
15.75,0.12864
15.775,0.124352
15.8,0.137216
15.825,0.12864
15.85,0.132928
15.875,0.137216
15.9,0.12864
15.925,0.098624
15.95,0.120064
15.975,0.090048
16,0.115776
16.025,0.124352
16.05,0.124352
16.075,0.120064
16.1,0.102912
16.125,0.120064
16.15,0.102912
16.175,0.120064
16.2,0.1072
16.225,0.115776
16.25,0.124352
16.275,0.132928
16.3,0.132928
16.325,0.12864
16.35,0.132928
16.375,0.132928
16.4,0.102912
16.425,0.111488
16.45,0.124352
16.475,0.1072
16.5,0.102912
16.525,0.124352
16.55,0.115776
16.575,0.12864
16.6,0.115776
16.625,0.072896
16.65,0.124352
16.675,0.1072
16.7,0.111488
16.725,0.124352
16.75,0.124352
16.775,0.094336
16.8,0.12864
16.825,0.132928
16.85,0.124352
16.875,0.12864
16.9,0.137216
16.925,0.132928
16.95,0.137216
16.975,0.12864
17,0.12864
17.025,0.137216
17.05,0.124352
17.075,0.115776
17.1,0.124352
17.125,0.132928
17.15,0.120064
17.175,0.132928
17.2,0.120064
17.225,0.1072
17.25,0.1072
17.275,0.132928
17.3,0.124352
17.325,0.124352
17.35,0.124352
17.375,0.1072
17.4,0.124352
17.425,0.120064
17.45,0.1072
17.475,0.124352
17.5,0.120064
17.525,0.077184
17.55,0.12864
17.575,0.124352
17.6,0.115776
17.625,0.120064
17.65,0.120064
17.675,0.137216
17.7,0.137216
17.725,0.12864
17.75,0.12864
17.775,0.137216
17.8,0.12864
17.825,0.137216
17.85,0.137216
17.875,0.141504
17.9,0.137216
17.925,0.132928
17.95,0.137216
17.975,0.137216
18,0.137216
18.025,0.132928
18.05,0.137216
18.075,0.137216
18.1,0.141504
18.125,0.132928
18.15,0.12864
18.175,0.145792
18.2,0.137216
18.225,0.12864
18.25,0.111488
18.275,0.102912
18.3,0.102912
18.325,0.072896
18.35,0.115776
18.375,0.124352
18.4,0.12864
18.425,0.111488
18.45,0.098624
18.475,0.094336
18.5,0.08576
18.525,0.077184
18.55,0.068608
18.575,0.098624
18.6,0.090048
18.625,0.094336
18.65,0.102912
18.675,0.102912
18.7,0.102912
18.725,0.098624
18.75,0.098624
18.775,0.1072
18.8,0.090048
18.825,0.08576
18.85,0.081472
18.875,0.090048
18.9,0.102912
18.925,0.08576
18.95,0.090048
18.975,0.094336
19,0.06432
19.025,0.098624
19.05,0.098624
19.075,0.072896
19.1,0.102912
19.125,0.120064
19.15,0.111488
19.175,0.115776
19.2,0.120064
19.225,0.124352
19.25,0.120064
19.275,0.124352
19.3,0.124352
19.325,0.120064
19.35,0.120064
19.375,0.124352
19.4,0.120064
19.425,0.132928
19.45,0.124352
19.475,0.124352
19.5,0.12864
19.525,0.124352
19.55,0.12864
19.575,0.124352
19.6,0.124352
19.625,0.08576
19.65,0.1072
19.675,0.111488
19.7,0.102912
19.725,0.120064
19.75,0.08576
19.775,0.111488
19.8,0.120064
19.825,0.12864
19.85,0.1072
19.875,0.120064
19.9,0.115776
19.925,0.090048
19.95,0.120064
19.975,0.120064
20,0.137216
20.025,0.124352
20.05,0.132928
20.075,0.137216
20.1,0.141504
20.125,0.12864
20.15,0.141504
20.175,0.132928
20.2,0.137216
20.225,0.132928
20.25,0.137216
20.275,0.137216
20.3,0.132928
20.325,0.132928
20.35,0.137216
20.375,0.141504
20.4,0.12864
20.425,0.141504
20.45,0.132928
20.475,0.141504
20.5,0.141504
20.525,0.137216
20.55,0.12864
20.575,0.120064
20.6,0.111488
20.625,0.120064
20.65,0.12864
20.675,0.120064
20.7,0.094336
20.725,0.102912
20.75,0.12864
20.775,0.102912
20.8,0.111488
20.825,0.120064
20.85,0.111488
20.875,0.132928
20.9,0.132928
20.925,0.145792
20.95,0.137216
20.975,0.132928
21,0.132928
21.025,0.137216
21.05,0.141504
21.075,0.08576
21.1,0.111488
21.125,0.115776
21.15,0.090048
21.175,0.060032
21.2,0.115776
21.225,0.090048
21.25,0.077184
21.275,0.090048
21.3,0.111488
21.325,0.102912
21.35,0.141504
21.375,0.124352
21.4,0.137216
21.425,0.141504
21.45,0.132928
21.475,0.137216
21.5,0.141504
21.525,0.137216
21.55,0.132928
21.575,0.12864
21.6,0.12864
21.625,0.12864
21.65,0.12864
21.675,0.137216
21.7,0.137216
21.725,0.141504
21.75,0.141504
21.775,0.137216
21.8,0.137216
21.825,0.12864
21.85,0.137216
21.875,0.137216
21.9,0.12864
21.925,0.137216
21.95,0.12864
21.975,0.102912
